{
    "_id": "2GAOUxDfoA48uCWP",
    "data": {
        "attributes": {
            "ac": {
                "value": 0
            },
            "hardness": 0,
            "hasHealth": false,
            "hp": {
                "details": "",
                "max": 0,
                "temp": 0,
                "tempmax": 0,
                "value": 0
            },
            "stealth": {
                "details": "(expert)",
                "value": 14
            }
        },
        "creatureType": "",
        "details": {
            "description": "<p>An invisible rune creates an invisible, spherical magical sensor with a 20-foot radius.</p>",
            "disable": "<p><span data-pf2-check=\"thievery\" data-pf2-label=\"Erase the Rune DC\" data-pf2-dc=\"22\" data-pf2-show-dc=\"gm\">Thievery</span> (expert) to erase the rune without triggering the sensor, or <em>@Compendium[sf2e.spells-srd.Dispel Magic]{Dispel Magic}</em> (3rd level; counteract DC 20) to counteract the rune</p>",
            "isComplex": false,
            "level": {
                "value": 5
            },
            "reset": "",
            "routine": ""
        },
        "saves": {
            "fortitude": {
                "saveDetail": "",
                "value": 0
            },
            "reflex": {
                "saveDetail": "",
                "value": 0
            },
            "will": {
                "saveDetail": "",
                "value": 0
            }
        },
        "source": {
            "value": "Pathfinder Core Rulebook"
        },
        "statusEffects": [],
        "traits": {
            "ci": [],
            "di": {
                "custom": "",
                "selected": {},
                "value": []
            },
            "dr": [],
            "dv": [],
            "rarity": {
                "value": "common"
            },
            "size": {
                "value": "med"
            },
            "traits": {
                "custom": "",
                "value": [
                    "evocation",
                    "fire",
                    "magical",
                    "trap"
                ]
            }
        }
    },
    "effects": [],
    "flags": {},
    "img": "systems/sf2e/icons/default-icons/hazard.svg",
    "items": [
        {
            "_id": "uJpg7vUJ1qag7R3t",
            "data": {
                "actionCategory": {
                    "value": "offensive"
                },
                "actionType": {
                    "value": "reaction"
                },
                "actions": {
                    "value": null
                },
                "description": {
                    "value": "<p data-visibility=\"gm\"><strong>Trigger</strong> A living creature enters the sensor area.</p>\n<p><strong>Effect</strong> The rune detonates a <em>@Compendium[sf2e.spells-srd.Fireball]{Fireball}</em> centered on the triggering creature's square. This is a 3rd-level fireball spell that deals [[/r 6d6 #fire]]{6d6 fire damage} (<span data-pf2-check=\"reflex\" data-pf2-dc=\"22\" data-pf2-traits=\"arcane,evocation,fire,damaging-effect\" data-pf2-label=\"Fireball DC\" data-pf2-show-dc=\"gm\">basic Reflex</span> save).</p>"
                },
                "requirements": {
                    "value": ""
                },
                "rules": [],
                "slug": null,
                "source": {
                    "value": ""
                },
                "traits": {
                    "custom": "",
                    "rarity": {
                        "value": "common"
                    },
                    "value": [
                        "arcane",
                        "evocation",
                        "fire"
                    ]
                },
                "trigger": {
                    "value": ""
                },
                "weapon": {
                    "value": ""
                }
            },
            "effects": [],
            "flags": {},
            "img": "systems/sf2e/icons/actions/Reaction.webp",
            "name": "Fireball",
            "sort": 100000,
            "type": "action"
        }
    ],
    "name": "Fireball Rune",
    "token": {
        "disposition": 0,
        "height": 1,
        "img": "systems/sf2e/icons/default-icons/hazard.svg",
        "name": "Fireball Rune",
        "width": 1
    },
    "type": "hazard"
}
