{
    "_id": "1egK7HFAFdHxMS9N",
    "data": {
        "attributes": {
            "ac": {
                "value": 0
            },
            "hardness": 0,
            "hasHealth": false,
            "hp": {
                "details": "",
                "max": 10,
                "temp": 0,
                "value": 10
            },
            "stealth": {
                "details": "<p>(expert)</p>",
                "value": 16
            }
        },
        "creatureType": "",
        "customModifiers": {},
        "details": {
            "description": "<p>A sportlebore hides amid the victuals on a plate of food or within a pack of trail rations.</p>",
            "disable": "<p>A creature that notices the sportlebore can remove it from the food it is hidden within automatically as an Interact action. </p>",
            "isComplex": false,
            "level": {
                "value": 7
            },
            "reset": "",
            "routine": ""
        },
        "saves": {
            "fortitude": {
                "saveDetail": "",
                "value": 0
            },
            "reflex": {
                "saveDetail": "",
                "value": 0
            },
            "will": {
                "saveDetail": "",
                "value": 0
            }
        },
        "source": {
            "value": "Pathfinder Bestiary 2"
        },
        "statusEffects": [],
        "traits": {
            "ci": [],
            "di": {
                "custom": "",
                "selected": {},
                "value": []
            },
            "dr": [],
            "dv": [],
            "rarity": {
                "value": "common"
            },
            "size": {
                "value": "med"
            },
            "traits": {
                "custom": "animal",
                "value": [
                    "environmental"
                ]
            }
        }
    },
    "effects": [],
    "flags": {},
    "img": "systems/sf2e/icons/default-icons/hazard.svg",
    "items": [
        {
            "_id": "WleycA2DC7Pz8RYR",
            "data": {
                "actionCategory": {
                    "value": ""
                },
                "actionType": {
                    "value": "reaction"
                },
                "actions": {
                    "value": null
                },
                "description": {
                    "value": "<p data-visibility=\"gm\"><strong>Trigger</strong> A creature eats food the sportlebore is hidden within;</p>\n<p><strong>Effect</strong> The sportlebore rapidly multiplies in the host's stomach, exposing the host to sportlebore infestation</p>"
                },
                "requirements": {
                    "value": ""
                },
                "rules": [],
                "slug": null,
                "source": {
                    "value": ""
                },
                "traits": {
                    "custom": "",
                    "rarity": {
                        "value": "common"
                    },
                    "value": []
                },
                "trigger": {
                    "value": ""
                },
                "weapon": {
                    "value": ""
                }
            },
            "effects": [],
            "flags": {},
            "img": "systems/sf2e/icons/actions/Reaction.webp",
            "name": "Mimic Food",
            "sort": 100000,
            "type": "action"
        },
        {
            "_id": "nCcx1LK7XrbDnVXI",
            "data": {
                "actionCategory": {
                    "value": "interaction"
                },
                "actionType": {
                    "value": "passive"
                },
                "actions": {
                    "value": null
                },
                "description": {
                    "value": "<p><strong>Saving Throw</strong> <span data-pf2-check=\"fortitude\" data-pf2-dc=\"22\" data-pf2-traits=\"disease\" data-pf2-label=\"Sportlebore Infestation DC\" data-pf2-show-dc=\"gm\">basic Fortitude</span>;</p>\n<p><strong>Stage 1</strong> carrier with no ill effect (1 day);</p>\n<p><strong>Stage 2</strong> @Compendium[sf2e.conditionitems.Enfeebled]{Enfeebled 1} (1 hour);</p>\n<p><strong>Stage 3</strong> @Compendium[sf2e.conditionitems.Enfeebled]{Enfeebled 2} (1 hour);</p>\n<p><strong>Stage 4</strong> [[/r 4d6 #bludgeoning]]{4d6 bludgeoning damage} (<span data-pf2-check=\"fortitude\" data-pf2-dc=\"25\" data-pf2-traits=\"disease,damaging-effect\" data-pf2-label=\"Sportlebore Infestation DC\" data-pf2-show-dc=\"gm\">basic Fortitude</span> save) as the host painfully vomits out a sportlebore swarm and returns to stage 1</p>"
                },
                "requirements": {
                    "value": ""
                },
                "rules": [],
                "slug": null,
                "source": {
                    "value": ""
                },
                "traits": {
                    "custom": "",
                    "rarity": {
                        "value": "common"
                    },
                    "selected": [],
                    "value": [
                        "disease"
                    ]
                },
                "trigger": {
                    "value": ""
                },
                "weapon": {
                    "value": ""
                }
            },
            "effects": [],
            "flags": {},
            "img": "systems/sf2e/icons/default-icons/mystery-man.svg",
            "name": "Sportlebore Infestation",
            "sort": 600000,
            "type": "action"
        }
    ],
    "name": "Sportlebore",
    "token": {
        "disposition": 0,
        "height": 1,
        "img": "systems/sf2e/icons/default-icons/hazard.svg",
        "name": "Sportlebore",
        "width": 1
    },
    "type": "hazard"
}
