{
    "_id": "DYJfhMcLlP05oMDD",
    "content": "<h1>Duelist</h1>\n<p>Across the world, students in martial academies practice with their blades to master one-on-one combat. The libraries of such schools hold deep troves of information detailing hundreds of combat techniques, battle stances, and honorable rules of engagement. Those who gain admission to such schools might train in formalized duels-and that's certainly the more genteel route to take. However, others assert that there's no better place to try out dueling techniques than in the life-and-death struggles common to an adventurer's life.</p>\n<p>Additional Feats: 4th @Compendium[sf2e.feats-srd.Dueling Parry (Fighter)]{Dueling Parry}; 8th @Compendium[sf2e.feats-srd.Disarming Stance]{Disarming Stance}; 10th @Compendium[sf2e.feats-srd.Dueling Riposte]{Dueling Riposte}; 12th @Compendium[sf2e.feats-srd.Disarming Twist]{Disarming Twist}; 14th @Compendium[sf2e.feats-srd.Dueling Dance (Fighter)]{Dueling Dance}, @Compendium[sf2e.feats-srd.Improved Dueling Riposte]{Improved Dueling Riposte}; 16th @Compendium[sf2e.feats-srd.Guiding Riposte]{Guiding Riposte}</p>\n<h2>@Compendium[sf2e.feats-srd.Duelist Dedication]{Duelist Dedication} Feat 2</h2>\n<p><strong>Prerequisites</strong> trained in light armor and simple weapons</p>\n<hr />\n<p>You are always ready to draw your weapon and begin a duel, no matter the circumstances. You gain the Quick Draw ranger feat, enabling you to both draw and attack with a weapon as 1 action. This serves as Quick Draw for the purpose of meeting prerequisites.</p>\n<p><strong>Special</strong> You can't select another dedication feat until you have gained two other feats from the duelist archetype.</p>\n<h2>@Compendium[sf2e.feats-srd.Duelist's Challenge]{Duelist's Challenge} Feat 4</h2>\n<p><strong>Prerequisites</strong> Duelist Dedication</p>\n<hr />\n<p>Select one foe that you can see and proclaim a challenge. That foe is your dueling opponent until they are defeated, flee, or the encounter ends. Any time you hit that enemy using a single one-handed melee weapon while your other hand or hands are free, you gain a circumstance bonus to the Strike's damage equal to the number of damage dice your weapon deals.</p>\n<p>If you attack a creature other than your dueling opponent, you take a circumstance penalty to damage equal to the number of damage dice your weapon deals.</p>\n<h2>@Compendium[sf2e.feats-srd.Selfless Parry]{Selfless Parry} Feat 8</h2>\n<p><strong>Prerequisites</strong> Dueling Parry, Duelist Dedication</p>\n<hr />\n<p>You protect those near you with a flash of steel. When you're benefiting from Dueling Parry, allies adjacent to you gain a +1 circumstance bonus to AC. If you have Dueling Riposte, you can use it when an enemy within your reach critically fails a Strike against an ally adjacent to you, not just against yourself.</p>\n<h2>@Compendium[sf2e.feats-srd.Student Of The Dueling Arts]{Student Of The Dueling Arts} Feat 12</h2>\n<p><strong>Prerequisites</strong> Duelist Dedication</p>\n<hr />\n<p>You have studied a great many combat techniques, which you can review each day. During your daily preparations, you can swap out any number of your duelist archetype feats for other duelist archetype feats of the appropriate level for which you are qualified. You can't swap out Duelist Dedication or Student of the Dueling Arts in this way.</p>\n<p>In addition, you can enter a stance from a duelist archetype feat you don't have (such as one listed under Additional Feats) by increasing the number of actions it takes to enter the stance by 1 (typically to 2 actions). You must still meet the feat's prerequisites.</p>\n",
    "flags": {},
    "name": "Duelist",
    "permission": {
        "default": 0
    }
}
