{
    "_id": "UOhVrWvuaAVtQHEo",
    "content": "<h1>Mauler</h1>\n<p>You shove your way through legions of foes, knock enemies on all sides to the ground, and deal massive blows to anyone or anything that comes near.</p>\n<p><strong>Additional Feats</strong>: 4th @Compendium[sf2e.feats-srd.Knockdown]{Knockdown}, @Compendium[sf2e.feats-srd.Power Attack]{Power Attack}; 12th @Compendium[sf2e.feats-srd.Improved Knockdown]{Improved Knockdown}; 14th @Compendium[sf2e.feats-srd.Brutal Finish]{Brutal Finish}, @Compendium[sf2e.feats-srd.Unbalancing Sweep]{Unbalancing Sweep}</p>\n<h2>@Compendium[sf2e.feats-srd.Mauler Dedication]{Mauler Dedication} Feat 2</h2>\n<p><strong>Prerequisites</strong> Strength 14</p>\n<hr />\n<p>You specialize in weapons that require two hands. You become trained in all simple and martial melee weapons that require two hands to wield or have the two-hand trait. Whenever you gain a class feature that grants you expert or greater proficiency in weapons, you also gain that proficiency rank in these weapons. If you are at least an expert in such a weapon, you gain access to the critical specialization effect with that weapon.</p>\n<p><strong>Special</strong> You can't select another dedication feat until you have gained two other feats from the Mauler archetype.</p>\n<h2>@Compendium[sf2e.feats-srd.Clear The Way]{Clear The Way} Feat 6</h2>\n<p><strong>Prerequisites</strong> Mauler Dedication</p>\n<p><strong>Requirements</strong> You're wielding a melee weapon in two hands.</p>\n<hr />\n<p>You put your body behind your massive weapon and swing, shoving enemies to clear a wide path. You attempt to Shove up to five creatures adjacent to you, rolling a separate Athletics check for each target. Then Stride up to half your Speed. This movement doesn't trigger reactions from any of the creatures you successfully Shoved.</p>\n<h2>@Compendium[sf2e.feats-srd.Shoving Sweep]{Shoving Sweep} Feat 8</h2>\n<p><strong>Prerequisites</strong> Mauler Dedication, expert in Athletics</p>\n<p><strong>Trigger</strong> A creature within your reach leaves a square during a move action it's using.</p>\n<p><strong>Requirements</strong> You are wielding a melee weapon in two hands.</p>\n<hr />\n<p>You swing your weapon at your foe, rebuffing them back. You attempt to Shove the triggering creature, ignoring the requirement that you have a hand free. The creature continues its movement after the Shove.</p>\n<h2>@Compendium[sf2e.feats-srd.Hammer Quake]{Hammer Quake} Feat 14</h2>\n<p><strong>Prerequisites</strong> Mauler Dedication</p>\n<p><strong>Requirements</strong> You're wielding a non-finesse melee weapon in two hands.</p>\n<hr />\n<p>You smash the ground with your weapon, knocking nearby creatures to the ground. Choose a square within your reach, including your own space. If there's a foe in the chosen square, Strike that foe with the required weapon. Then attempt to Trip every foe in the chosen square plus each square adjacent to that square, ignoring Trip's requirement that you have a hand free. This counts as three attacks toward your multiple attack penalty, but the penalty doesn't increase until after you've made the Strike, if any, and all the Trip attempts.</p>\n<h2>@Compendium[sf2e.feats-srd.Avalanche Strike]{Avalanche Strike} Feat 14</h2>\n<p><strong>Prerequisites</strong> Mauler Dedication</p>\n<p><strong>Requirements</strong> You are wielding a melee weapon in two hands.</p>\n<hr />\n<p>You attack all nearby adversaries. Make a melee Strike with the required weapon against each enemy within your melee reach. Each attack counts toward your multiple attack penalty, but don't increase your penalty until you have made all your attacks.</p>\n",
    "flags": {},
    "name": "Mauler",
    "permission": {
        "default": 0
    }
}
