{
    "_id": "CknWKRO1xUHBL5Km",
    "data": {
        "attributes": {
            "ac": {
                "value": 0
            },
            "hardness": 0,
            "hasHealth": true,
            "hp": {
                "details": "",
                "max": 10,
                "temp": 0,
                "tempmax": 0,
                "value": 10
            },
            "stealth": {
                "details": "<p>+35 (expert)</p>",
                "value": 35
            }
        },
        "creatureType": "",
        "details": {
            "description": "<p>&nbsp;A host of angry spirits inhabiting the ruined house attempts to drag living creatures closer and crush them to death.</p>",
            "disable": "<p>DC 43 Religion (master) to exorcise the spirits or DC 45 Deception (master) to trick the spirits into departing</p>",
            "isComplex": true,
            "level": {
                "value": 18
            },
            "reset": "<p>The haunt ends 1 round after no creatures are within 50 feet of the house. The haunt resets after 1 day.</p>",
            "routine": "<p><strong>(3 actions)</strong> For each of its actions, the trap attempts a ghostly hand Strike against a different creature within 50 feet of the ruins of the house (if there are fewer than 3 creatures, the haunt doesn't use its remaining actions).</p>"
        },
        "saves": {
            "fortitude": {
                "saveDetail": "",
                "value": 0
            },
            "reflex": {
                "saveDetail": "",
                "value": 0
            },
            "will": {
                "saveDetail": "",
                "value": 0
            }
        },
        "source": {
            "value": "Pathfinder #155: Lord of the Black Sands"
        },
        "statusEffects": [],
        "traits": {
            "ci": [],
            "di": {
                "custom": "",
                "selected": {},
                "value": []
            },
            "dr": [],
            "dv": [],
            "rarity": {
                "value": "common"
            },
            "size": {
                "value": "med"
            },
            "traits": {
                "custom": "",
                "value": [
                    "haunt"
                ]
            }
        }
    },
    "effects": [],
    "flags": {},
    "img": "systems/sf2e/icons/default-icons/hazard.svg",
    "items": [
        {
            "_id": "Ll1mko5i4mBq60YH",
            "data": {
                "actionCategory": {
                    "value": ""
                },
                "actionType": {
                    "value": "reaction"
                },
                "actions": {
                    "value": null
                },
                "description": {
                    "value": "<p data-visibility=\"gm\"><strong>Trigger</strong> A creature that has angered the haunt begins its turn within 50 feet of the ruins of the house;</p>\n<p><strong>Effect</strong> The haunt attempts a ghostly hand Strike against the target creature, and then rolls initiative.</p>"
                },
                "requirements": {
                    "value": ""
                },
                "rules": [],
                "slug": null,
                "source": {
                    "value": ""
                },
                "traits": {
                    "custom": "",
                    "rarity": {
                        "value": "common"
                    },
                    "value": [
                        "attack",
                        "death",
                        "necromancy",
                        "occult"
                    ]
                },
                "trigger": {
                    "value": ""
                },
                "weapon": {
                    "value": ""
                }
            },
            "effects": [],
            "flags": {},
            "img": "systems/sf2e/icons/actions/Reaction.webp",
            "name": "Embrace of Death",
            "sort": 100000,
            "type": "action"
        },
        {
            "_id": "NHf4kQKVaYzotrz9",
            "data": {
                "attack": {
                    "value": ""
                },
                "attackEffects": {
                    "custom": "",
                    "value": [
                        "ghostly-grip"
                    ]
                },
                "bonus": {
                    "value": 35
                },
                "damageRolls": {
                    "50nrnuxoqg5lueonyrbzn": {
                        "damage": "2d10+10",
                        "damageType": "negative"
                    }
                },
                "description": {
                    "value": ""
                },
                "rules": [],
                "slug": null,
                "source": {
                    "value": ""
                },
                "traits": {
                    "custom": "",
                    "rarity": {
                        "value": "common"
                    },
                    "value": []
                },
                "weaponType": {
                    "value": "melee"
                }
            },
            "effects": [],
            "flags": {},
            "img": "systems/sf2e/icons/default-icons/melee.svg",
            "name": "Ghostly Hand",
            "sort": 200000,
            "type": "melee"
        },
        {
            "_id": "Vt51sZhJfLZaVw6i",
            "data": {
                "actionCategory": {
                    "value": ""
                },
                "actionType": {
                    "value": "passive"
                },
                "actions": {
                    "value": null
                },
                "description": {
                    "value": "<p>A creature outside the house that takes damage from the host of spirits' ghostly hand Strike must succeed at a <span data-pf2-check=\"reflex\" data-pf2-dc=\"42\" data-pf2-label=\"Ghostly Grip DC\" data-pf2-show-dc=\"gm\">Reflex</span> save or be pulled directly into the house. If there is a wall in the creature's path, that section of wall is destroyed, and the creature takes an additional [[/r 3d12 #bludgeoning]]{3d12 bludgeoning damage}. The haunt's ghostly hand Strike also deals an additional [[/r 6d6 #bludgeoning]]{6d6 bludgeoning damage} to a target already inside the house (<span data-pf2-check=\"fortitude\" data-pf2-dc=\"42\" data-pf2-traits=\"damaging-effect\" data-pf2-label=\"Ghostly Grip DC\" data-pf2-show-dc=\"gm\">basic Fortitude</span> save).</p>"
                },
                "requirements": {
                    "value": ""
                },
                "rules": [],
                "slug": null,
                "source": {
                    "value": ""
                },
                "traits": {
                    "custom": "",
                    "rarity": {
                        "value": "common"
                    },
                    "value": []
                },
                "trigger": {
                    "value": ""
                },
                "weapon": {
                    "value": ""
                }
            },
            "effects": [],
            "flags": {},
            "img": "systems/sf2e/icons/actions/Passive.webp",
            "name": "Ghostly Grip",
            "sort": 300000,
            "type": "action"
        }
    ],
    "name": "Host of Spirits",
    "token": {
        "disposition": 0,
        "height": 1,
        "img": "systems/sf2e/icons/default-icons/hazard.svg",
        "name": "Host of Spirits",
        "width": 1
    },
    "type": "hazard"
}
