{
    "_id": "1CjTIaMYUvQUkQI2",
    "data": {
        "attributes": {
            "ac": {
                "value": 0
            },
            "hardness": 0,
            "hasHealth": true,
            "hp": {
                "details": "",
                "max": 10,
                "temp": 0,
                "tempmax": 0,
                "value": 10
            },
            "stealth": {
                "details": "(master) to notice runes marked on the floor.",
                "value": 25
            }
        },
        "creatureType": "",
        "details": {
            "description": "Barely visible runes are etched into the stone floor in a 20-foot diameter circle.",
            "disable": "DC 36 Acrobatics to approach without triggering the trap followed by DC 34 Occultism (expert) or DC 38 Thievery (master) to erase the rune, or dispel magic (8th level; counteract DC 34) to counteract the rune.",
            "isComplex": true,
            "level": {
                "value": 15
            },
            "reset": "The trap resets at the first high tide of each day.",
            "routine": ""
        },
        "saves": {
            "fortitude": {
                "saveDetail": "",
                "value": 0
            },
            "reflex": {
                "saveDetail": "",
                "value": 0
            },
            "will": {
                "saveDetail": "",
                "value": 0
            }
        },
        "source": {
            "value": "Pathfinder #154: Siege of the Dinosaurs"
        },
        "statusEffects": [],
        "traits": {
            "ci": [],
            "di": {
                "custom": "",
                "selected": {},
                "value": []
            },
            "dr": [],
            "dv": [],
            "rarity": {
                "value": "uncommon"
            },
            "size": {
                "value": "med"
            },
            "traits": {
                "custom": "",
                "value": [
                    "magical"
                ]
            }
        }
    },
    "effects": [],
    "flags": {},
    "img": "systems/sf2e/icons/default-icons/hazard.svg",
    "items": [
        {
            "_id": "6jthkAwvS3DHh7jF",
            "data": {
                "actionCategory": {
                    "value": ""
                },
                "actionType": {
                    "value": "reaction"
                },
                "actions": {
                    "value": null
                },
                "description": {
                    "value": "<p data-visibility=\"gm\"><strong>Trigger</strong> A creature enters the circle without uttering the passphrase, \"Praise to the Water Lizard\";</p>\n<p><strong>Effect</strong> The trap summons a mukradi. The mukradi rolls initiative and remains for 1 minute, after which the spell ends and the mukradi disappears. The mukradi also disappears if someone disables the trap before the duration expires. The mukradi can use 3 actions each round and can use reactions, unlike most summoned creatures.</p>"
                },
                "requirements": {
                    "value": ""
                },
                "rules": [],
                "slug": null,
                "source": {
                    "value": ""
                },
                "traits": {
                    "custom": "Summon",
                    "rarity": {
                        "value": "common"
                    },
                    "value": [
                        "conjuration",
                        "occult"
                    ]
                },
                "trigger": {
                    "value": ""
                },
                "weapon": {
                    "value": ""
                }
            },
            "effects": [],
            "flags": {},
            "img": "systems/sf2e/icons/actions/Reaction.webp",
            "name": "Summon Monster",
            "sort": 100000,
            "type": "action"
        }
    ],
    "name": "Mukradi Summoning Runes",
    "token": {
        "disposition": 0,
        "height": 1,
        "img": "systems/sf2e/icons/default-icons/hazard.svg",
        "name": "Mukradi Summoning Runes",
        "width": 1
    },
    "type": "hazard"
}
