{
    "_id": "b7ADAguVQLHCauWO",
    "data": {
        "attributes": {
            "ac": {
                "value": 36
            },
            "hardness": 23,
            "hasHealth": true,
            "hp": {
                "details": "",
                "max": 92,
                "temp": 0,
                "tempmax": 0,
                "value": 92
            },
            "stealth": {
                "details": "(master)",
                "value": 34
            }
        },
        "creatureType": "",
        "details": {
            "description": "Multiple  tiny  needles  filled  with  poison  are  embedded in this secret door, spring-loaded to pop out.",
            "disable": "DC 34 Thievery (expert) to break the mechanism, or DC 39 Perception (master) to identify the three stones that, when pressed, prevent the trap from triggering",
            "isComplex": false,
            "level": {
                "value": 14
            },
            "reset": "If disabled, the trap resets after 1 minute.",
            "routine": ""
        },
        "saves": {
            "fortitude": {
                "saveDetail": "",
                "value": 28
            },
            "reflex": {
                "saveDetail": "",
                "value": 19
            },
            "will": {
                "saveDetail": "",
                "value": 0
            }
        },
        "source": {
            "value": "Pathfinder #154: Siege of the Dinosaurs"
        },
        "statusEffects": [],
        "traits": {
            "ci": [],
            "di": {
                "custom": "",
                "selected": {},
                "value": [
                    "critical-hits",
                    "object-immunities",
                    "precision"
                ]
            },
            "dr": [],
            "dv": [],
            "rarity": {
                "value": "common"
            },
            "size": {
                "value": "med"
            },
            "traits": {
                "custom": "",
                "value": [
                    "magical",
                    "mechanical"
                ]
            }
        }
    },
    "effects": [],
    "flags": {},
    "img": "systems/sf2e/icons/default-icons/hazard.svg",
    "items": [
        {
            "_id": "xQhi5H6icTLenWSG",
            "data": {
                "attack": {
                    "value": ""
                },
                "attackEffects": {
                    "custom": "",
                    "value": [
                        "purple-worm-venom"
                    ]
                },
                "bonus": {
                    "value": 32
                },
                "damageRolls": {
                    "p5jh8egew7k69xiegg3vc": {
                        "damage": "1d12",
                        "damageType": "piercing"
                    }
                },
                "description": {
                    "value": ""
                },
                "rules": [],
                "slug": null,
                "source": {
                    "value": ""
                },
                "traits": {
                    "custom": "",
                    "rarity": {
                        "value": "common"
                    },
                    "value": []
                },
                "weaponType": {
                    "value": "melee"
                }
            },
            "effects": [],
            "flags": {},
            "img": "systems/sf2e/icons/default-icons/melee.svg",
            "name": "Needles",
            "sort": 100000,
            "type": "melee"
        },
        {
            "_id": "ZQrY1mv55wut2A9o",
            "data": {
                "actionCategory": {
                    "value": ""
                },
                "actionType": {
                    "value": "reaction"
                },
                "actions": {
                    "value": null
                },
                "description": {
                    "value": "<p data-visibility=\"gm\"><strong>Trigger</strong> A creature tries to open the door, whether or not it is still locked, without first depressing three specific stones on the door's surface;</p>\n<p><strong>Effect</strong> Needles pop out of the door at the triggering creature.</p>"
                },
                "requirements": {
                    "value": ""
                },
                "rules": [],
                "slug": null,
                "source": {
                    "value": ""
                },
                "traits": {
                    "custom": "",
                    "rarity": {
                        "value": "common"
                    },
                    "value": [
                        "attack"
                    ]
                },
                "trigger": {
                    "value": ""
                },
                "weapon": {
                    "value": ""
                }
            },
            "effects": [],
            "flags": {},
            "img": "systems/sf2e/icons/actions/Reaction.webp",
            "name": "Spring",
            "sort": 200000,
            "type": "action"
        },
        {
            "_id": "HtbPnLHYwn4NLjKm",
            "data": {
                "actionCategory": {
                    "value": ""
                },
                "actionType": {
                    "value": "passive"
                },
                "actions": {
                    "value": null
                },
                "description": {
                    "value": "<p><strong>Saving Throw</strong> <span data-pf2-check=\"fortitude\" data-pf2-dc=\"34\" data-pf2-traits=\"poison\" data-pf2-label=\"Purple Worm Venom DC\" data-pf2-show-dc=\"gm\">Fortitude</span>;</p>\n<p><strong>Maximum Duration</strong> 6 rounds;</p>\n<p><strong>Stage 1</strong> [[/r 5d6 #poison]]{5d6 poison damage} and @Compendium[sf2e.conditionitems.Enfeebled]{Enfeebled 2} (1 round);</p>\n<p><strong>Stage 2</strong> [[/r 6d6 #poison]]{6d6 poison damage} and enfeebled 2 (1 round);</p>\n<p><strong>Stage 3</strong> [[/r 8d6 #poison]]{8d6 poison damage} and enfeebled 2 (1 round).</p>"
                },
                "requirements": {
                    "value": ""
                },
                "rules": [],
                "slug": null,
                "source": {
                    "value": ""
                },
                "traits": {
                    "custom": "",
                    "rarity": {
                        "value": "common"
                    },
                    "value": [
                        "poison"
                    ]
                },
                "trigger": {
                    "value": ""
                },
                "weapon": {
                    "value": ""
                }
            },
            "effects": [],
            "flags": {},
            "img": "systems/sf2e/icons/default-icons/action.svg",
            "name": "Purple Worm Venom",
            "sort": 300000,
            "type": "action"
        }
    ],
    "name": "Poisoned Secret Door Trap",
    "token": {
        "disposition": 0,
        "height": 1,
        "img": "systems/sf2e/icons/default-icons/hazard.svg",
        "name": "Poisoned Secret Door Trap",
        "width": 1
    },
    "type": "hazard"
}
