{
    "_id": "Ip6kSKGhl3XHQZ93",
    "content": "<p><span class=\"fontstyle0\">Your family's possessions were stolen, and you vowed to catch the next burglar in the act. Add the <a class=\"entity-link\" draggable=\"true\" data-pack=\"sf2e.feats-srd\" data-id=\"DMetdzt1VJL2Y62i\"><i class=\"fas fa-suitcase\"></i> Snare Crafting</a> skill feat to your background options.</span> <br style=\"font-style: normal; font-variant: normal; font-weight: normal; letter-spacing: normal; line-height: normal; orphans: 2; text-align: -webkit-auto; text-indent: 0px; text-transform: none; white-space: normal; widows: 2; word-spacing: 0px; -webkit-text-size-adjust: auto; -webkit-text-stroke-width: 0px;\"></p>",
    "flags": {},
    "name": "Robbed",
    "permission": {
        "default": 0
    }
}
