{
    "_id": "byyceQSVT0H5GfNB",
    "data": {
        "boosts": {
            "0": {
                "value": [
                    "con",
                    "wis"
                ]
            },
            "1": {
                "value": [
                    "cha",
                    "con",
                    "dex",
                    "int",
                    "str",
                    "wis"
                ]
            }
        },
        "description": {
            "value": "<p>Magic has never worked quite right around you. Perhaps you have become a magic-user in spite of that, or perhaps you use your unique ability to fight magic-users.</p>\n<p>Choose two ability boosts. One must be to <strong>Constitution</strong> or <strong>Wisdom</strong>, and one is a free ability boost.</p>\n<p>You're trained in a Lore skill of your choice, though it can't be about a magical subject (as determined by the GM if it's unclear). Whenever you would be affected by magic, even your own magic or that of an ally, the originator of the effect must attempt a DC 3 flat check.</p>\n<p>On a failure, the magic doesn't affect you (though it still has its normal effects on anyone else). On a success, the magic affects you and there is no need to attempt further flat checks for the same magical effect, even if it affects you again later.</p>"
        },
        "items": {},
        "rules": [],
        "source": {
            "value": "Pathfinder Secrets of Magic"
        },
        "trainedLore": "<Non-Magical> Lore",
        "trainedSkills": {
            "value": []
        },
        "traits": {
            "custom": "",
            "rarity": {
                "value": "rare"
            },
            "value": []
        }
    },
    "effects": [],
    "flags": {},
    "img": "systems/sf2e/icons/default-icons/background.svg",
    "name": "Anti-Magical",
    "type": "background"
}
