{
    "_id": "a5dCSuAwGE2hqQjj",
    "data": {
        "boosts": {
            "0": {
                "value": [
                    "con",
                    "int"
                ]
            },
            "1": {
                "value": [
                    "cha",
                    "con",
                    "dex",
                    "int",
                    "str",
                    "wis"
                ]
            }
        },
        "description": {
            "value": "<p><strong>Prerequisite</strong>: Region - Absalom and Starstone Isle</p>\n<hr />\n<p>As a recently freed slave in Absalom, you belong to a new, close-knit social class at the heart of the city's most important trades.</p>\n<p>Choose two ability boosts. One must be to <strong>Constitution</strong> or <strong>Intelligence</strong>, and one is a free ability boost.</p>\n<p>You're trained in the Society skill and the Absalom Lore skill. You gain the @Compendium[sf2e.feats-srd.Streetwise]{Streetwise} skill feat.</p>"
        },
        "items": {
            "b0370": {
                "id": "X2jGFfLU5qI5XVot",
                "img": "systems/sf2e/icons/features/feats/feats.webp",
                "level": "1",
                "name": "Streetwise",
                "pack": "sf2e.feats-srd"
            }
        },
        "rules": [],
        "source": {
            "value": "Pathfinder Lost Omens: World Guide"
        },
        "trainedLore": "Absalom Lore",
        "trainedSkills": {
            "value": [
                "soc"
            ]
        },
        "traits": {
            "custom": "",
            "rarity": {
                "value": "common"
            },
            "value": []
        }
    },
    "effects": [],
    "flags": {},
    "img": "systems/sf2e/icons/default-icons/background.svg",
    "name": "Freed Slave of Absalom",
    "type": "background"
}
