{
    "_id": "wU1qd8tZNcYn43y2",
    "data": {
        "boosts": {
            "0": {
                "value": [
                    "cha",
                    "str"
                ]
            },
            "1": {
                "value": [
                    "cha",
                    "con",
                    "dex",
                    "int",
                    "str",
                    "wis"
                ]
            }
        },
        "description": {
            "value": "<p>You were training to become a knight in Lastwall when the Whispering Tyrant escaped his imprisonment and destroyed the nation. It was only by dumb luck that you are alive at all, but the memories of that fateful day haunt your dreams. When play begins, you have boarded a caravan heading toward a new town, having worn out your welcome at the taverns and inns of Elidir.</p>\n<p>Choose two ability boosts. One must be to <strong>Strength</strong> or <strong>Charisma</strong>, and one is a free ability boost.</p>\n<p>You're trained in the Intimidation skill, and the Warfare Lore skill. You gain the @Compendium[sf2e.feats-srd.Intimidating Glare]{Intimidating Glare} skill feat.</p>"
        },
        "items": {
            "od1ci": {
                "id": "xQMz6eDgX75WX2ce",
                "img": "systems/sf2e/icons/features/feats/feats.webp",
                "level": "1",
                "name": "Intimidating Glare",
                "pack": "sf2e.feats-srd"
            }
        },
        "rules": [],
        "source": {
            "value": "Pathfinder Adventure: The Fall of Plaguestone"
        },
        "trainedLore": "Warfare Lore",
        "trainedSkills": {
            "value": [
                "itm"
            ]
        },
        "traits": {
            "custom": "",
            "rarity": {
                "value": "common"
            },
            "value": []
        }
    },
    "effects": [],
    "flags": {},
    "img": "systems/sf2e/icons/default-icons/background.svg",
    "name": "Lost and Alone",
    "type": "background"
}
