{
    "_id": "e58GwSBLNslyfqMF",
    "data": {
        "boosts": {
            "0": {
                "value": [
                    "int",
                    "wis"
                ]
            },
            "1": {
                "value": [
                    "cha",
                    "con",
                    "dex",
                    "int",
                    "str",
                    "wis"
                ]
            }
        },
        "description": {
            "value": "<p>You spent years predicting, identifying, and harnessing the innate magical talents of those around you. A magic-rich world has taught you that you can never have too much training when everyone around you is capable of magic.</p>\n<p>Choose two ability boosts. One must be <strong>Intelligence</strong> or <strong>Wisdom</strong> and one is a free ability boost.</p>\n<p>Your innate magical trait is occult. You're trained in Occultism, depending on your innate magical trait, and the Academia Lore skill. You gain the @Compendium[sf2e.feats-srd.Recognize Spell]{Recognize Spell} skill feat.</p>"
        },
        "items": {
            "jh8bn": {
                "id": "MjQyTcV8Jiv1Jtln",
                "img": "systems/sf2e/icons/features/feats/feats.webp",
                "level": 1,
                "name": "Recognize Spell",
                "pack": "sf2e.feats-srd"
            }
        },
        "rules": [],
        "source": {
            "value": "Pathfinder Secrets of Magic"
        },
        "trainedLore": "Academia Lore",
        "trainedSkills": {
            "custom": "",
            "value": [
                "occ"
            ]
        },
        "traits": {
            "custom": "",
            "rarity": {
                "value": "rare"
            },
            "value": []
        }
    },
    "effects": [],
    "flags": {},
    "img": "systems/sf2e/icons/default-icons/background.svg",
    "name": "Mystic Tutor (Occultism)",
    "type": "background"
}
