{
    "_id": "iWWg16f3re1YChiD",
    "data": {
        "boosts": {
            "0": {
                "value": [
                    "con",
                    "int"
                ]
            },
            "1": {
                "value": [
                    "cha",
                    "con",
                    "dex",
                    "int",
                    "str",
                    "wis"
                ]
            }
        },
        "description": {
            "value": "<p><strong>Prerequisite</strong>: Region - Impossible Lands</p>\n<hr />\n<p>Your apprenticeship in one of Oenopion's unorthodox arcane and alchemical academies instilled in you a deep reservoir of mostly reliable esoteric knowledge, not to mention a deep resentment born of countless hours spent mucking ooze pens and feeding helpless creatures to ravenous, belching jellies and gelatinous puddings.</p>\n<p>Choose two ability boosts. One must be to <strong>Constitution</strong> or <strong>Intelligence</strong>, and one is a free ability boost.</p>\n<p>You're trained in the Crafting skill and the Ooze Lore skill. You gain the @Compendium[sf2e.feats-srd.Dubious Knowledge]{Dubious Knowledge} skill feat.</p>"
        },
        "items": {
            "x4wlr": {
                "id": "1Bt7uCW2WI4sM84P",
                "img": "systems/sf2e/icons/features/feats/feats.webp",
                "level": "1",
                "name": "Dubious Knowledge",
                "pack": "sf2e.feats-srd"
            }
        },
        "rules": [],
        "source": {
            "value": "Pathfinder Lost Omens: World Guide"
        },
        "trainedLore": "Ooze Lore",
        "trainedSkills": {
            "value": [
                "cra"
            ]
        },
        "traits": {
            "custom": "",
            "rarity": {
                "value": "common"
            },
            "value": []
        }
    },
    "effects": [],
    "flags": {},
    "img": "systems/sf2e/icons/default-icons/background.svg",
    "name": "Oenopion-Ooze Tender",
    "type": "background"
}
