{
    "_id": "UgityMZaujmYUpil",
    "data": {
        "boosts": {
            "0": {
                "value": [
                    "con",
                    "int"
                ]
            },
            "1": {
                "value": [
                    "cha",
                    "con",
                    "dex",
                    "int",
                    "str",
                    "wis"
                ]
            }
        },
        "description": {
            "value": "<p>You've never been to Breachill, nor do you have roots in the town, but as chance has it you find yourself visiting. You might be here traveling with a friend, visiting an old acquaintance, or merely here to see a new part of the world. Before coming to town, though, you spent many years living with an ancestry other than your own, and your diverse childhood has left you with an open mind and a curious nature.</p>\n<p>You're excited to meet new people and cultures, and answering the Call for Heroes seems to be an interesting way to do so.</p>\n<p>Choose two ability boosts. One must be to <strong>Constitution</strong> or <strong>Intelligence</strong>, and one is a free ability boost.</p>\n<p>You're trained in the Diplomacy skill and a Lore skill thematically associated with the members of the ancestry you grew up with: Dwarf, Elf, Gnome, Goblin, or Halfling. You gain the @Compendium[sf2e.feats-srd.Hobnobber]{Hobnobber} skill feat.</p>"
        },
        "items": {
            "6ja48": {
                "id": "4RjDxgvNXNl5GG9d",
                "img": "systems/sf2e/icons/features/feats/feats.webp",
                "level": "1",
                "name": "Hobnobber",
                "pack": "sf2e.feats-srd"
            }
        },
        "rules": [],
        "source": {
            "value": "Pathfinder: Age of Ashes Player's Guide"
        },
        "trainedLore": "<Ancestry> Lore",
        "trainedSkills": {
            "value": [
                "dip"
            ]
        },
        "traits": {
            "custom": "",
            "rarity": {
                "value": "common"
            },
            "value": []
        }
    },
    "effects": [],
    "flags": {},
    "img": "systems/sf2e/icons/default-icons/background.svg",
    "name": "Out-Of-Towner",
    "type": "background"
}
