{
    "_id": "Ty8FRM0k262xuHfF",
    "data": {
        "boosts": {
            "0": {
                "value": [
                    "con",
                    "str"
                ]
            },
            "1": {
                "value": [
                    "cha",
                    "con",
                    "dex",
                    "int",
                    "str",
                    "wis"
                ]
            }
        },
        "description": {
            "value": "<p><strong>Prerequisite</strong>: Region - High Seas</p>\n<hr />\n<p>You love diving and exploring the world beneath the waves, and long periods of swimming have trained you to move easily through the water. You're also fascinated by undersea creatures and cultures-and may even have a trace of one of them in your own lineage.</p>\n<p>Choose two ability boosts. One must be to <strong>Strength</strong> or <strong>Constitution</strong>, and one is a free ability boost.</p>\n<p>You're trained in the Athletics skill and the Ocean Lore skill. You gain the @Compendium[sf2e.feats-srd.Underwater Marauder]{Underwater Marauder} skill feat.</p>"
        },
        "items": {
            "48zjn": {
                "id": "iOY6YfGBaOvMNAor",
                "img": "systems/sf2e/icons/features/feats/feats.webp",
                "level": "1",
                "name": "Underwater Marauder",
                "pack": "sf2e.feats-srd"
            }
        },
        "rules": [],
        "source": {
            "value": "Pathfinder Lost Omens: World Guide"
        },
        "trainedLore": "Ocean Lore",
        "trainedSkills": {
            "value": [
                "ath"
            ]
        },
        "traits": {
            "custom": "",
            "rarity": {
                "value": "common"
            },
            "value": []
        }
    },
    "effects": [],
    "flags": {},
    "img": "systems/sf2e/icons/default-icons/background.svg",
    "name": "Undersea Enthusiast",
    "type": "background"
}
