{
    "_id": "cVxHaDAouFhm0bXP",
    "data": {
        "baseItem": null,
        "brokenThreshold": {
            "value": 0
        },
        "bulkCapacity": {
            "value": ""
        },
        "collapsed": {
            "value": false
        },
        "containerId": {
            "value": null
        },
        "description": {
            "value": "<p>This small, heart-shaped amulet appears to be sculpted from stone with a single streak of dim light running through, like an ember just beneath ashes. When worn, the amulet gives off a gentle warmth, akin to being near a fireplace. You gain poison resistance 15 when wearing this amulet.</p>\n<p>When you invest the amulet, you either increase your Constitution score by 2 or increase it to 18, whichever would give you a higher score.</p>\n<hr />\n<p><strong>Activate</strong> <span class=\"pf2-icon\">2</span> Interact (healing, magical, necromancy, positive);</p>\n<p><strong>Frequency</strong> once per day;</p>\n<p>You hold the amulet aloft as a ripple of warm orange light exudes outward. Each ally in a <span data-pf2-effect-area=\"emanation\" data-pf2-distance=\"30\">30-foot emanation</span> regains [[/r 30 #hit points]]{30 Hit Points} and gains a +3 status bonus to Fortitude saves until the end of their next turn.</p>\n<p>@Compendium[sf2e.equipment-effects.Equipment Effect: Emberheart]{Equipment Effect: Emberheart}</p>"
        },
        "equipped": {
            "value": false
        },
        "equippedBulk": {
            "value": ""
        },
        "hardness": {
            "value": 0
        },
        "hp": {
            "value": 0
        },
        "identification": {
            "misidentified": {},
            "status": "identified",
            "unidentified": {
                "data": {
                    "description": {
                        "value": ""
                    }
                },
                "img": "",
                "name": ""
            }
        },
        "invested": {
            "value": null
        },
        "level": {
            "value": 18
        },
        "maxHp": {
            "value": 0
        },
        "negateBulk": {
            "value": "0"
        },
        "preciousMaterial": {
            "value": null
        },
        "preciousMaterialGrade": {
            "value": null
        },
        "price": {
            "value": "24000 gp"
        },
        "quantity": {
            "value": 1
        },
        "rules": [],
        "size": {
            "value": "med"
        },
        "source": {
            "value": "Pathfinder Secrets of Magic"
        },
        "stackGroup": {
            "value": ""
        },
        "traits": {
            "custom": "",
            "rarity": {
                "value": "common"
            },
            "value": [
                "apex",
                "invested",
                "magical",
                "necromancy"
            ]
        },
        "usage": {
            "value": "worn"
        },
        "weight": {
            "value": "-"
        }
    },
    "effects": [],
    "flags": {},
    "img": "systems/sf2e/icons/default-icons/equipment.svg",
    "name": "Emberheart",
    "type": "equipment"
}
