{
    "_id": "atB2ewbcBMWvhjNT",
    "data": {
        "MAP": {
            "value": ""
        },
        "ability": {
            "value": "str"
        },
        "baseItem": "starknife",
        "bonus": {
            "value": 0
        },
        "bonusDamage": {
            "value": 0
        },
        "brokenThreshold": {
            "value": 0
        },
        "bulkCapacity": {
            "value": ""
        },
        "collapsed": {
            "value": false
        },
        "containerId": {
            "value": null
        },
        "damage": {
            "damageType": "piercing",
            "dice": 1,
            "die": "d4",
            "value": ""
        },
        "description": {
            "value": "<p>This +1 striking returning starknife is made of dark blue metal overlaid with smoky flecks of fused quartz. When you Cast an evocation Spell, your next attack this turn with this starknife reduces the target's cover, changing greater cover to standard cover or ignoring standard and lesser cover.</p>\n<hr />\n<p><strong>Activate</strong> <span class=\"pf2-icon\">r</span> envision;</p>\n<p><strong>Frequency</strong> once per 10 minutes;</p>\n<p><strong>Trigger</strong> You successfully Strike a creature with a thrown Strike with guiding star;</p>\n<p><strong>Effect</strong> Soft light outlines the target. At the beginning of your next turn, the guiding star's blades detach and form into darts of starlight, flying up to 40 feet and striking the target unerringly, collectively dealing [[/r 4 #piercing]]{4 piercing damage} and [[/r 1 #good]]{1 good damage} before re-forming. The piercing damage increases to [[/r 6 #piercing]]{6 piercing damage} with a greater striking rune and [[/r 8 #piercing]]{8 piercing damage} with a major striking rune.</p>"
        },
        "equipped": {
            "value": false
        },
        "equippedBulk": {
            "value": ""
        },
        "group": {
            "value": "knife"
        },
        "hands": {
            "value": false
        },
        "hardness": {
            "value": 0
        },
        "hp": {
            "value": 0
        },
        "identification": {
            "misidentified": {},
            "status": "identified",
            "unidentified": {
                "data": {
                    "description": {
                        "value": ""
                    }
                },
                "img": "",
                "name": ""
            }
        },
        "invested": {
            "value": null
        },
        "level": {
            "value": 7
        },
        "maxHp": {
            "value": 0
        },
        "negateBulk": {
            "value": "0"
        },
        "potencyRune": {
            "value": 1
        },
        "preciousMaterial": {
            "value": null
        },
        "preciousMaterialGrade": {
            "value": null
        },
        "price": {
            "value": "325 gp"
        },
        "property1": {
            "critDamage": "",
            "critDamageType": "",
            "critDice": 0,
            "critDie": "",
            "criticalConditionType": "",
            "criticalConditionValue": null,
            "damageType": "",
            "dice": 0,
            "die": "",
            "strikeConditionType": "",
            "strikeConditionValue": null,
            "value": ""
        },
        "propertyRune1": {
            "value": "returning"
        },
        "propertyRune2": {
            "value": null
        },
        "propertyRune3": {
            "value": null
        },
        "propertyRune4": {
            "value": null
        },
        "quantity": {
            "value": 1
        },
        "range": {
            "value": "20"
        },
        "reload": {
            "value": ""
        },
        "rules": [],
        "size": {
            "value": "med"
        },
        "source": {
            "value": "Pathfinder Secrets of Magic"
        },
        "specific": {
            "material": null,
            "runes": {
                "potency": 1,
                "striking": "striking"
            },
            "value": true
        },
        "splashDamage": {
            "value": 0
        },
        "stackGroup": {
            "value": ""
        },
        "strikingRune": {
            "value": "striking"
        },
        "traits": {
            "custom": "",
            "rarity": {
                "value": "common"
            },
            "value": [
                "agile",
                "chaotic",
                "deadly-d6",
                "divine",
                "evocation",
                "finesse",
                "good",
                "thrown-20",
                "versatile-s"
            ]
        },
        "usage": {
            "value": "held-in-one-hand"
        },
        "weaponType": {
            "value": "martial"
        },
        "weight": {
            "value": "L"
        }
    },
    "effects": [],
    "flags": {},
    "img": "systems/sf2e/icons/default-icons/weapon.svg",
    "name": "Guiding Star",
    "type": "weapon"
}
