{
    "_id": "LmIpYZ1lS2UDGXvU",
    "data": {
        "baseItem": null,
        "brokenThreshold": {
            "value": 0
        },
        "bulkCapacity": {
            "value": ""
        },
        "collapsed": {
            "value": false
        },
        "containerId": {
            "value": ""
        },
        "description": {
            "value": "<p>This matching mortar and pestle are made from immaculate darkwood that looks nearly olive in the right light.</p>\n<p><strong>Activate</strong> 1 minute (Interact); <strong>Frequency</strong> once per hour; <strong>Effect</strong> You use the <em>mortar of hidden meaning</em> to grind tea leaves (or another suitable substance for making a hot beverage). While grinding the tea leaves, which takes no less than 1 minute, you can speak a message into the mortar. After the leaves are steeped in hot water, the first person who drinks from the resulting brew hears the message whispered in their ear.</p>"
        },
        "equipped": {
            "value": false
        },
        "equippedBulk": {
            "value": ""
        },
        "hardness": {
            "value": 0
        },
        "hp": {
            "value": 0
        },
        "identification": {
            "misidentified": {},
            "status": "identified",
            "unidentified": {
                "data": {
                    "description": {
                        "value": ""
                    }
                },
                "img": "",
                "name": ""
            }
        },
        "invested": {
            "value": false
        },
        "level": {
            "value": 4
        },
        "maxHp": {
            "value": 0
        },
        "negateBulk": {
            "value": "0"
        },
        "preciousMaterial": {
            "value": ""
        },
        "preciousMaterialGrade": {
            "value": ""
        },
        "price": {
            "value": "75 gp"
        },
        "quantity": {
            "value": 1
        },
        "rules": [],
        "size": {
            "value": "med"
        },
        "source": {
            "value": "Pathfinder Lost Omens: Gods & Magic"
        },
        "stackGroup": {
            "value": ""
        },
        "traits": {
            "custom": "",
            "rarity": {
                "value": "common"
            },
            "value": [
                "divination",
                "magical"
            ]
        },
        "usage": {
            "value": "held-in-one-hand"
        },
        "weight": {
            "value": "L"
        }
    },
    "effects": [],
    "flags": {},
    "img": "systems/sf2e/icons/equipment/held-items/mortar-of-hidden-meaning.webp",
    "name": "Mortar of Hidden Meaning",
    "type": "equipment"
}
