{
    "_id": "qjuLgWr2VhPcuylI",
    "data": {
        "attributes": {
            "ac": {
                "value": 21
            },
            "hardness": 8,
            "hasHealth": true,
            "hp": {
                "details": "",
                "max": 56,
                "temp": 0,
                "tempmax": 0,
                "value": 56
            },
            "stealth": {
                "details": "<p>(expert)</p>",
                "value": 10
            }
        },
        "creatureType": "",
        "details": {
            "description": "<p>The sounds of devastation rise from the diorama, and a beam of shimmering energy lances outward from the tiny model of Gauntlight.</p>",
            "disable": "<p><span data-pf2-check=\"thievery\" data-pf2-dc=\"20\" data-pf2-traits=\"magical,trap\" data-pf2-label=\"Deactivate Model of Gauntlight DC\" data-pf2-show-dc=\"gm\">Thievery</span> (trained) to quickly deactivate the model of Gauntlight before it triggers, or <span data-pf2-check=\"stealth\" data-pf2-dc=\"23\" data-pf2-traits=\"magical,trap\" data-pf2-label=\"Creep by Trap DC\" data-pf2-show-dc=\"gm\">Stealth</span> (trained) to creep by a trap without triggering it.</p>",
            "isComplex": false,
            "level": {
                "value": 3
            },
            "reset": "<p>Each trap resets automatically after 1 hour.</p>",
            "routine": ""
        },
        "saves": {
            "fortitude": {
                "saveDetail": "",
                "value": 15
            },
            "reflex": {
                "saveDetail": "",
                "value": 8
            },
            "will": {
                "saveDetail": "",
                "value": 0
            }
        },
        "source": {
            "value": "Pathfinder #163: Ruins of Gauntlight"
        },
        "statusEffects": [],
        "traits": {
            "ci": [],
            "di": {
                "custom": "",
                "selected": {},
                "value": [
                    "critical-hits",
                    "object-immunities",
                    "precision"
                ]
            },
            "dr": [],
            "dv": [],
            "rarity": {
                "value": "common"
            },
            "size": {
                "value": "med"
            },
            "traits": {
                "custom": "",
                "value": [
                    "magical",
                    "trap"
                ]
            }
        }
    },
    "effects": [],
    "flags": {},
    "img": "systems/sf2e/icons/default-icons/hazard.svg",
    "items": [
        {
            "_id": "ZtEncTg58fTcUXvv",
            "data": {
                "actionCategory": {
                    "value": "offensive"
                },
                "actionType": {
                    "value": "reaction"
                },
                "actions": {
                    "value": null
                },
                "description": {
                    "value": "<p data-visibility=\"gm\"><strong>Trigger</strong> A creature steps within 10 feet of the back of a diorama alcove;</p>\n<p><strong>Effect</strong> The trap fires an apocalypse beam at that creature.</p>"
                },
                "requirements": {
                    "value": ""
                },
                "rules": [],
                "slug": null,
                "source": {
                    "value": ""
                },
                "traits": {
                    "custom": "",
                    "rarity": {
                        "value": "common"
                    },
                    "value": []
                },
                "trigger": {
                    "value": ""
                },
                "weapon": {
                    "value": ""
                }
            },
            "effects": [],
            "flags": {},
            "img": "systems/sf2e/icons/actions/Reaction.webp",
            "name": "Apocalypse Beam",
            "sort": 100000,
            "type": "action"
        },
        {
            "_id": "5s3WbfpPg11BNAkO",
            "data": {
                "attack": {
                    "value": ""
                },
                "attackEffects": {
                    "value": []
                },
                "bonus": {
                    "value": 16
                },
                "damageRolls": {
                    "2lsghrnhbvlbcuht78ph89": {
                        "damage": "2d10+13",
                        "damageType": "bludgeoning"
                    }
                },
                "description": {
                    "value": ""
                },
                "rules": [],
                "slug": null,
                "source": {
                    "value": ""
                },
                "traits": {
                    "custom": "",
                    "rarity": {
                        "value": "common"
                    },
                    "value": []
                },
                "weaponType": {
                    "value": "ranged"
                }
            },
            "effects": [],
            "flags": {},
            "img": "systems/sf2e/icons/default-icons/melee.svg",
            "name": "Apocalypse Beam (From Tsunami)",
            "sort": 200000,
            "type": "melee"
        },
        {
            "_id": "RQSPQLwfW9A5Ijew",
            "data": {
                "attack": {
                    "value": ""
                },
                "attackEffects": {
                    "value": []
                },
                "bonus": {
                    "value": 16
                },
                "damageRolls": {
                    "08zas2or7t9v0p4u08kl9zj": {
                        "damage": "2d10+13",
                        "damageType": "fire"
                    }
                },
                "description": {
                    "value": ""
                },
                "rules": [],
                "slug": null,
                "source": {
                    "value": ""
                },
                "traits": {
                    "custom": "",
                    "rarity": {
                        "value": "common"
                    },
                    "value": []
                },
                "weaponType": {
                    "value": "ranged"
                }
            },
            "effects": [],
            "flags": {},
            "img": "systems/sf2e/icons/default-icons/melee.svg",
            "name": "Apocalypse Beam (from Burning City)",
            "sort": 100000,
            "type": "melee"
        },
        {
            "_id": "5TV0w8GnwrjMX6pX",
            "data": {
                "attack": {
                    "value": ""
                },
                "attackEffects": {
                    "value": []
                },
                "bonus": {
                    "value": 16
                },
                "damageRolls": {
                    "bbia4rkyas6y4pp6bvgo0g": {
                        "damage": "2d10+13",
                        "damageType": "sonic"
                    }
                },
                "description": {
                    "value": ""
                },
                "rules": [],
                "slug": null,
                "source": {
                    "value": ""
                },
                "traits": {
                    "custom": "",
                    "rarity": {
                        "value": "common"
                    },
                    "value": []
                },
                "weaponType": {
                    "value": "ranged"
                }
            },
            "effects": [],
            "flags": {},
            "img": "systems/sf2e/icons/default-icons/melee.svg",
            "name": "Apocalypse Beam (from Earthquake)",
            "sort": 300000,
            "type": "melee"
        },
        {
            "_id": "mmfsGHgB3hcCPClW",
            "data": {
                "attack": {
                    "value": ""
                },
                "attackEffects": {
                    "value": []
                },
                "bonus": {
                    "value": 16
                },
                "damageRolls": {
                    "8q9l3eftkmv4vjf6df8qff": {
                        "damage": "2d10+13",
                        "damageType": "mental"
                    }
                },
                "description": {
                    "value": ""
                },
                "rules": [],
                "slug": null,
                "source": {
                    "value": ""
                },
                "traits": {
                    "custom": "",
                    "rarity": {
                        "value": "common"
                    },
                    "value": []
                },
                "weaponType": {
                    "value": "ranged"
                }
            },
            "effects": [],
            "flags": {},
            "img": "systems/sf2e/icons/default-icons/melee.svg",
            "name": "Apocalypse Beam (from Monster)",
            "sort": 400000,
            "type": "melee"
        },
        {
            "_id": "I41NEY2RdcZSR1ft",
            "data": {
                "attack": {
                    "value": ""
                },
                "attackEffects": {
                    "value": []
                },
                "bonus": {
                    "value": 16
                },
                "damageRolls": {
                    "pomoho4fzylfk3kpiqnq5l": {
                        "damage": "2d10+13",
                        "damageType": "negative"
                    }
                },
                "description": {
                    "value": ""
                },
                "rules": [],
                "slug": null,
                "source": {
                    "value": ""
                },
                "traits": {
                    "custom": "",
                    "rarity": {
                        "value": "common"
                    },
                    "value": []
                },
                "weaponType": {
                    "value": "ranged"
                }
            },
            "effects": [],
            "flags": {},
            "img": "systems/sf2e/icons/default-icons/melee.svg",
            "name": "Apocalypse Beam (from Undead Uprising)",
            "sort": 500000,
            "type": "melee"
        }
    ],
    "name": "Dooms of Tomorrow",
    "token": {
        "disposition": 0,
        "height": 1,
        "img": "systems/sf2e/icons/default-icons/hazard.svg",
        "name": "Dooms of Tomorrow",
        "width": 1
    },
    "type": "hazard"
}
