{
    "_id": "8VXEF3cnjzcokCTL",
    "data": {
        "attributes": {
            "ac": {
                "value": 0
            },
            "hardness": 0,
            "hasHealth": true,
            "hp": {
                "details": "",
                "max": 10,
                "temp": 0,
                "tempmax": 0,
                "value": 10
            },
            "stealth": {
                "details": "<p>(trained)</p>",
                "value": 11
            }
        },
        "creatureType": "",
        "details": {
            "description": "<p>A half-dozen ghostly kobolds rise from the rubble in a howling vortex.</p>",
            "disable": "<p><span data-pf2-check=\"intimidation\" data-pf2-label=\"Disable Intimidation DC\" data-pf2-dc=\"18\" data-pf2-show-dc=\"gm\">Intimidation</span> (trained) to frighten the spirits with a threatening display, or <span data-pf2-check=\"religion\" data-pf2-label=\"Disable Religion DC\" data-pf2-dc=\"21\" data-pf2-show-dc=\"gm\">Religion</span> (trained) to exorcise the spirits</p>",
            "isComplex": true,
            "level": {
                "value": 2
            },
            "reset": "<p>The haunt deactivates if there are no frightened creatures in area <strong>A7</strong> at the start of its turn. The ghostly kobolds return to the rubble pile.</p>\n<p>The haunt can't activate again for 1 hour.</p>",
            "routine": "<p>(1 action) The spirits swoop together toward one creature in area <strong>A7</strong> who's @Compendium[sf2e.conditionitems.Frightened]{Frightened}, instilling feelings of betrayal and confusion. The target takes [[/r 1d10+4 #mental]]{1d10+4 mental damage} (<span data-pf2-saving-throw=\"will\" data-pf2-label=\"Stonescale Spirits DC\" data-pf2-dc=\"18\" data-pf2-show-dc=\"gm\">basic Will</span> save).</p>"
        },
        "saves": {
            "fortitude": {
                "saveDetail": "",
                "value": 0
            },
            "reflex": {
                "saveDetail": "",
                "value": 0
            },
            "will": {
                "saveDetail": "",
                "value": 0
            }
        },
        "source": {
            "value": "Pathfinder #163: Ruins of Gauntlight"
        },
        "statusEffects": [],
        "traits": {
            "ci": [],
            "di": {
                "custom": "",
                "selected": {},
                "value": []
            },
            "dr": [],
            "dv": [],
            "rarity": {
                "value": "common"
            },
            "size": {
                "value": "med"
            },
            "traits": {
                "custom": "",
                "value": [
                    "haunt"
                ]
            }
        }
    },
    "effects": [],
    "flags": {},
    "img": "systems/sf2e/icons/default-icons/hazard.svg",
    "items": [
        {
            "_id": "IM2z6ZQvAhXIgpsu",
            "data": {
                "actionCategory": {
                    "value": "offensive"
                },
                "actionType": {
                    "value": "reaction"
                },
                "actions": {
                    "value": null
                },
                "description": {
                    "value": "<div data-visibility=\"gm\">\n<p data-visibility=\"gm\"><strong>Trigger</strong> A creature enters a square either fully or partially filled with rubble in the middle of the room;</p>\n</div>\n<p><strong>Effect</strong> Six ghostly kobolds surge out of the rubble with eerie yowls. Each creature in area <strong>A7</strong> must attempt a <span data-pf2-check=\"will\" data-pf2-dc=\"18\" data-pf2-traits=\"emotion,enchantment,fear,mental\" data-pf2-label=\"Confusing Confrontation DC\" data-pf2-show-dc=\"gm\">Will</span> save with the following results. The haunt then rolls initiative.</p>\n<div data-visibility=\"gm\"><hr />\n<p><strong>Critical Success</strong> The creature is unaffected, is temporarily immune to Confusing Confrontation for 24 hours, and realizes that a display of intimidating dominance might quell the ghostly kobolds' assault.</p>\n<p><strong>Success</strong> The creature is @Compendium[sf2e.conditionitems.Frightened]{Frightened 1}.</p>\n<p><strong>Failure</strong> The creature is @Compendium[sf2e.conditionitems.Confused]{Confused} for 1 round and is @Compendium[sf2e.conditionitems.Frightened]{Frightened 2}.</p>\n<p><strong>Critical Failure</strong> The creature is @Compendium[sf2e.conditionitems.Confused]{Confused} for 2 rounds and is @Compendium[sf2e.conditionitems.Frightened]{Frightened 3}.</p>\n</div>"
                },
                "requirements": {
                    "value": ""
                },
                "rules": [],
                "slug": null,
                "source": {
                    "value": ""
                },
                "traits": {
                    "custom": "",
                    "rarity": {
                        "value": "common"
                    },
                    "value": [
                        "emotion",
                        "enchantment",
                        "fear",
                        "mental"
                    ]
                },
                "trigger": {
                    "value": ""
                },
                "weapon": {
                    "value": ""
                }
            },
            "effects": [],
            "flags": {},
            "img": "systems/sf2e/icons/actions/Reaction.webp",
            "name": "Confusing Confrontation",
            "sort": 100000,
            "type": "action"
        }
    ],
    "name": "Stonescale Spirits",
    "token": {
        "disposition": 0,
        "height": 1,
        "img": "systems/sf2e/icons/default-icons/hazard.svg",
        "name": "Stonescale Spirits",
        "width": 1
    },
    "type": "hazard"
}
