{
    "_id": "IijUBFE1vhvgowhD",
    "data": {
        "abilities": {
            "cha": {
                "mod": 0
            },
            "con": {
                "mod": 4
            },
            "dex": {
                "mod": 2
            },
            "int": {
                "mod": -4
            },
            "str": {
                "mod": 4
            },
            "wis": {
                "mod": 2
            }
        },
        "attributes": {
            "ac": {
                "details": "",
                "value": 18
            },
            "allSaves": {
                "value": null
            },
            "hp": {
                "details": "",
                "max": 32,
                "temp": 0,
                "value": 32
            },
            "initiative": {
                "ability": "perception"
            },
            "perception": {
                "value": 8
            },
            "shield": {
                "ac": 2,
                "brokenThreshold": 0,
                "hardness": 0,
                "max": 0,
                "value": 0
            },
            "speed": {
                "otherSpeeds": [],
                "value": "25"
            }
        },
        "details": {
            "alignment": {
                "value": "N"
            },
            "creatureType": "",
            "flavorText": "<p>The porcupine, sometimes called a quill pig, is a shy, gray-and-brown herbivore covered in barbed quills. Though most comfortable on the forest floor, a porcupine can climb trees adeptly to seek out leaves, bark, and insects for food. The giant porcupine is no less shy than its smaller kin, but these 5-foot-long specimens climb only the ancient old growth of deep forests. Both species are found only in temperate woodlands, though a giant porcupine prefers forests with less undergrowth where it can maneuver more easily. When startled or threatened, a porcupine employs multiple strategies to discourage potential predators. It emits a pungent odor that warns other creatures away, rattling its quills and chattering its teeth loudly to provide an additional auditory warning. If cornered, it raises its quills, faces away from the danger, and charges backwards at full speed, impaling any unlucky creatures is in its path.</p>\n<p>A porcupine's barbed quills-in actuality long, stiff hairs-hook into a foe's flesh. A creature can easily pull free from the porcupine should a creature come into contact with one, but the quill's barbed tips continue to dig into the victim's skin from the creature's own movements. Removing the quills is a painful process, and quills that break off under the skin can sometimes requires a healer's assistance to remove effectively. Contrary to popular belief, however, a porcupine can't shoot its quills, making it a threat only to a creature brazen or foolish enough to attack it directly.</p>\n<p>Porcupines use the same defensive tactics regardless of size, but the giant porcupine is often devastatingly effective given its sheer mass. Fortunately, these creatures tend to flee at the first opportunity to do so. The few attempts to train them as guardians have ended poorly for this reason, though some druids and other woodfolk have, on occasion, persuaded these creatures to accompany them as companions.</p>",
            "level": {
                "value": 2
            },
            "source": {
                "value": "Pathfinder Bestiary 3"
            }
        },
        "resources": {},
        "saves": {
            "fortitude": {
                "saveDetail": "",
                "value": 10
            },
            "reflex": {
                "saveDetail": "",
                "value": 8
            },
            "will": {
                "saveDetail": "",
                "value": 6
            }
        },
        "traits": {
            "attitude": {
                "value": "hostile"
            },
            "ci": [],
            "di": {
                "custom": "",
                "value": []
            },
            "dr": [],
            "dv": [],
            "languages": {
                "custom": "",
                "selected": [],
                "value": []
            },
            "rarity": {
                "value": "common"
            },
            "senses": {
                "value": "low-light vision, scent (imprecise) 30 feet"
            },
            "size": {
                "value": "med"
            },
            "traits": {
                "custom": "",
                "value": [
                    "animal"
                ]
            }
        }
    },
    "effects": [],
    "flags": {},
    "img": "systems/sf2e/icons/default-icons/npc.svg",
    "items": [
        {
            "_id": "zJKO70Z0e4PdkPUS",
            "data": {
                "attack": {
                    "value": ""
                },
                "attackEffects": {
                    "custom": "",
                    "value": [
                        "embed-quill"
                    ]
                },
                "bonus": {
                    "value": 11
                },
                "damageRolls": {
                    "0": {
                        "damage": "1d8+4",
                        "damageType": "piercing"
                    }
                },
                "description": {
                    "value": ""
                },
                "rules": [],
                "slug": null,
                "source": {
                    "value": ""
                },
                "traits": {
                    "custom": "",
                    "rarity": {
                        "value": "common"
                    },
                    "value": []
                },
                "weaponType": {
                    "value": "melee"
                }
            },
            "effects": [],
            "flags": {},
            "img": "systems/sf2e/icons/default-icons/melee.svg",
            "name": "Quills",
            "sort": 100000,
            "type": "melee"
        },
        {
            "_id": "MYdtzKzZtoPS3j70",
            "data": {
                "attack": {
                    "value": ""
                },
                "attackEffects": {
                    "custom": "",
                    "value": []
                },
                "bonus": {
                    "value": 11
                },
                "damageRolls": {
                    "0": {
                        "damage": "1d6+4",
                        "damageType": "bludgeoning"
                    }
                },
                "description": {
                    "value": ""
                },
                "rules": [],
                "slug": null,
                "source": {
                    "value": ""
                },
                "traits": {
                    "custom": "",
                    "rarity": {
                        "value": "common"
                    },
                    "value": []
                },
                "weaponType": {
                    "value": "melee"
                }
            },
            "effects": [],
            "flags": {},
            "img": "systems/sf2e/icons/default-icons/melee.svg",
            "name": "Tail",
            "sort": 200000,
            "type": "melee"
        },
        {
            "_id": "SKfXJh58tHRMQxNa",
            "data": {
                "actionCategory": {
                    "value": "interaction"
                },
                "actionType": {
                    "value": "passive"
                },
                "actions": {
                    "value": null
                },
                "description": {
                    "value": "<p>The monster can see in dim light as though it were bright light, so it ignores the @Compendium[sf2e.conditionitems.Concealed]{Concealed} condition due to dim light.</p>"
                },
                "requirements": {
                    "value": ""
                },
                "rules": [],
                "slug": "low-light-vision",
                "source": {
                    "value": ""
                },
                "traits": {
                    "custom": "",
                    "rarity": {
                        "value": "common"
                    },
                    "value": []
                },
                "trigger": {
                    "value": ""
                },
                "weapon": {
                    "value": ""
                }
            },
            "effects": [],
            "flags": {
                "core": {
                    "sourceId": "Compendium.sf2e.bestiary-ability-glossary-srd.fFu2sZz4KB01fVRc"
                }
            },
            "img": "systems/sf2e/icons/default-icons/action.svg",
            "name": "Low-Light Vision",
            "sort": 300000,
            "type": "action"
        },
        {
            "_id": "zY3L0jOu3AcqWwDa",
            "data": {
                "actionCategory": {
                    "value": "interaction"
                },
                "actionType": {
                    "value": "passive"
                },
                "actions": {
                    "value": null
                },
                "description": {
                    "value": "<p>Scent involves sensing creatures or objects by smell, and is usually a vague sense. The range is listed in the ability, and it functions only if the creature or object being detected emits an aroma (for instance, incorporeal creatures usually do not exude an aroma).</p>\n<p>If a creature emits a heavy aroma or is upwind, the GM can double or even triple the range of scent abilities used to detect that creature, and the GM can reduce the range if a creature is downwind.</p>"
                },
                "requirements": {
                    "value": ""
                },
                "rules": [],
                "slug": "scent",
                "source": {
                    "value": ""
                },
                "traits": {
                    "custom": "",
                    "rarity": {
                        "value": "common"
                    },
                    "value": []
                },
                "trigger": {
                    "value": ""
                },
                "weapon": {
                    "value": ""
                }
            },
            "effects": [],
            "flags": {
                "core": {
                    "sourceId": "Compendium.sf2e.bestiary-ability-glossary-srd.rqfnQ5VHT5hxm25r"
                }
            },
            "img": "systems/sf2e/icons/default-icons/mystery-man.svg",
            "name": "Scent (Imprecise) 30 Feet",
            "sort": 400000,
            "type": "action"
        },
        {
            "_id": "AbzlxSNMB7g4nTJc",
            "data": {
                "actionCategory": {
                    "value": "defensive"
                },
                "actionType": {
                    "value": "passive"
                },
                "actions": {
                    "value": null
                },
                "description": {
                    "value": "<p>A creature that hits a porcupine with an unarmed Strike or a non-reach melee Strike takes [[/r 1d8 #piercing]]{1d8 piercing damage} (basic Reflex save). On a critical failure, the creature also takes [[/r 1d4 #persistent piercing]] @Compendium[sf2e.conditionitems.Persistent Damage]{Persistent Piercing Damage}. as the quills hook into its flesh.</p>"
                },
                "requirements": {
                    "value": ""
                },
                "rules": [],
                "slug": null,
                "source": {
                    "value": ""
                },
                "traits": {
                    "custom": "",
                    "rarity": {
                        "value": "common"
                    },
                    "value": []
                },
                "trigger": {
                    "value": ""
                },
                "weapon": {
                    "value": ""
                }
            },
            "effects": [],
            "flags": {},
            "img": "systems/sf2e/icons/actions/Passive.webp",
            "name": "Passive Points",
            "sort": 500000,
            "type": "action"
        },
        {
            "_id": "EIopSecYGMv2HxGV",
            "data": {
                "actionCategory": {
                    "value": "offensive"
                },
                "actionType": {
                    "value": "passive"
                },
                "actions": {
                    "value": null
                },
                "description": {
                    "value": "<p>A creature damaged by the porcupine's quills Strike must succeed at a <span data-pf2-check=\"reflex\" data-pf2-dc=\"18\" data-pf2-traits=\"damaging-effect\" data-pf2-label=\"Embed Quill DC\" data-pf2-show-dc=\"gm\">Reflex</span> save or some of the quills remain embedded in its body, dealing [[/r 1d4 #persistent piercing]] @Compendium[sf2e.conditionitems.Persistent Damage]{Persistent Piercing Damage}.</p>"
                },
                "requirements": {
                    "value": ""
                },
                "rules": [],
                "slug": null,
                "source": {
                    "value": ""
                },
                "traits": {
                    "custom": "",
                    "rarity": {
                        "value": "common"
                    },
                    "value": []
                },
                "trigger": {
                    "value": ""
                },
                "weapon": {
                    "value": ""
                }
            },
            "effects": [],
            "flags": {},
            "img": "systems/sf2e/icons/actions/Passive.webp",
            "name": "Embed Quill",
            "sort": 600000,
            "type": "action"
        },
        {
            "_id": "Tiw7WqKClIOO7liK",
            "data": {
                "actionCategory": {
                    "value": "offensive"
                },
                "actionType": {
                    "value": "action"
                },
                "actions": {
                    "value": 2
                },
                "description": {
                    "value": "<p><strong>Effect</strong> The porcupine scuttles backward, quills extended. It Strides twice, then makes a quill Strike. The target is @Compendium[sf2e.conditionitems.Flat-Footed]{Flat-Footed} against this Strike unless it has seen a Rearward Rush before.</p>"
                },
                "requirements": {
                    "value": ""
                },
                "rules": [],
                "slug": null,
                "source": {
                    "value": ""
                },
                "traits": {
                    "custom": "",
                    "rarity": {
                        "value": "common"
                    },
                    "value": []
                },
                "trigger": {
                    "value": ""
                },
                "weapon": {
                    "value": ""
                }
            },
            "effects": [],
            "flags": {},
            "img": "systems/sf2e/icons/actions/TwoActions.webp",
            "name": "Rearward Rush",
            "sort": 700000,
            "type": "action"
        },
        {
            "_id": "uxgEQgxtbzCI4zVo",
            "data": {
                "description": {
                    "value": ""
                },
                "item": {
                    "value": 0
                },
                "mod": {
                    "value": 8
                },
                "proficient": {
                    "value": 0
                },
                "rules": [],
                "slug": null,
                "source": {
                    "value": ""
                },
                "traits": {
                    "custom": "",
                    "rarity": {
                        "value": "common"
                    },
                    "value": []
                }
            },
            "effects": [],
            "flags": {},
            "img": "systems/sf2e/icons/default-icons/lore.svg",
            "name": "Athletics (+10 to Climb)",
            "sort": 800000,
            "type": "lore"
        }
    ],
    "name": "Giant Porcupine",
    "token": {
        "disposition": -1,
        "height": 1,
        "img": "systems/sf2e/icons/default-icons/npc.svg",
        "name": "Giant Porcupine",
        "width": 1
    },
    "type": "npc"
}
