{
    "_id": "cbduxhlI7JbONLXF",
    "data": {
        "abilities": {
            "cha": {
                "mod": -2
            },
            "con": {
                "mod": 3
            },
            "dex": {
                "mod": 0
            },
            "int": {
                "mod": -5
            },
            "str": {
                "mod": 5
            },
            "wis": {
                "mod": 1
            }
        },
        "attributes": {
            "ac": {
                "details": "",
                "value": 18
            },
            "allSaves": {
                "value": null
            },
            "hp": {
                "details": "troop defenses",
                "max": 90,
                "temp": 0,
                "value": 90
            },
            "initiative": {
                "ability": "perception"
            },
            "perception": {
                "value": 7
            },
            "shield": {
                "ac": 2,
                "brokenThreshold": 0,
                "hardness": 0,
                "max": 0,
                "value": 0
            },
            "speed": {
                "otherSpeeds": [],
                "value": "20; troop movement"
            }
        },
        "details": {
            "alignment": {
                "value": "NE"
            },
            "creatureType": "",
            "flavorText": "<p>Necromancers most often create these mindless undead as obedient, expendable servitors. Left to its own devices, a zombie seeks only to consume the living, stopping only when its rotting body can no longer hold together.</p>\n<hr />\n<p>This shuffling mass of decaying flesh moves with dull but singular focus.</p>",
            "level": {
                "value": 4
            },
            "source": {
                "value": "Pathfinder Bestiary 3"
            }
        },
        "resources": {},
        "saves": {
            "fortitude": {
                "saveDetail": "",
                "value": 11
            },
            "reflex": {
                "saveDetail": "",
                "value": 8
            },
            "will": {
                "saveDetail": "",
                "value": 9
            }
        },
        "traits": {
            "ci": [],
            "di": {
                "custom": "",
                "value": [
                    "death-effects",
                    "disease",
                    "mental",
                    "paralyzed",
                    "poison",
                    "unconscious"
                ]
            },
            "dr": [],
            "dv": [
                {
                    "exceptions": "",
                    "label": "Area Damage",
                    "type": "area-damage",
                    "value": "5"
                },
                {
                    "exceptions": "",
                    "label": "Positive",
                    "type": "positive",
                    "value": "5"
                },
                {
                    "exceptions": "",
                    "label": "Slashing",
                    "type": "slashing",
                    "value": "5"
                },
                {
                    "exceptions": "",
                    "label": "Splash Damage",
                    "type": "splash-damage",
                    "value": "2"
                }
            ],
            "languages": {
                "custom": "",
                "selected": [],
                "value": []
            },
            "rarity": {
                "value": "common"
            },
            "senses": {
                "value": "darkvision"
            },
            "size": {
                "value": "grg"
            },
            "traits": {
                "custom": "",
                "value": [
                    "mindless",
                    "troop",
                    "undead",
                    "zombie"
                ]
            }
        }
    },
    "effects": [],
    "flags": {},
    "img": "systems/sf2e/icons/default-icons/npc.svg",
    "items": [
        {
            "_id": "yQzN4wExqO58Ssdr",
            "data": {
                "actionCategory": {
                    "value": "interaction"
                },
                "actionType": {
                    "value": "passive"
                },
                "actions": {
                    "value": null
                },
                "description": {
                    "value": "<p>A shambler troop is permanently @Compendium[sf2e.conditionitems.Slowed]{Slowed 1} and can't use reactions.</p>"
                },
                "requirements": {
                    "value": ""
                },
                "rules": [],
                "slug": null,
                "source": {
                    "value": ""
                },
                "traits": {
                    "custom": "",
                    "rarity": {
                        "value": "common"
                    },
                    "value": []
                },
                "trigger": {
                    "value": ""
                },
                "weapon": {
                    "value": ""
                }
            },
            "effects": [],
            "flags": {},
            "img": "systems/sf2e/icons/actions/Passive.webp",
            "name": "Slow",
            "sort": 100000,
            "type": "action"
        },
        {
            "_id": "wQK6PMNpEAM3KsO5",
            "data": {
                "actionCategory": {
                    "value": "interaction"
                },
                "actionType": {
                    "value": "passive"
                },
                "actions": {
                    "value": null
                },
                "description": {
                    "value": "<p>A monster with darkvision can see perfectly well in areas of darkness and dim light, though such vision is in black and white only. Some forms of magical darkness, such as a 4th-level @Compendium[sf2e.spells-srd.Darkness]{Darkness} spell, block normal darkvision. A monster with @Compendium[sf2e.bestiary-ability-glossary-srd.Greater Darkvision]{Greater Darkvision}, however, can see through even these forms of magical darkness.</p>"
                },
                "requirements": {
                    "value": ""
                },
                "rules": [],
                "slug": "darkvision",
                "source": {
                    "value": ""
                },
                "traits": {
                    "custom": "",
                    "rarity": {
                        "value": "common"
                    },
                    "value": []
                },
                "trigger": {
                    "value": ""
                },
                "weapon": {
                    "value": ""
                }
            },
            "effects": [],
            "flags": {
                "core": {
                    "sourceId": "Compendium.sf2e.bestiary-ability-glossary-srd.qCCLZhnp2HhP3Ex6"
                }
            },
            "img": "systems/sf2e/icons/default-icons/action.svg",
            "name": "Darkvision",
            "sort": 200000,
            "type": "action"
        },
        {
            "_id": "VE0UqyozDof75tsl",
            "data": {
                "actionCategory": {
                    "value": "interaction"
                },
                "actionType": {
                    "value": "action"
                },
                "actions": {
                    "value": 1
                },
                "description": {
                    "value": "<p>The troop chooses one of the squares it currently occupies and redistributes its squares to any configuration in which all squares are contiguous and within 15 feet of the chosen square. The troop can't share its space with other creatures.</p>"
                },
                "requirements": {
                    "value": ""
                },
                "rules": [],
                "slug": "form-up",
                "source": {
                    "value": ""
                },
                "traits": {
                    "custom": "",
                    "rarity": {
                        "value": "common"
                    },
                    "value": []
                },
                "trigger": {
                    "value": ""
                },
                "weapon": {
                    "value": ""
                }
            },
            "effects": [],
            "flags": {
                "core": {
                    "sourceId": "Compendium.sf2e.bestiary-ability-glossary-srd.OvqohW9YuahnFaiX"
                }
            },
            "img": "systems/sf2e/icons/actions/OneAction.webp",
            "name": "Form Up",
            "sort": 300000,
            "type": "action"
        },
        {
            "_id": "u5txjP01UbI5DRA7",
            "data": {
                "actionCategory": {
                    "value": "defensive"
                },
                "actionType": {
                    "value": "passive"
                },
                "actions": {
                    "value": null
                },
                "description": {
                    "value": "<p><strong>Thresholds</strong> 60 (12 squares), 30 (8 squares)</p>\n<hr />\n<p>Troops are composed of many individuals, and over the course of enough attacks and downed comrades, troops shrink in size. Most troops start with 16 squares (4 by 4), and their Hit Points have two listed thresholds, typically the first is at 2/3 their maximum Hit Points and the second is at 1/3 their maximum Hit Points. Once the troop drops below the first threshold, it loses 4 squares, leaving 12 squares remaining, and the first threshold becomes the troop's new maximum Hit Points. Once the troop falls below the second threshold, it loses another 4 squares, leaving 8 squares remaining, and the second threshold becomes the troop's new maximum Hit Points. In order to restore its size and maximum Hit Points, a troop needs to spend downtime to use long-term treatment on casualties or recruit new members to replace the fallen. At 0 Hit Points, the troop is reduced down to 4 squares, which is too few to sustain the troop, so it disperses entirely, with the few remaining members surrendering, fleeing, or easily dispatched, depending on their nature.</p>\n<p>A damaging single-target effect, such as a Strike, can't force a troop to pass through more than one threshold at once. For instance, if a troop had 60 Hit Points, with thresholds at 40 and 20, a Strike for 50 damage would leave the troop at 21 Hit Points, just above the second threshold. A damaging area effect or multi-target effect can cross multiple thresholds at once and could potentially destroy the entire troop in one shot.</p>\n<p>Non-damaging effects with an area or that target all creatures in a certain proximity affect a troop normally if they affect the entire area occupied by the troop. If an effect has a smaller area or numbers of targets, it typically has no effect on the troop. However, if the effect can target at least four creatures or cover at least four squares in the troop, and if it would prevent its targets from acting, cause them to flee, or otherwise make them unable to function as part of the troop for a round or more, the troop loses loses a number of Hit Points equal to the amount required to bring it to the next threshold, removing 4 squares. If an effect would both deal damage and automatically cross a threshold due to incapacitating some of the creatures in the troop, apply the damage first. If the damage wasn't enough to cross a threshold on its own, then reduce the Hit Points to cross the threshold for the incapacitating effect.</p>"
                },
                "requirements": {
                    "value": ""
                },
                "rules": [],
                "slug": "troop-defenses",
                "source": {
                    "value": ""
                },
                "traits": {
                    "custom": "",
                    "rarity": {
                        "value": "common"
                    },
                    "value": []
                },
                "trigger": {
                    "value": ""
                },
                "weapon": {
                    "value": ""
                }
            },
            "effects": [],
            "flags": {
                "core": {
                    "sourceId": "Compendium.sf2e.bestiary-ability-glossary-srd.RJbI07QSiYp0SF9A"
                }
            },
            "img": "systems/sf2e/icons/default-icons/mystery-man.svg",
            "name": "Troop Defenses",
            "sort": 400000,
            "type": "action"
        },
        {
            "_id": "YNpN5FwvZ27Zfviz",
            "data": {
                "actionCategory": {
                    "value": "offensive"
                },
                "actionType": {
                    "value": "action"
                },
                "actions": {
                    "value": 1
                },
                "description": {
                    "value": "<p><span class=\"pf2-icon\">1</span> to <span class=\"pf2-icon\">2</span></p>\n<p><strong>Frequency</strong> once per round;</p>\n<p><strong>Effect</strong> The shamblers lash out at any enemies in their squares or within 5 feet (<span data-pf2-check=\"reflex\" data-pf2-dc=\"18\" data-pf2-traits=\"damaging-effect\" data-pf2-label=\"Shambling Onslaught DC\" data-pf2-show-dc=\"gm\">basic Reflex</span> save). The damage depends on the number of actions.</p>\n<p><span class=\"pf2-icon\">1</span> [[/r 2d6+5 #bludgeoning]]{2d6+5 bludgeoning damage}</p>\n<p><span class=\"pf2-icon\">2</span> [[/r 2d6+9 #bludgeoning]]{2d6+9 bludgeoning damage}</p>"
                },
                "requirements": {
                    "value": ""
                },
                "rules": [],
                "slug": null,
                "source": {
                    "value": ""
                },
                "traits": {
                    "custom": "",
                    "rarity": {
                        "value": "common"
                    },
                    "value": []
                },
                "trigger": {
                    "value": ""
                },
                "weapon": {
                    "value": ""
                }
            },
            "effects": [],
            "flags": {},
            "img": "systems/sf2e/icons/actions/OneAction.webp",
            "name": "Shambling Onslaught",
            "sort": 500000,
            "type": "action"
        },
        {
            "_id": "xb36ZcB5nu2McDrU",
            "data": {
                "actionCategory": {
                    "value": "offensive"
                },
                "actionType": {
                    "value": "passive"
                },
                "actions": {
                    "value": null
                },
                "description": {
                    "value": "<p>The shambler troop is less organized than most troops. It can move into other creatures' spaces, and other creatures can move into its spaces. Its spaces are difficult terrain to other creatures.</p>"
                },
                "requirements": {
                    "value": ""
                },
                "rules": [],
                "slug": null,
                "source": {
                    "value": ""
                },
                "traits": {
                    "custom": "",
                    "rarity": {
                        "value": "common"
                    },
                    "value": []
                },
                "trigger": {
                    "value": ""
                },
                "weapon": {
                    "value": ""
                }
            },
            "effects": [],
            "flags": {},
            "img": "systems/sf2e/icons/actions/Passive.webp",
            "name": "Grave Tide",
            "sort": 600000,
            "type": "action"
        },
        {
            "_id": "ck37LN0pcQmPLf0a",
            "data": {
                "actionCategory": {
                    "value": "offensive"
                },
                "actionType": {
                    "value": "passive"
                },
                "actions": {
                    "value": null
                },
                "description": {
                    "value": "<p>Whenever a troop Strides, it first Forms Up as a free action to condense into a 20-foot-by-20-foot area (minus any missing squares), then moves up to its Speed. This works just like a Gargantuan creature moving; for instance, if any square of the troop enters difficult terrain, the extra movement cost applies to the whole troop.</p>"
                },
                "requirements": {
                    "value": ""
                },
                "rules": [],
                "slug": null,
                "source": {
                    "value": ""
                },
                "traits": {
                    "custom": "",
                    "rarity": {
                        "value": "common"
                    },
                    "value": []
                },
                "trigger": {
                    "value": ""
                },
                "weapon": {
                    "value": ""
                }
            },
            "effects": [],
            "flags": {},
            "img": "systems/sf2e/icons/actions/Passive.webp",
            "name": "Troop Movement",
            "sort": 700000,
            "type": "action"
        }
    ],
    "name": "Shambler Troop",
    "token": {
        "disposition": -1,
        "height": 4,
        "img": "systems/sf2e/icons/default-icons/npc.svg",
        "name": "Shambler Troop",
        "width": 4
    },
    "type": "npc"
}
