{
    "_id": "XHut4MN0JBgm7WaN",
    "data": {
        "actionCategory": {
            "value": "offensive"
        },
        "actionType": {
            "value": "action"
        },
        "actions": {
            "value": 1
        },
        "description": {
            "value": "<p><strong>Requirement</strong> A @Compendium[sf2e.conditionitems.Grabbed]{Grabbed}, @Compendium[sf2e.conditionitems.Paralyzed]{Paralyzed}, @Compendium[sf2e.conditionitems.Restrained]{Restrained}, @Compendium[sf2e.conditionitems.Unconscious]{Unconscious}, or willing creature is within the vampire's reach.</p>\n<p><strong>Effect</strong> The vampire sinks its fangs into that creature to drink its blood. This requires an Athletics check against the victim's Fortitude DC if the victim is grabbed and is automatic for any of the other conditions.</p>\n<p>The victim is @Compendium[sf2e.conditionitems.Drained]{Drained 2} and the vampire regains HP equal to 10% of its maximum HP, gaining any excess HP as temporary Hit Points. Drinking Blood from a creature that's already drained doesn't restore any HP to the vampire but increases the victim's drain value by 1. A vampire can also consume blood that's been emptied into a vessel for sustenance, but it gains no HP from doing so.</p>\n<p>A victim's drained condition decreases by 1 per week. A blood transfusion, which requires a <span data-pf2-check=\"medicine\" data-pf2-dc=\"20\" data-pf2-label=\"Blood Transfusion DC\" data-pf2-show-dc=\"gm\">Medicine</span> check and sufficient blood or a blood donor, reduces the drain by 1 after 10 minutes.</p>"
        },
        "requirements": {
            "value": ""
        },
        "rules": [],
        "source": {
            "value": "Pathfinder Bestiary"
        },
        "traits": {
            "custom": "",
            "rarity": {
                "value": "common"
            },
            "value": [
                "divine",
                "necromancy"
            ]
        },
        "trigger": {
            "value": ""
        },
        "weapon": {
            "value": ""
        }
    },
    "effects": [],
    "flags": {},
    "img": "systems/sf2e/icons/actions/OneAction.webp",
    "name": "(Vampire, True) Drink Blood",
    "type": "action"
}
