{
    "_id": "W0qudblot2Z9Vu86",
    "description": "Table of 10th-Level Permanent Items",
    "displayRoll": true,
    "flags": {},
    "formula": "1d198",
    "img": "icons/svg/d20-grey.svg",
    "name": "10th-Level Permanent Items",
    "permission": {
        "default": 0
    },
    "replacement": true,
    "results": [
        {
            "_id": "mYq4p5qykRLe1Ok4",
            "collection": "sf2e.equipment-srd",
            "drawn": false,
            "flags": {},
            "img": "systems/sf2e/icons/equipment/armor/specific-magic-armor/breastplate-of-command.webp",
            "range": [
                1,
                6
            ],
            "resultId": "RUEAV5LMUGFHcXcW",
            "text": "Breastplate of Command",
            "type": 2,
            "weight": 6
        },
        {
            "_id": "QN2b9QvvhEhXYHss",
            "collection": "sf2e.equipment-srd",
            "drawn": false,
            "flags": {},
            "img": "systems/sf2e/icons/equipment/armor/specific-magic-armor/electric-eelskin.webp",
            "range": [
                7,
                12
            ],
            "resultId": "8HxM35X8DDt2gw9d",
            "text": "Electric Eelskin",
            "type": 2,
            "weight": 6
        },
        {
            "_id": "k455WZW8SCQLXbsv",
            "collection": "sf2e.equipment-srd",
            "drawn": false,
            "flags": {},
            "img": "systems/sf2e/icons/equipment/worn-items/companion-items/barding-of-the-zephyr.webp",
            "range": [
                13,
                18
            ],
            "resultId": "eoI3M6FXtcPWeg7i",
            "text": "Barding of the Zephyr",
            "type": 2,
            "weight": 6
        },
        {
            "_id": "oLZsd9xeniDUB97N",
            "collection": "sf2e.equipment-srd",
            "drawn": false,
            "flags": {},
            "img": "systems/sf2e/icons/equipment/held-items/maestros-instrument.webp",
            "range": [
                19,
                24
            ],
            "resultId": "3mprh9aZ670HfNhT",
            "text": "Maestro's Instrument (Moderate)",
            "type": 2,
            "weight": 6
        },
        {
            "_id": "zz0eL7k3QNTKNXc3",
            "collection": "sf2e.equipment-srd",
            "drawn": false,
            "flags": {},
            "img": "systems/sf2e/icons/equipment/held-items/thurible-of-revelation.webp",
            "range": [
                25,
                30
            ],
            "resultId": "QEPx1fCf74xdpXBH",
            "text": "Thurible of Revelation (Moderate)",
            "type": 2,
            "weight": 6
        },
        {
            "_id": "lLzSpPUauPOj4sfl",
            "collection": "sf2e.equipment-srd",
            "drawn": false,
            "flags": {},
            "img": "systems/sf2e/icons/equipment/held-items/wondrous-figurine-golden-lion.webp",
            "range": [
                31,
                36
            ],
            "resultId": "RTxne78VqPqTz2VN",
            "text": "Wondrous Figurine (Golden Lions)",
            "type": 2,
            "weight": 6
        },
        {
            "_id": "HpyqvpBDM6D2jUC6",
            "collection": "sf2e.equipment-srd",
            "drawn": false,
            "flags": {},
            "img": "systems/sf2e/icons/equipment/runes/fundamental-weapon-runes/weapon-potency.webp",
            "range": [
                37,
                42
            ],
            "resultId": "pOoEiuEuITm4I2Il",
            "text": "Weapon Potency (+2)",
            "type": 2,
            "weight": 6
        },
        {
            "_id": "bqsJMu7IB225fTYz",
            "collection": "sf2e.equipment-srd",
            "drawn": false,
            "flags": {},
            "img": "systems/sf2e/icons/equipment/runes/armor-property-runes/armor-property-runes.webp",
            "range": [
                43,
                48
            ],
            "resultId": "bxz885LMjLCkpDq3",
            "text": "Invisibility (Greater)",
            "type": 2,
            "weight": 6
        },
        {
            "_id": "kQTbzpAKyDIdb9PY",
            "collection": "sf2e.equipment-srd",
            "drawn": false,
            "flags": {},
            "img": "systems/sf2e/icons/equipment/shields/specific-shields/forge-warden.webp",
            "range": [
                49,
                51
            ],
            "resultId": "NoTUhKkiTY5BQU5T",
            "text": "Forge Warden",
            "type": 2,
            "weight": 3
        },
        {
            "_id": "11E6i8082Hr9VbAI",
            "collection": "sf2e.equipment-srd",
            "drawn": false,
            "flags": {},
            "img": "systems/sf2e/icons/equipment/shields/specific-shields/sturdy-shield.webp",
            "range": [
                52,
                57
            ],
            "resultId": "pNQJ9PTOEHxEZCgp",
            "text": "Sturdy Shield (Moderate)",
            "type": 2,
            "weight": 6
        },
        {
            "_id": "vQq7Hy7Dx1a8GCHZ",
            "collection": "sf2e.equipment-srd",
            "drawn": false,
            "flags": {},
            "img": "systems/sf2e/icons/equipment/staves/staff-of-abjuration.webp",
            "range": [
                58,
                63
            ],
            "resultId": "HRNQ1j2OM54Qakhp",
            "text": "Staff of Abjuration (Greater)",
            "type": 2,
            "weight": 6
        },
        {
            "_id": "dwXrm0DZwZ0Vtpyl",
            "collection": "sf2e.equipment-srd",
            "drawn": false,
            "flags": {},
            "img": "systems/sf2e/icons/equipment/staves/staff-of-conjuration.webp",
            "range": [
                64,
                69
            ],
            "resultId": "xQf98bdGgE7UiBe4",
            "text": "Staff of Conjuration (Greater)",
            "type": 2,
            "weight": 6
        },
        {
            "_id": "ViMk7CeQzvGeYUrC",
            "collection": "sf2e.equipment-srd",
            "drawn": false,
            "flags": {},
            "img": "systems/sf2e/icons/equipment/staves/staff-of-divination.webp",
            "range": [
                70,
                75
            ],
            "resultId": "E63MaprijBuUK9Om",
            "text": "Staff of Divination (Greater)",
            "type": 2,
            "weight": 6
        },
        {
            "_id": "rj2RuyHe7q9qcZ2d",
            "collection": "sf2e.equipment-srd",
            "drawn": false,
            "flags": {},
            "img": "systems/sf2e/icons/equipment/staves/staff-of-enchantment.webp",
            "range": [
                76,
                81
            ],
            "resultId": "ExExv8dJVcCj4rL0",
            "text": "Staff of Enchantment (Greater)",
            "type": 2,
            "weight": 6
        },
        {
            "_id": "o3gZ97kIi4lo11BY",
            "collection": "sf2e.equipment-srd",
            "drawn": false,
            "flags": {},
            "img": "systems/sf2e/icons/equipment/staves/staff-of-evocation.webp",
            "range": [
                82,
                87
            ],
            "resultId": "RCQ4DzDh34ZBiTxI",
            "text": "Staff of Evocation (Greater)",
            "type": 2,
            "weight": 6
        },
        {
            "_id": "OtH5vWwuqo4ICMuF",
            "collection": "sf2e.equipment-srd",
            "drawn": false,
            "flags": {},
            "img": "systems/sf2e/icons/equipment/staves/staff-of-illusion.webp",
            "range": [
                88,
                93
            ],
            "resultId": "6u14xOkKhnB9lVy0",
            "text": "Staff of Illusion (Greater)",
            "type": 2,
            "weight": 6
        },
        {
            "_id": "TbqN7piUhgo0OfAf",
            "collection": "sf2e.equipment-srd",
            "drawn": false,
            "flags": {},
            "img": "systems/sf2e/icons/equipment/staves/staff-of-necromancy.webp",
            "range": [
                94,
                99
            ],
            "resultId": "Ab5EjJyoRSec5YrW",
            "text": "Staff of Necromancy (Greater)",
            "type": 2,
            "weight": 6
        },
        {
            "_id": "l9CD8GKGvhWX8hAA",
            "collection": "sf2e.equipment-srd",
            "drawn": false,
            "flags": {},
            "img": "systems/sf2e/icons/equipment/staves/staff-of-transmutation.webp",
            "range": [
                100,
                105
            ],
            "resultId": "YxLC2Np7cEBnZzGX",
            "text": "Staff of Transmutation (Greater)",
            "type": 2,
            "weight": 6
        },
        {
            "_id": "t5t1wLQE2o2FC0iI",
            "collection": "sf2e.equipment-srd",
            "drawn": false,
            "flags": {},
            "img": "systems/sf2e/icons/equipment/structures/explorers-yurt.webp",
            "range": [
                106,
                111
            ],
            "resultId": "9Y86NM6nt2WtYBOy",
            "text": "Explorer's Yurt",
            "type": 2,
            "weight": 6
        },
        {
            "_id": "SaGLwztjSNglsrzf",
            "collection": "sf2e.equipment-srd",
            "drawn": false,
            "flags": {},
            "img": "systems/sf2e/icons/equipment/wands/specialty-wands/wand-of-widening.webp",
            "range": [
                112,
                117
            ],
            "resultId": "zYRzgETeR1Hs1ti1",
            "text": "Wand of Widening (4th-Level Spell)",
            "type": 2,
            "weight": 6
        },
        {
            "_id": "vHNOIhldCiAlVI37",
            "drawn": false,
            "flags": {},
            "img": "icons/svg/d20-black.svg",
            "range": [
                118,
                123
            ],
            "resultId": "",
            "text": "Magic Weapon (+2 Striking)",
            "type": 0,
            "weight": 6
        },
        {
            "_id": "wDGaxAN4F6RLlPZV",
            "drawn": false,
            "flags": {},
            "img": "icons/svg/d20-black.svg",
            "range": [
                124,
                129
            ],
            "resultId": "",
            "text": "Cold Iron Weapon (Standard-Grade)",
            "type": 0,
            "weight": 6
        },
        {
            "_id": "S0kG1NmHVtkY2ZNf",
            "drawn": false,
            "flags": {},
            "img": "icons/svg/d20-black.svg",
            "range": [
                130,
                135
            ],
            "resultId": "",
            "text": "Silver Weapon (Standard-Grade)",
            "type": 0,
            "weight": 6
        },
        {
            "_id": "ND9f91U4mIQQpsxt",
            "drawn": false,
            "flags": {},
            "img": "icons/svg/d20-black.svg",
            "range": [
                136,
                141
            ],
            "resultId": "",
            "text": "+2 striking Handwraps of Mighty Blows",
            "type": 0,
            "weight": 6
        },
        {
            "_id": "51ULgg4Z2gGAZbMm",
            "collection": "sf2e.equipment-srd",
            "drawn": false,
            "flags": {},
            "img": "systems/sf2e/icons/equipment/worn-items/other-worn-items/cape-of-the-mountebank.webp",
            "range": [
                142,
                144
            ],
            "resultId": "uiJAR3jQbQHhiP3Q",
            "text": "Cape of the Mountebank",
            "type": 2,
            "weight": 3
        },
        {
            "_id": "WGS4NVKgvBlbRbTe",
            "collection": "sf2e.equipment-srd",
            "drawn": false,
            "flags": {},
            "img": "systems/sf2e/icons/equipment/worn-items/other-worn-items/choker-of-elocution.webp",
            "range": [
                145,
                150
            ],
            "resultId": "br4eClrcGeLTL6Ba",
            "text": "Choker of Elocution (Greater)",
            "type": 2,
            "weight": 6
        },
        {
            "_id": "7Z6tn2kUuYj3hLx2",
            "collection": "sf2e.equipment-srd",
            "drawn": false,
            "flags": {},
            "img": "systems/sf2e/icons/equipment/worn-items/other-worn-items/clandestine-cloak.webp",
            "range": [
                151,
                153
            ],
            "resultId": "6jRXUXzYKIpm2uNp",
            "text": "Clandestine Cloak (Greater)",
            "type": 2,
            "weight": 3
        },
        {
            "_id": "STcQUllJfx9jubmn",
            "collection": "sf2e.equipment-srd",
            "drawn": false,
            "flags": {},
            "img": "systems/sf2e/icons/equipment/worn-items/other-worn-items/cloak-of-the-bat.webp",
            "range": [
                154,
                159
            ],
            "resultId": "dipcMOtBFxtmsjkS",
            "text": "Cloak of the Bat",
            "type": 2,
            "weight": 6
        },
        {
            "_id": "9V0wkAcLvloWJuB2",
            "collection": "sf2e.equipment-srd",
            "drawn": false,
            "flags": {},
            "img": "systems/sf2e/icons/equipment/worn-items/other-worn-items/daredevil-boots.webp",
            "range": [
                160,
                165
            ],
            "resultId": "mmdnWrQsh7vDspLK",
            "text": "Daredevil Boots",
            "type": 2,
            "weight": 6
        },
        {
            "_id": "1I1aKyDFUhl3sgcR",
            "collection": "sf2e.equipment-srd",
            "drawn": false,
            "flags": {},
            "img": "systems/sf2e/icons/equipment/worn-items/other-worn-items/demon-mask.webp",
            "range": [
                166,
                171
            ],
            "resultId": "shKPtYN0YUOe07K2",
            "text": "Demon Mask (Greater)",
            "type": 2,
            "weight": 6
        },
        {
            "_id": "UvP7whKlzWpyF6YX",
            "collection": "sf2e.equipment-srd",
            "drawn": false,
            "flags": {},
            "img": "systems/sf2e/icons/equipment/worn-items/other-worn-items/druids-vestments.webp",
            "range": [
                172,
                177
            ],
            "resultId": "hvlEFx25ogf1K1C2",
            "text": "Druid's Vestments",
            "type": 2,
            "weight": 6
        },
        {
            "_id": "PNVHDBdtL0VUAY66",
            "collection": "sf2e.equipment-srd",
            "drawn": false,
            "flags": {},
            "img": "systems/sf2e/icons/equipment/worn-items/other-worn-items/ring-of-counterspells.webp",
            "range": [
                178,
                180
            ],
            "resultId": "cBKrXbxM02MlycpV",
            "text": "Ring of Counterspells",
            "type": 2,
            "weight": 3
        },
        {
            "_id": "LStiXIuZbUODq3Sv",
            "collection": "sf2e.equipment-srd",
            "drawn": false,
            "flags": {},
            "img": "systems/sf2e/icons/equipment/worn-items/other-worn-items/ring-of-energy-resistance.webp",
            "range": [
                181,
                186
            ],
            "resultId": "X3Nfa7bByYFrg1lU",
            "text": "Ring of Energy Resistance (Greater)",
            "type": 2,
            "weight": 6
        },
        {
            "_id": "Zz0g5cgA1H086yPC",
            "collection": "sf2e.equipment-srd",
            "drawn": false,
            "flags": {},
            "img": "systems/sf2e/icons/equipment/worn-items/other-worn-items/ring-of-lies.webp",
            "range": [
                187,
                189
            ],
            "resultId": "OTeONq4r10Xm6gSy",
            "text": "Ring of Lies",
            "type": 2,
            "weight": 3
        },
        {
            "_id": "RMjFs8UpifF2ce9E",
            "collection": "sf2e.equipment-srd",
            "drawn": false,
            "flags": {},
            "img": "systems/sf2e/icons/equipment/worn-items/other-worn-items/ring-of-wizardry.webp",
            "range": [
                190,
                192
            ],
            "resultId": "2tSDgHfSkkaX4CA4",
            "text": "Ring of Wizardry (Type II)",
            "type": 2,
            "weight": 3
        },
        {
            "_id": "ae2DsfA6PVx9MojG",
            "collection": "sf2e.equipment-srd",
            "drawn": false,
            "flags": {},
            "img": "systems/sf2e/icons/equipment/worn-items/other-worn-items/winged-boots.webp",
            "range": [
                193,
                198
            ],
            "resultId": "aKoMqPDmVzPI7Q20",
            "text": "Winged Boots",
            "type": 2,
            "weight": 6
        }
    ]
}
