{
    "_id": "Ca7vD8PZtMPqVuHu",
    "description": "Table of 11th-Level Consumables Items",
    "displayRoll": true,
    "flags": {},
    "formula": "1d105",
    "img": "icons/svg/d20-grey.svg",
    "name": "11th-Level Consumables Items",
    "permission": {
        "default": 0
    },
    "replacement": true,
    "results": [
        {
            "_id": "mYq4p5qykRLe1Ok4",
            "collection": "sf2e.equipment-srd",
            "drawn": false,
            "flags": {},
            "img": "systems/sf2e/icons/equipment/consumables/ammunition/spellstrike-ammunition.webp",
            "range": [
                1,
                6
            ],
            "resultId": "XyrFcBF5ygIFFGes",
            "text": "Spellstrike Ammunition (Type V)",
            "type": 2,
            "weight": 6
        },
        {
            "_id": "QN2b9QvvhEhXYHss",
            "collection": "sf2e.equipment-srd",
            "drawn": false,
            "flags": {},
            "img": "systems/sf2e/icons/equipment/alchemical-items/alchemical-bombs/acid-flask.webp",
            "range": [
                7,
                12
            ],
            "resultId": "jC8GmH0Un6vDxdMj",
            "text": "Acid Flask (Greater)",
            "type": 2,
            "weight": 6
        },
        {
            "_id": "k455WZW8SCQLXbsv",
            "collection": "sf2e.equipment-srd",
            "drawn": false,
            "flags": {},
            "img": "systems/sf2e/icons/equipment/alchemical-items/alchemical-bombs/alchemists-fire.webp",
            "range": [
                13,
                18
            ],
            "resultId": "n5yTlTs63o53n3k6",
            "text": "Alchemist's Fire (Greater)",
            "type": 2,
            "weight": 6
        },
        {
            "_id": "aPbhuQl16Dn83HR8",
            "collection": "sf2e.equipment-srd",
            "drawn": false,
            "flags": {},
            "img": "systems/sf2e/icons/equipment/alchemical-items/alchemical-bombs/bottled-lightning.webp",
            "range": [
                19,
                24
            ],
            "resultId": "r2iTRbt1zpkAqHj2",
            "text": "Bottled Lightning (Greater)",
            "type": 2,
            "weight": 6
        },
        {
            "_id": "3EqXFbXhBaS3HemC",
            "collection": "sf2e.equipment-srd",
            "drawn": false,
            "flags": {},
            "img": "systems/sf2e/icons/equipment/alchemical-items/alchemical-bombs/frost-vial.webp",
            "range": [
                25,
                30
            ],
            "resultId": "intVPcEzbE9o4NQd",
            "text": "Frost Vial (Greater)",
            "type": 2,
            "weight": 6
        },
        {
            "_id": "zz0eL7k3QNTKNXc3",
            "collection": "sf2e.equipment-srd",
            "drawn": false,
            "flags": {},
            "img": "systems/sf2e/icons/equipment/alchemical-items/alchemical-bombs/tanglefoot-bag.webp",
            "range": [
                31,
                36
            ],
            "resultId": "5Qkz4RVJr2Kx3RL6",
            "text": "Tanglefoot Bag (Greater)",
            "type": 2,
            "weight": 6
        },
        {
            "_id": "lLzSpPUauPOj4sfl",
            "collection": "sf2e.equipment-srd",
            "drawn": false,
            "flags": {},
            "img": "systems/sf2e/icons/equipment/alchemical-items/alchemical-bombs/thunderstone.webp",
            "range": [
                37,
                42
            ],
            "resultId": "dsMkvuLgpOOGLWDy",
            "text": "Thunderstone (Greater)",
            "type": 2,
            "weight": 6
        },
        {
            "_id": "HpyqvpBDM6D2jUC6",
            "collection": "sf2e.equipment-srd",
            "drawn": false,
            "flags": {},
            "img": "systems/sf2e/icons/equipment/alchemical-items/alchemical-elixirs/bestial-mutagen.webp",
            "range": [
                43,
                48
            ],
            "resultId": "gDheph8YteBtnyKp",
            "text": "Bestial Mutagen (Greater)",
            "type": 2,
            "weight": 6
        },
        {
            "_id": "bqsJMu7IB225fTYz",
            "collection": "sf2e.equipment-srd",
            "drawn": false,
            "flags": {},
            "img": "systems/sf2e/icons/equipment/alchemical-items/alchemical-elixirs/cognitive-mutagen.webp",
            "range": [
                49,
                54
            ],
            "resultId": "ZGojRKG1yYiVWemR",
            "text": "Cognitive Mutagen (Greater)",
            "type": 2,
            "weight": 6
        },
        {
            "_id": "kQTbzpAKyDIdb9PY",
            "collection": "sf2e.equipment-srd",
            "drawn": false,
            "flags": {},
            "img": "systems/sf2e/icons/equipment/alchemical-items/alchemical-elixirs/juggernaut-mutagen.webp",
            "range": [
                55,
                60
            ],
            "resultId": "TMtQnY6yvIRCpK9v",
            "text": "Juggernaut Mutagen (Greater)",
            "type": 2,
            "weight": 6
        },
        {
            "_id": "11E6i8082Hr9VbAI",
            "collection": "sf2e.equipment-srd",
            "drawn": false,
            "flags": {},
            "img": "systems/sf2e/icons/equipment/alchemical-items/alchemical-elixirs/quicksilver-mutagen.webp",
            "range": [
                61,
                66
            ],
            "resultId": "eQDTsetadI8u8Kc0",
            "text": "Quicksilver Mutagen (Greater)",
            "type": 2,
            "weight": 6
        },
        {
            "_id": "6kQzn5rLnCNXBS9Q",
            "collection": "sf2e.equipment-srd",
            "drawn": false,
            "flags": {},
            "img": "systems/sf2e/icons/equipment/alchemical-items/alchemical-elixirs/serene-mutagen.webp",
            "range": [
                67,
                72
            ],
            "resultId": "Yej7lnnDYDZybGqo",
            "text": "Serene Mutagen (Greater)",
            "type": 2,
            "weight": 6
        },
        {
            "_id": "VGGQXPWdzG59Nm30",
            "collection": "sf2e.equipment-srd",
            "drawn": false,
            "flags": {},
            "img": "systems/sf2e/icons/equipment/alchemical-items/alchemical-elixirs/silvertongue-mutagen.webp",
            "range": [
                73,
                78
            ],
            "resultId": "uggpIk6vguWFXVli",
            "text": "Silvertongue Mutagen (Greater)",
            "type": 2,
            "weight": 6
        },
        {
            "_id": "nTEs6YU02ad96T98",
            "collection": "sf2e.equipment-srd",
            "drawn": false,
            "flags": {},
            "img": "systems/sf2e/icons/equipment/consumables/oils/oil-of-keen-edges.webp",
            "range": [
                79,
                81
            ],
            "resultId": "1DHjXJEdJ7GlGSzg",
            "text": "Oil of Keen Edges",
            "type": 2,
            "weight": 3
        },
        {
            "_id": "lPrbQ84yWjWIgUxi",
            "collection": "sf2e.equipment-srd",
            "drawn": false,
            "flags": {},
            "img": "systems/sf2e/icons/equipment/consumables/oils/oil-of-repulsion.webp",
            "range": [
                82,
                87
            ],
            "resultId": "IZRfgOYlZ3HRBkYX",
            "text": "Oil of Repulsion",
            "type": 2,
            "weight": 6
        },
        {
            "_id": "2lOvcOhgIjutlg6N",
            "collection": "sf2e.equipment-srd",
            "drawn": false,
            "flags": {},
            "img": "systems/sf2e/icons/equipment/alchemical-items/alchemical-poisons/blightburn-resin.webp",
            "range": [
                88,
                93
            ],
            "resultId": "Cc4SokzVBoBCkHId",
            "text": "Blightburn Resin",
            "type": 2,
            "weight": 6
        },
        {
            "_id": "UgTNCT92Sg8Bz3LO",
            "collection": "sf2e.equipment-srd",
            "drawn": false,
            "flags": {},
            "img": "systems/sf2e/icons/equipment/consumables/potions/potion-of-swimming.webp",
            "range": [
                94,
                99
            ],
            "resultId": "OMJgFmy3jut79Iaj",
            "text": "Potion of Swimming (Greater)",
            "type": 2,
            "weight": 6
        },
        {
            "_id": "K9q0NL8Xd4NGji43",
            "collection": "sf2e.equipment-srd",
            "drawn": false,
            "flags": {},
            "img": "systems/sf2e/icons/equipment/consumables/other-consumables/spell-scroll.webp",
            "range": [
                100,
                105
            ],
            "resultId": "4sGIy77COooxhQuC",
            "text": "Scroll of 6th-level Spell",
            "type": 2,
            "weight": 6
        }
    ]
}
