{
    "_id": "eo7kjM8xv6KD5h5q",
    "description": "Table of 13th-Level Permanent Items",
    "displayRoll": true,
    "flags": {},
    "formula": "1d108",
    "img": "icons/svg/d20-grey.svg",
    "name": "13th-Level Permanent Items",
    "permission": {
        "default": 0
    },
    "replacement": true,
    "results": [
        {
            "_id": "mYq4p5qykRLe1Ok4",
            "collection": "sf2e.equipment-srd",
            "drawn": false,
            "flags": {},
            "img": "systems/sf2e/icons/equipment/armor/specific-magic-armor/celestial-armor.webp",
            "range": [
                1,
                6
            ],
            "resultId": "2uHcTZ40oZ62R9gy",
            "text": "Celestial Armor",
            "type": 2,
            "weight": 6
        },
        {
            "_id": "QN2b9QvvhEhXYHss",
            "collection": "sf2e.equipment-srd",
            "drawn": false,
            "flags": {},
            "img": "systems/sf2e/icons/equipment/armor/specific-magic-armor/demon-armor.webp",
            "range": [
                7,
                12
            ],
            "resultId": "hYBZK1kaGPeR85CH",
            "text": "Demon Armor",
            "type": 2,
            "weight": 6
        },
        {
            "_id": "k455WZW8SCQLXbsv",
            "collection": "sf2e.equipment-srd",
            "drawn": false,
            "flags": {},
            "img": "systems/sf2e/icons/equipment/armor/precious-metal-armor/elven-chain.webp",
            "range": [
                13,
                15
            ],
            "resultId": "peAvz7u35GEfTXxp",
            "text": "Elven Chain (Standard-Grade)",
            "type": 2,
            "weight": 3
        },
        {
            "_id": "aPbhuQl16Dn83HR8",
            "collection": "sf2e.equipment-srd",
            "drawn": false,
            "flags": {},
            "img": "systems/sf2e/icons/equipment/armor/specific-magic-armor/mail-of-luck.webp",
            "range": [
                16,
                21
            ],
            "resultId": "AdJgj7vVvNGvPIEj",
            "text": "Mail of Luck",
            "type": 2,
            "weight": 6
        },
        {
            "_id": "oLZsd9xeniDUB97N",
            "collection": "sf2e.equipment-srd",
            "drawn": false,
            "flags": {},
            "img": "systems/sf2e/icons/equipment/held-items/bag-of-holding.webp",
            "range": [
                22,
                27
            ],
            "resultId": "34DA4rFy7bduRAld",
            "text": "Bag of Holding (Type IV)",
            "type": 2,
            "weight": 6
        },
        {
            "_id": "zz0eL7k3QNTKNXc3",
            "collection": "sf2e.equipment-srd",
            "drawn": false,
            "flags": {},
            "img": "systems/sf2e/icons/equipment/held-items/wondrous-figurine-marble-elephant.webp",
            "range": [
                28,
                33
            ],
            "resultId": "TXPQfQriNJqMYcfp",
            "text": "Wondrous Figurine (Marble Elephant)",
            "type": 2,
            "weight": 6
        },
        {
            "_id": "HpyqvpBDM6D2jUC6",
            "collection": "sf2e.equipment-srd",
            "drawn": false,
            "flags": {},
            "img": "systems/sf2e/icons/equipment/runes/weapon-property-runes/weapon-property-runes.webp",
            "range": [
                34,
                36
            ],
            "resultId": "DCPsilr8wbPXxTUv",
            "text": "Dancing",
            "type": 2,
            "weight": 3
        },
        {
            "_id": "bqsJMu7IB225fTYz",
            "collection": "sf2e.equipment-srd",
            "drawn": false,
            "flags": {},
            "img": "systems/sf2e/icons/equipment/runes/weapon-property-runes/weapon-property-runes.webp",
            "range": [
                37,
                39
            ],
            "resultId": "hg3IogR8ue2IWwgS",
            "text": "Keen",
            "type": 2,
            "weight": 3
        },
        {
            "_id": "kQTbzpAKyDIdb9PY",
            "collection": "sf2e.equipment-srd",
            "drawn": false,
            "flags": {},
            "img": "systems/sf2e/icons/equipment/runes/weapon-property-runes/weapon-property-runes.webp",
            "range": [
                40,
                42
            ],
            "resultId": "payq4TwkN2BRF6fs",
            "text": "Spell-Storing",
            "type": 2,
            "weight": 3
        },
        {
            "_id": "11E6i8082Hr9VbAI",
            "collection": "sf2e.equipment-srd",
            "drawn": false,
            "flags": {},
            "img": "systems/sf2e/icons/equipment/shields/specific-shields/sturdy-shield.webp",
            "range": [
                43,
                48
            ],
            "resultId": "rrnWORxT2Ch4pUFb",
            "text": "Sturdy Shield (Greater)",
            "type": 2,
            "weight": 6
        },
        {
            "_id": "vQq7Hy7Dx1a8GCHZ",
            "collection": "sf2e.equipment-srd",
            "drawn": false,
            "flags": {},
            "img": "systems/sf2e/icons/equipment/wands/magic-wands/magic-wand.webp",
            "range": [
                49,
                54
            ],
            "resultId": "kiXh4SUWKr166ZeM",
            "text": "Magic Wand (6th-Level Spell)",
            "type": 2,
            "weight": 6
        },
        {
            "_id": "dwXrm0DZwZ0Vtpyl",
            "collection": "sf2e.equipment-srd",
            "drawn": false,
            "flags": {},
            "img": "systems/sf2e/icons/equipment/wands/specialty-wands/wand-of-continuation.webp",
            "range": [
                55,
                60
            ],
            "resultId": "tDEi3zLVpxwA74qz",
            "text": "Wand of Continuation (5th-Level Spell)",
            "type": 2,
            "weight": 6
        },
        {
            "_id": "ViMk7CeQzvGeYUrC",
            "collection": "sf2e.equipment-srd",
            "drawn": false,
            "flags": {},
            "img": "systems/sf2e/icons/equipment/wands/specialty-wands/wand-of-manifold-missiles.webp",
            "range": [
                61,
                66
            ],
            "resultId": "y6if8e8OB3RUywF8",
            "text": "Wand of Manifold Missiles (5th-Level Spell)",
            "type": 2,
            "weight": 6
        },
        {
            "_id": "o3gZ97kIi4lo11BY",
            "collection": "sf2e.equipment-srd",
            "drawn": false,
            "flags": {},
            "img": "systems/sf2e/icons/equipment/weapons/specific-magic-weapons/dwarven-thrower.webp",
            "range": [
                67,
                72
            ],
            "resultId": "XK4DM8wOtcuOsji6",
            "text": "Dwarven Thrower",
            "type": 2,
            "weight": 6
        },
        {
            "_id": "OtH5vWwuqo4ICMuF",
            "collection": "sf2e.equipment-srd",
            "drawn": false,
            "flags": {},
            "img": "systems/sf2e/icons/equipment/weapons/specific-magic-weapons/flame-tongue.webp",
            "range": [
                73,
                78
            ],
            "resultId": "G3a60Ug3YNCMyMVR",
            "text": "Flame Tongue",
            "type": 2,
            "weight": 6
        },
        {
            "_id": "TbqN7piUhgo0OfAf",
            "collection": "sf2e.equipment-srd",
            "drawn": false,
            "flags": {},
            "img": "systems/sf2e/icons/equipment/worn-items/other-worn-items/aeon-stone-pale-lavender-ellipsoid.webp",
            "range": [
                79,
                81
            ],
            "resultId": "B4R0LK8bgw0Vjtf0",
            "text": "Aeon Stone (Pale Lavender Ellipsoid)",
            "type": 2,
            "weight": 3
        },
        {
            "_id": "l9CD8GKGvhWX8hAA",
            "collection": "sf2e.equipment-srd",
            "drawn": false,
            "flags": {},
            "img": "systems/sf2e/icons/equipment/worn-items/other-worn-items/boots-of-speed.webp",
            "range": [
                82,
                87
            ],
            "resultId": "Ck5k13uTNqibLFJk",
            "text": "Boots of Speed",
            "type": 2,
            "weight": 6
        },
        {
            "_id": "t5t1wLQE2o2FC0iI",
            "collection": "sf2e.equipment-srd",
            "drawn": false,
            "flags": {},
            "img": "systems/sf2e/icons/equipment/worn-items/other-worn-items/eye-of-fortune.webp",
            "range": [
                88,
                93
            ],
            "resultId": "lKMSAlp0ZoFUK4FV",
            "text": "Eye of Fortune",
            "type": 2,
            "weight": 6
        },
        {
            "_id": "SaGLwztjSNglsrzf",
            "collection": "sf2e.equipment-srd",
            "drawn": false,
            "flags": {},
            "img": "systems/sf2e/icons/equipment/worn-items/other-worn-items/knapsack-of-halflingkind.webp",
            "range": [
                94,
                96
            ],
            "resultId": "9cK0QVSjNd8tQtiQ",
            "text": "Knapsack of Halflingkind (Greater)",
            "type": 2,
            "weight": 3
        },
        {
            "_id": "vHNOIhldCiAlVI37",
            "collection": "sf2e.equipment-srd",
            "drawn": false,
            "flags": {},
            "img": "systems/sf2e/icons/equipment/cursed-items/necklace-of-strangulation.webp",
            "range": [
                97,
                102
            ],
            "resultId": "hDO0vRS8r9K2Zw87",
            "text": "Necklace of Fireballs V",
            "type": 2,
            "weight": 6
        },
        {
            "_id": "ND9f91U4mIQQpsxt",
            "collection": "sf2e.equipment-srd",
            "drawn": false,
            "flags": {},
            "img": "systems/sf2e/icons/equipment/worn-items/other-worn-items/ring-of-the-ram.webp",
            "range": [
                103,
                108
            ],
            "resultId": "oSltacqbeotmzLNJ",
            "text": "Ring of the Ram (Greater)",
            "type": 2,
            "weight": 6
        }
    ]
}
