{
    "_id": "gkdB45QC0u1WeiRA",
    "description": "Table of 19th-Level Permanent Items",
    "displayRoll": true,
    "flags": {},
    "formula": "1d73",
    "img": "icons/svg/d20-grey.svg",
    "name": "19th-Level Permanent Items",
    "permission": {
        "default": 0
    },
    "replacement": true,
    "results": [
        {
            "_id": "YShK0NwrjdIm64Mo",
            "drawn": false,
            "flags": {},
            "img": "icons/svg/d20-black.svg",
            "range": [
                1,
                3
            ],
            "resultId": "",
            "text": "Adamantine Armor, High-Grade",
            "type": 0,
            "weight": 3
        },
        {
            "_id": "lHyWiON0vciepWpd",
            "drawn": false,
            "flags": {},
            "img": "icons/svg/d20-black.svg",
            "range": [
                4,
                6
            ],
            "resultId": "",
            "text": "Darkwood Armor, High-Grade",
            "type": 0,
            "weight": 3
        },
        {
            "_id": "zKju5tDqHPChquUe",
            "drawn": false,
            "flags": {},
            "img": "icons/svg/d20-black.svg",
            "range": [
                7,
                9
            ],
            "resultId": "",
            "text": "Dragonhide Armor, High Grade",
            "type": 0,
            "weight": 3
        },
        {
            "_id": "qxzQgU4OuEyT8GNx",
            "drawn": false,
            "flags": {},
            "img": "icons/svg/d20-black.svg",
            "range": [
                10,
                12
            ],
            "resultId": "",
            "text": "Mithral Armor, High Grade",
            "type": 0,
            "weight": 3
        },
        {
            "_id": "fvoXiNzvY6KsLdcR",
            "collection": "sf2e.equipment-srd",
            "drawn": false,
            "flags": {},
            "img": "systems/sf2e/icons/equipment/held-items/crystal-ball-obsidian.webp",
            "range": [
                13,
                15
            ],
            "resultId": "WKdI4LbwgcNHhMdp",
            "text": "Crystal Ball (Obsidian)",
            "type": 2,
            "weight": 3
        },
        {
            "_id": "PUtEP2B8WFVzvMS0",
            "collection": "sf2e.equipment-srd",
            "drawn": false,
            "flags": {},
            "img": "systems/sf2e/icons/equipment/runes/fundamental-weapon-runes/striking.webp",
            "range": [
                16,
                21
            ],
            "resultId": "woxl2FrrgAcJDu0t",
            "text": "Striking (Major)",
            "type": 2,
            "weight": 6
        },
        {
            "_id": "dLNZ5k0DdnGSn6n9",
            "collection": "sf2e.equipment-srd",
            "drawn": false,
            "flags": {},
            "img": "systems/sf2e/icons/equipment/shields/specific-shields/sturdy-shield.webp",
            "range": [
                22,
                27
            ],
            "resultId": "7Z8XXGiUiyyisKOD",
            "text": "Sturdy Shield (Supreme)",
            "type": 2,
            "weight": 6
        },
        {
            "_id": "SKFga5QL7ZxKwAP7",
            "collection": "sf2e.equipment-srd",
            "drawn": false,
            "flags": {},
            "img": "systems/sf2e/icons/equipment/wands/magic-wands/magic-wand.webp",
            "range": [
                28,
                33
            ],
            "resultId": "Fgv722039TVM5JTc",
            "text": "Magic Wand (9th-Level Spell)",
            "type": 2,
            "weight": 6
        },
        {
            "_id": "236RC2vAYxTJBTrV",
            "collection": "sf2e.equipment-srd",
            "drawn": false,
            "flags": {},
            "img": "systems/sf2e/icons/equipment/wands/specialty-wands/wand-of-continuation.webp",
            "range": [
                34,
                39
            ],
            "resultId": "KMqHzKfpPq5H8GOo",
            "text": "Wand of Continuation (8th-Level Spell)",
            "type": 2,
            "weight": 6
        },
        {
            "_id": "KB7hXBtubEEcpJL2",
            "drawn": false,
            "flags": {},
            "img": "icons/svg/d20-black.svg",
            "range": [
                40,
                45
            ],
            "resultId": "",
            "text": "+3 major striking weapon",
            "type": 0,
            "weight": 6
        },
        {
            "_id": "9N4lgILguVKOWwcY",
            "collection": "sf2e.equipment-srd",
            "drawn": false,
            "flags": {},
            "img": "systems/sf2e/icons/equipment/weapons/specific-magic-weapons/luck-blade.webp",
            "range": [
                46,
                46
            ],
            "resultId": "C3vAFRWoeGbMQTAH",
            "text": "Luck Blade (Wishing)",
            "type": 2,
            "weight": 1
        },
        {
            "_id": "5Zg0JRCzTszoJgvK",
            "collection": "sf2e.equipment-srd",
            "drawn": false,
            "flags": {},
            "img": "systems/sf2e/icons/equipment/weapons/specific-magic-weapons/mattock-of-the-titans.webp",
            "range": [
                47,
                49
            ],
            "resultId": "WCWdJmR5tYO7Aulb",
            "text": "Mattock of the Titans",
            "type": 2,
            "weight": 3
        },
        {
            "_id": "FQaObQK9vKZnhd2h",
            "drawn": false,
            "flags": {},
            "img": "icons/svg/d20-black.svg",
            "range": [
                50,
                55
            ],
            "resultId": "",
            "text": "+3 major striking Handwraps of Mighty Blows",
            "type": 0,
            "weight": 6
        },
        {
            "_id": "Dpb0pw94Yh4NqM0i",
            "collection": "sf2e.equipment-srd",
            "drawn": false,
            "flags": {},
            "img": "systems/sf2e/icons/equipment/worn-items/other-worn-items/aeon-stone-lavender-and-green-ellipsoid.webp",
            "range": [
                56,
                58
            ],
            "resultId": "5sMAAIymln2yIl4q",
            "text": "Aeon Stone (Lavender and Green Ellipsoid)",
            "type": 2,
            "weight": 3
        },
        {
            "_id": "Jh3L4Ekk9LmKEDmp",
            "collection": "sf2e.equipment-srd",
            "drawn": false,
            "flags": {},
            "img": "systems/sf2e/icons/equipment/worn-items/other-worn-items/berserkers-cloak.webp",
            "range": [
                59,
                64
            ],
            "resultId": "OGKI8NS8Er3qumJS",
            "text": "Berserker's Cloak (Greater)",
            "type": 2,
            "weight": 6
        },
        {
            "_id": "pCbqR8YdQ2808w29",
            "collection": "sf2e.equipment-srd",
            "drawn": false,
            "flags": {},
            "img": "systems/sf2e/icons/equipment/worn-items/other-worn-items/robe-of-the-archmagi.webp",
            "range": [
                65,
                67
            ],
            "resultId": "7ynjS9llFg7tPMoj",
            "text": "Robe of the Archmagi (Greater)",
            "type": 2,
            "weight": 3
        },
        {
            "_id": "scjG7V8r7BWxtB2a",
            "collection": "sf2e.equipment-srd",
            "drawn": false,
            "flags": {},
            "img": "systems/sf2e/icons/equipment/worn-items/other-worn-items/third-eye.webp",
            "range": [
                68,
                73
            ],
            "resultId": "7MTjAlCVVLsNFo7w",
            "text": "Third Eye",
            "type": 2,
            "weight": 6
        }
    ]
}
