{
    "_id": "FTEpsIWWVrDj0jNG",
    "description": "Table for Critical Hit Cards",
    "displayRoll": false,
    "flags": {},
    "formula": "1d54",
    "name": "Critical Hit Deck",
    "permission": {
        "default": 0
    },
    "replacement": true,
    "results": [
        {
            "_id": "pg6XLC1RN5Bu2I7E",
            "collection": "sf2e.criticaldeck",
            "drawn": false,
            "flags": {},
            "img": "icons/svg/d20-black.svg",
            "range": [
                1,
                1
            ],
            "resultId": "e9imRGVLbIWYVUXf",
            "text": "Critical Hit Deck #1",
            "type": 2,
            "weight": 1
        },
        {
            "_id": "2Zzvh9b3YVbNQwpV",
            "collection": "sf2e.criticaldeck",
            "drawn": false,
            "flags": {},
            "img": "icons/svg/d20-black.svg",
            "range": [
                2,
                2
            ],
            "resultId": "rLNl2PdawSadogJd",
            "text": "Critical Hit Deck #2",
            "type": 2,
            "weight": 1
        },
        {
            "_id": "wpvv6z1XnWnV07XN",
            "collection": "sf2e.criticaldeck",
            "drawn": false,
            "flags": {},
            "img": "icons/svg/d20-black.svg",
            "range": [
                3,
                3
            ],
            "resultId": "qOmgdhhShYp4vlfi",
            "text": "Critical Hit Deck #3",
            "type": 2,
            "weight": 1
        },
        {
            "_id": "3BrYzoYTVmK42qsb",
            "collection": "sf2e.criticaldeck",
            "drawn": false,
            "flags": {},
            "img": "icons/svg/d20-black.svg",
            "range": [
                4,
                4
            ],
            "resultId": "bzIzGjyNUc52lhCS",
            "text": "Critical Hit Deck #4",
            "type": 2,
            "weight": 1
        },
        {
            "_id": "ukK9zhdr65FQsW0P",
            "collection": "sf2e.criticaldeck",
            "drawn": false,
            "flags": {},
            "img": "icons/svg/d20-black.svg",
            "range": [
                5,
                5
            ],
            "resultId": "vXPWnWa7B1qsrOMa",
            "text": "Critical Hit Deck #5",
            "type": 2,
            "weight": 1
        },
        {
            "_id": "FspEy3qYEBxciEP7",
            "collection": "sf2e.criticaldeck",
            "drawn": false,
            "flags": {},
            "img": "icons/svg/d20-black.svg",
            "range": [
                6,
                6
            ],
            "resultId": "maXudTqcDiAj86Ym",
            "text": "Critical Hit Deck #6",
            "type": 2,
            "weight": 1
        },
        {
            "_id": "UueuMUSNaofIHfFP",
            "collection": "sf2e.criticaldeck",
            "drawn": false,
            "flags": {},
            "img": "icons/svg/d20-black.svg",
            "range": [
                7,
                7
            ],
            "resultId": "pjR0QGXE58oWS8uU",
            "text": "Critical Hit Deck #7",
            "type": 2,
            "weight": 1
        },
        {
            "_id": "wjYCAKHUwuhzvPqO",
            "collection": "sf2e.criticaldeck",
            "drawn": false,
            "flags": {},
            "img": "icons/svg/d20-black.svg",
            "range": [
                8,
                8
            ],
            "resultId": "iZYZTEtihsVkbRKR",
            "text": "Critical Hit Deck #8",
            "type": 2,
            "weight": 1
        },
        {
            "_id": "xnbOAQE6TJlzfoQA",
            "collection": "sf2e.criticaldeck",
            "drawn": false,
            "flags": {},
            "img": "icons/svg/d20-black.svg",
            "range": [
                9,
                9
            ],
            "resultId": "gdYlgrtfGK8mAoXK",
            "text": "Critical Hit Deck #9",
            "type": 2,
            "weight": 1
        },
        {
            "_id": "UnaFeqCa8Kaopj8Q",
            "collection": "sf2e.criticaldeck",
            "drawn": false,
            "flags": {},
            "img": "icons/svg/d20-black.svg",
            "range": [
                10,
                10
            ],
            "resultId": "lXew3cZFdIYM3NJs",
            "text": "Critical Hit Deck #10",
            "type": 2,
            "weight": 1
        },
        {
            "_id": "HGmp1b7iJL93Vlbv",
            "collection": "sf2e.criticaldeck",
            "drawn": false,
            "flags": {},
            "img": "icons/svg/d20-black.svg",
            "range": [
                11,
                11
            ],
            "resultId": "vCvtsUB6C6PEdvog",
            "text": "Critical Hit Deck #11",
            "type": 2,
            "weight": 1
        },
        {
            "_id": "xbiqItzteasrWpWz",
            "collection": "sf2e.criticaldeck",
            "drawn": false,
            "flags": {},
            "img": "icons/svg/d20-black.svg",
            "range": [
                12,
                12
            ],
            "resultId": "A0gsgMjgDpkOXtYp",
            "text": "Critical Hit Deck #12",
            "type": 2,
            "weight": 1
        },
        {
            "_id": "3oD0tglGrbt0BFT9",
            "collection": "sf2e.criticaldeck",
            "drawn": false,
            "flags": {},
            "img": "icons/svg/d20-black.svg",
            "range": [
                13,
                13
            ],
            "resultId": "Y4J49n6WFOEXwaf2",
            "text": "Critical Hit Deck #13",
            "type": 2,
            "weight": 1
        },
        {
            "_id": "w9nI5aQpwrQHcs7A",
            "collection": "sf2e.criticaldeck",
            "drawn": false,
            "flags": {},
            "img": "icons/svg/d20-black.svg",
            "range": [
                14,
                14
            ],
            "resultId": "JfnvVoWqEHN1ymd5",
            "text": "Critical Hit Deck #14",
            "type": 2,
            "weight": 1
        },
        {
            "_id": "9EyTrls3GTwi924m",
            "collection": "sf2e.criticaldeck",
            "drawn": false,
            "flags": {},
            "img": "icons/svg/d20-black.svg",
            "range": [
                15,
                15
            ],
            "resultId": "FHnfWQKntBkZJk6G",
            "text": "Critical Hit Deck #15",
            "type": 2,
            "weight": 1
        },
        {
            "_id": "n1oHdiR8cNyaWTEC",
            "collection": "sf2e.criticaldeck",
            "drawn": false,
            "flags": {},
            "img": "icons/svg/d20-black.svg",
            "range": [
                16,
                16
            ],
            "resultId": "wemXkXGY7sl0tUQR",
            "text": "Critical Hit Deck #16",
            "type": 2,
            "weight": 1
        },
        {
            "_id": "EksGwoztx0CB6WCh",
            "collection": "sf2e.criticaldeck",
            "drawn": false,
            "flags": {},
            "img": "icons/svg/d20-black.svg",
            "range": [
                17,
                17
            ],
            "resultId": "EaNgK8fG3Fur9uzp",
            "text": "Critical Hit Deck #17",
            "type": 2,
            "weight": 1
        },
        {
            "_id": "4ouZNvOQXeZDtK57",
            "collection": "sf2e.criticaldeck",
            "drawn": false,
            "flags": {},
            "img": "icons/svg/d20-black.svg",
            "range": [
                18,
                18
            ],
            "resultId": "2CCPMTk5DlZslpOp",
            "text": "Critical Hit Deck #18",
            "type": 2,
            "weight": 1
        },
        {
            "_id": "KFZyl6MVIwZNjejM",
            "collection": "sf2e.criticaldeck",
            "drawn": false,
            "flags": {},
            "img": "icons/svg/d20-black.svg",
            "range": [
                19,
                19
            ],
            "resultId": "klZe3T5N3T79oQvN",
            "text": "Critical Hit Deck #19",
            "type": 2,
            "weight": 1
        },
        {
            "_id": "T3UAYtYO2TozRKxY",
            "collection": "sf2e.criticaldeck",
            "drawn": false,
            "flags": {},
            "img": "icons/svg/d20-black.svg",
            "range": [
                20,
                20
            ],
            "resultId": "nSU4nBU3fBTvb2k3",
            "text": "Critical Hit Deck #20",
            "type": 2,
            "weight": 1
        },
        {
            "_id": "u6iFUNzAKsZ1ijta",
            "collection": "sf2e.criticaldeck",
            "drawn": false,
            "flags": {},
            "img": "icons/svg/d20-black.svg",
            "range": [
                21,
                21
            ],
            "resultId": "8OoQs1TeJBW5UVby",
            "text": "Critical Hit Deck #21",
            "type": 2,
            "weight": 1
        },
        {
            "_id": "Rg713wztqGxpJnR5",
            "collection": "sf2e.criticaldeck",
            "drawn": false,
            "flags": {},
            "img": "icons/svg/d20-black.svg",
            "range": [
                22,
                22
            ],
            "resultId": "wHwwHq9RcOUvwFeB",
            "text": "Critical Hit Deck #22",
            "type": 2,
            "weight": 1
        },
        {
            "_id": "i5MymnkjotVaGqSV",
            "collection": "sf2e.criticaldeck",
            "drawn": false,
            "flags": {},
            "img": "icons/svg/d20-black.svg",
            "range": [
                23,
                23
            ],
            "resultId": "pzk8lcb4ykgtn97D",
            "text": "Critical Hit Deck #23",
            "type": 2,
            "weight": 1
        },
        {
            "_id": "A7PylfXSpN1Jyd0k",
            "collection": "sf2e.criticaldeck",
            "drawn": false,
            "flags": {},
            "img": "icons/svg/d20-black.svg",
            "range": [
                24,
                24
            ],
            "resultId": "kvQc6aNvJaBH6rEC",
            "text": "Critical Hit Deck #24",
            "type": 2,
            "weight": 1
        },
        {
            "_id": "qLfNag1NEAZeTJJz",
            "collection": "sf2e.criticaldeck",
            "drawn": false,
            "flags": {},
            "img": "icons/svg/d20-black.svg",
            "range": [
                25,
                25
            ],
            "resultId": "cY3fpFYpmsUK9kKb",
            "text": "Critical Hit Deck #25",
            "type": 2,
            "weight": 1
        },
        {
            "_id": "4E43dNxtCnogmT5Y",
            "collection": "sf2e.criticaldeck",
            "drawn": false,
            "flags": {},
            "img": "icons/svg/d20-black.svg",
            "range": [
                26,
                26
            ],
            "resultId": "unEu0FFXZfTtvF2b",
            "text": "Critical Hit Deck #26",
            "type": 2,
            "weight": 1
        },
        {
            "_id": "pusiPKJ1bl0lG4aD",
            "collection": "sf2e.criticaldeck",
            "drawn": false,
            "flags": {},
            "img": "icons/svg/d20-black.svg",
            "range": [
                27,
                27
            ],
            "resultId": "BgI1SePPP5QW9wSQ",
            "text": "Critical Hit Deck #27",
            "type": 2,
            "weight": 1
        },
        {
            "_id": "7qfUvS1wux7V0oK6",
            "collection": "sf2e.criticaldeck",
            "drawn": false,
            "flags": {},
            "img": "icons/svg/d20-black.svg",
            "range": [
                28,
                28
            ],
            "resultId": "eVEZLDyvu2tqiYZn",
            "text": "Critical Hit Deck #28",
            "type": 2,
            "weight": 1
        },
        {
            "_id": "odIPT0DT43VOpRq1",
            "collection": "sf2e.criticaldeck",
            "drawn": false,
            "flags": {},
            "img": "icons/svg/d20-black.svg",
            "range": [
                29,
                29
            ],
            "resultId": "1urnmEt4sn4ATDRL",
            "text": "Critical Hit Deck #29",
            "type": 2,
            "weight": 1
        },
        {
            "_id": "43NggsYTFDA4nMm8",
            "collection": "sf2e.criticaldeck",
            "drawn": false,
            "flags": {},
            "img": "icons/svg/d20-black.svg",
            "range": [
                30,
                30
            ],
            "resultId": "y4EgjWn5MDIQC7JR",
            "text": "Critical Hit Deck #30",
            "type": 2,
            "weight": 1
        },
        {
            "_id": "CDAOUqD6CI8Hs254",
            "collection": "sf2e.criticaldeck",
            "drawn": false,
            "flags": {},
            "img": "icons/svg/d20-black.svg",
            "range": [
                31,
                31
            ],
            "resultId": "x4850Hq18S9qYGed",
            "text": "Critical Hit Deck #31",
            "type": 2,
            "weight": 1
        },
        {
            "_id": "7P9JbQmPw1khmiEx",
            "collection": "sf2e.criticaldeck",
            "drawn": false,
            "flags": {},
            "img": "icons/svg/d20-black.svg",
            "range": [
                32,
                32
            ],
            "resultId": "ivko8YN075ThpNsb",
            "text": "Critical Hit Deck #32",
            "type": 2,
            "weight": 1
        },
        {
            "_id": "HUGm9Pzz4WWLMhdb",
            "collection": "sf2e.criticaldeck",
            "drawn": false,
            "flags": {},
            "img": "icons/svg/d20-black.svg",
            "range": [
                33,
                33
            ],
            "resultId": "XhX99wCRrwB1JFnl",
            "text": "Critical Hit Deck #33",
            "type": 2,
            "weight": 1
        },
        {
            "_id": "xFEZwampt9TeYL4T",
            "collection": "sf2e.criticaldeck",
            "drawn": false,
            "flags": {},
            "img": "icons/svg/d20-black.svg",
            "range": [
                34,
                34
            ],
            "resultId": "OvQYM50fG50aOHfR",
            "text": "Critical Hit Deck #34",
            "type": 2,
            "weight": 1
        },
        {
            "_id": "e7EcGGBNMnh1zwCU",
            "collection": "sf2e.criticaldeck",
            "drawn": false,
            "flags": {},
            "img": "icons/svg/d20-black.svg",
            "range": [
                35,
                35
            ],
            "resultId": "1xTQ3C9aySvCCPXw",
            "text": "Critical Hit Deck #35",
            "type": 2,
            "weight": 1
        },
        {
            "_id": "goOPRHJbY6K1qaju",
            "collection": "sf2e.criticaldeck",
            "drawn": false,
            "flags": {},
            "img": "icons/svg/d20-black.svg",
            "range": [
                36,
                36
            ],
            "resultId": "dCiYhvB488kKvpO0",
            "text": "Critical Hit Deck #36",
            "type": 2,
            "weight": 1
        },
        {
            "_id": "hqcVve3jHuvGo2rV",
            "collection": "sf2e.criticaldeck",
            "drawn": false,
            "flags": {},
            "img": "icons/svg/d20-black.svg",
            "range": [
                37,
                37
            ],
            "resultId": "Rkv1BGGapMuMyMHs",
            "text": "Critical Hit Deck #37",
            "type": 2,
            "weight": 1
        },
        {
            "_id": "7xnx1IZhfN2SAfgr",
            "collection": "sf2e.criticaldeck",
            "drawn": false,
            "flags": {},
            "img": "icons/svg/d20-black.svg",
            "range": [
                38,
                38
            ],
            "resultId": "lAPaa4MtkDZy6nZN",
            "text": "Critical Hit Deck #38",
            "type": 2,
            "weight": 1
        },
        {
            "_id": "c2Ywuu0XIt5aim2E",
            "collection": "sf2e.criticaldeck",
            "drawn": false,
            "flags": {},
            "img": "icons/svg/d20-black.svg",
            "range": [
                39,
                39
            ],
            "resultId": "SQAqU3m7BXHm8TGC",
            "text": "Critical Hit Deck #39",
            "type": 2,
            "weight": 1
        },
        {
            "_id": "VQcFEummbXdHKqA6",
            "collection": "sf2e.criticaldeck",
            "drawn": false,
            "flags": {},
            "img": "icons/svg/d20-black.svg",
            "range": [
                40,
                40
            ],
            "resultId": "7RcrHguk3riysqgZ",
            "text": "Critical Hit Deck #40",
            "type": 2,
            "weight": 1
        },
        {
            "_id": "zLjEcTrzCn8BS2fR",
            "collection": "sf2e.criticaldeck",
            "drawn": false,
            "flags": {},
            "img": "icons/svg/d20-black.svg",
            "range": [
                41,
                41
            ],
            "resultId": "nI9pM4SeM39SRVaR",
            "text": "Critical Hit Deck #41",
            "type": 2,
            "weight": 1
        },
        {
            "_id": "P5jDOEyZuEWgfDOr",
            "collection": "sf2e.criticaldeck",
            "drawn": false,
            "flags": {},
            "img": "icons/svg/d20-black.svg",
            "range": [
                42,
                42
            ],
            "resultId": "f1JjbSLpmPw5McIb",
            "text": "Critical Hit Deck #42",
            "type": 2,
            "weight": 1
        },
        {
            "_id": "YYIAWGRAqoTS9kYL",
            "collection": "sf2e.criticaldeck",
            "drawn": false,
            "flags": {},
            "img": "icons/svg/d20-black.svg",
            "range": [
                43,
                43
            ],
            "resultId": "EpWswZucGxXiLNyP",
            "text": "Critical Hit Deck #43",
            "type": 2,
            "weight": 1
        },
        {
            "_id": "iwc5BtWDsNkLwDAC",
            "collection": "sf2e.criticaldeck",
            "drawn": false,
            "flags": {},
            "img": "icons/svg/d20-black.svg",
            "range": [
                44,
                44
            ],
            "resultId": "v7aUL4DIk7lkw1EO",
            "text": "Critical Hit Deck #44",
            "type": 2,
            "weight": 1
        },
        {
            "_id": "Gav62XCez8hxYo60",
            "collection": "sf2e.criticaldeck",
            "drawn": false,
            "flags": {},
            "img": "icons/svg/d20-black.svg",
            "range": [
                45,
                45
            ],
            "resultId": "dP4Zy3ILcjWRx6ZO",
            "text": "Critical Hit Deck #45",
            "type": 2,
            "weight": 1
        },
        {
            "_id": "NQmThtVqG6gv50EW",
            "collection": "sf2e.criticaldeck",
            "drawn": false,
            "flags": {},
            "img": "icons/svg/d20-black.svg",
            "range": [
                46,
                46
            ],
            "resultId": "wCsoyffDxSWQ2c8o",
            "text": "Critical Hit Deck #46",
            "type": 2,
            "weight": 1
        },
        {
            "_id": "BV4bqmX8faPOCWse",
            "collection": "sf2e.criticaldeck",
            "drawn": false,
            "flags": {},
            "img": "icons/svg/d20-black.svg",
            "range": [
                47,
                47
            ],
            "resultId": "cPORMYYrqMaPfjnx",
            "text": "Critical Hit Deck #47",
            "type": 2,
            "weight": 1
        },
        {
            "_id": "53SH3FqveoNW81PS",
            "collection": "sf2e.criticaldeck",
            "drawn": false,
            "flags": {},
            "img": "icons/svg/d20-black.svg",
            "range": [
                48,
                48
            ],
            "resultId": "bZF7zf43UBxS188h",
            "text": "Critical Hit Deck #48",
            "type": 2,
            "weight": 1
        },
        {
            "_id": "24eeYA5Sgg51pHZT",
            "collection": "sf2e.criticaldeck",
            "drawn": false,
            "flags": {},
            "img": "icons/svg/d20-black.svg",
            "range": [
                49,
                49
            ],
            "resultId": "YcQEfWxkmpMWXUz4",
            "text": "Critical Hit Deck #49",
            "type": 2,
            "weight": 1
        },
        {
            "_id": "g1Liib5bDGLeElxA",
            "collection": "sf2e.criticaldeck",
            "drawn": false,
            "flags": {},
            "img": "icons/svg/d20-black.svg",
            "range": [
                50,
                50
            ],
            "resultId": "QR3e1uCNURvxDzbV",
            "text": "Critical Hit Deck #50",
            "type": 2,
            "weight": 1
        },
        {
            "_id": "rJhw1yygLtfCalpj",
            "collection": "sf2e.criticaldeck",
            "drawn": false,
            "flags": {},
            "img": "icons/svg/d20-black.svg",
            "range": [
                51,
                51
            ],
            "resultId": "DYaq4QSRuyhp4DQL",
            "text": "Critical Hit Deck #51",
            "type": 2,
            "weight": 1
        },
        {
            "_id": "GxNyDy3hL9hC8oFv",
            "collection": "sf2e.criticaldeck",
            "drawn": false,
            "flags": {},
            "img": "icons/svg/d20-black.svg",
            "range": [
                52,
                52
            ],
            "resultId": "LI8WRDVWPbwr6pcG",
            "text": "Critical Hit Deck #52",
            "type": 2,
            "weight": 1
        },
        {
            "_id": "PJE1g0LIGCjzNNC4",
            "collection": "sf2e.criticaldeck",
            "drawn": false,
            "flags": {},
            "img": "icons/svg/d20-black.svg",
            "range": [
                53,
                53
            ],
            "resultId": "XmpWko9I3NDN6rjJ",
            "text": "Critical Hit Deck #53",
            "type": 2,
            "weight": 1
        },
        {
            "_id": "03Om2HoD0t4JBFnV",
            "collection": "sf2e.criticaldeck",
            "drawn": false,
            "flags": {},
            "img": "icons/svg/d20-black.svg",
            "range": [
                54,
                54
            ],
            "resultId": "uaZZy9cJPqGW9x3X",
            "text": "Critical Hit Deck #54",
            "type": 2,
            "weight": 1
        }
    ]
}
