{
    "_id": "L7IJO5z82nEN9IjM",
    "data": {
        "abilities": {
            "cha": {
                "mod": -5
            },
            "con": {
                "mod": 5
            },
            "dex": {
                "mod": -1
            },
            "int": {
                "mod": -5
            },
            "str": {
                "mod": 8
            },
            "wis": {
                "mod": 0
            }
        },
        "attributes": {
            "ac": {
                "details": "",
                "value": 33
            },
            "allSaves": {
                "value": ""
            },
            "hp": {
                "details": "",
                "max": 195,
                "temp": 0,
                "value": 195
            },
            "initiative": {
                "ability": "perception"
            },
            "perception": {
                "value": 22
            },
            "shield": {
                "ac": 0,
                "brokenThreshold": 0,
                "hardness": 0,
                "max": 0,
                "value": 0
            },
            "speed": {
                "otherSpeeds": [],
                "value": "20 feet"
            }
        },
        "details": {
            "alignment": {
                "value": "N"
            },
            "creatureType": "Construct",
            "flavorText": "",
            "level": {
                "value": 12
            },
            "source": {
                "value": "Pathfinder #148: Fires of the Haunted City"
            }
        },
        "resources": {},
        "saves": {
            "fortitude": {
                "saveDetail": "",
                "value": 25
            },
            "reflex": {
                "saveDetail": "",
                "value": 19
            },
            "will": {
                "saveDetail": "",
                "value": 20
            }
        },
        "traits": {
            "ci": [],
            "di": {
                "custom": "",
                "value": [
                    "acid",
                    "bleed",
                    "death-effects",
                    "disease",
                    "doomed",
                    "drained",
                    "fatigued",
                    "healing",
                    "magic",
                    "mental",
                    "necromancy",
                    "nonlethal-attacks",
                    "paralyzed",
                    "poison",
                    "sickened",
                    "unconscious"
                ]
            },
            "dr": [
                {
                    "exceptions": "adamantine",
                    "label": "Physical",
                    "type": "physical",
                    "value": "10"
                }
            ],
            "dv": [],
            "languages": {
                "custom": "",
                "selected": [],
                "value": []
            },
            "rarity": {
                "value": "rare"
            },
            "senses": [],
            "size": {
                "value": "lg"
            },
            "traits": {
                "custom": "",
                "value": [
                    "construct",
                    "golem",
                    "mindless"
                ]
            }
        }
    },
    "effects": [],
    "flags": {},
    "img": "systems/sf2e/icons/default-icons/npc.svg",
    "items": [
        {
            "_id": "6xNQdZfi7r9teJPg",
            "data": {
                "attack": {
                    "value": ""
                },
                "attackEffects": {
                    "value": []
                },
                "bonus": {
                    "value": 26
                },
                "damageRolls": {
                    "xsu3e6v570eyw0rmghnz": {
                        "damage": "2d10+11",
                        "damageType": "bludgeoning"
                    },
                    "bdpok4f6qwd7tyd9k7im": {
                        "damage": "2d6",
                        "damageType": "negative"
                    }
                },
                "description": {
                    "value": ""
                },
                "rules": [],
                "slug": null,
                "source": {
                    "value": ""
                },
                "traits": {
                    "custom": "",
                    "rarity": {
                        "value": "common"
                    },
                    "value": [
                        "magical",
                        "reach-10"
                    ]
                },
                "weaponType": {
                    "value": "melee"
                }
            },
            "effects": [],
            "flags": {},
            "img": "systems/sf2e/icons/default-icons/melee.svg",
            "name": "Fist",
            "sort": 100000,
            "type": "melee"
        },
        {
            "_id": "6FEj3TJtPP29jUcR",
            "data": {
                "actionCategory": {
                    "value": "defensive"
                },
                "actionType": {
                    "value": "passive"
                },
                "actions": {
                    "value": null
                },
                "description": {
                    "value": "<p>harmed by cold and positive (5d10, 2d8 from areas and persistent damage); healed by negative (area 2d8 HP); slowed by earth</p>"
                },
                "requirements": {
                    "value": ""
                },
                "rules": [],
                "slug": null,
                "source": {
                    "value": ""
                },
                "traits": {
                    "custom": "",
                    "rarity": {
                        "value": "common"
                    },
                    "selected": {},
                    "value": []
                },
                "trigger": {
                    "value": ""
                },
                "weapon": {
                    "value": ""
                }
            },
            "effects": [],
            "flags": {},
            "img": "systems/sf2e/icons/default-icons/action.svg",
            "name": "Golem Antimagic",
            "sort": 200000,
            "type": "action"
        },
        {
            "_id": "57d5pa0lzAZrKebO",
            "data": {
                "actionCategory": {
                    "value": "defensive"
                },
                "actionType": {
                    "value": "passive"
                },
                "actions": {
                    "value": null
                },
                "description": {
                    "value": "<p>30 feet. Positive energy effects within the golem's necrotic field deal only half their normal damage. Additionally, all undead within its aura deal an additional [[/r 1d6 #negative]]{1d6 negative damage} with their natural attacks.</p>"
                },
                "requirements": {
                    "value": ""
                },
                "rules": [],
                "slug": null,
                "source": {
                    "value": ""
                },
                "traits": {
                    "custom": "",
                    "rarity": {
                        "value": "common"
                    },
                    "value": [
                        "aura",
                        "divine",
                        "necromancy"
                    ]
                },
                "trigger": {
                    "value": ""
                },
                "weapon": {
                    "value": ""
                }
            },
            "effects": [],
            "flags": {},
            "img": "systems/sf2e/icons/default-icons/action.svg",
            "name": "Necrotic Field",
            "sort": 300000,
            "type": "action"
        },
        {
            "_id": "vht2WrC27kZcUnCf",
            "data": {
                "actionCategory": {
                    "value": "defensive"
                },
                "actionType": {
                    "value": "passive"
                },
                "actions": {
                    "value": null
                },
                "description": {
                    "value": "<p>A @Compendium[sf2e.spells-srd.Stone to Flesh]{Stone to Flesh} spell negates the golem's antimagic and its resistance to physical damage for 1 round. A flesh to stone spell reverses this effect immediately.</p>"
                },
                "requirements": {
                    "value": ""
                },
                "rules": [],
                "slug": null,
                "source": {
                    "value": ""
                },
                "traits": {
                    "custom": "",
                    "rarity": {
                        "value": "common"
                    },
                    "value": []
                },
                "trigger": {
                    "value": ""
                },
                "weapon": {
                    "value": ""
                }
            },
            "effects": [],
            "flags": {},
            "img": "systems/sf2e/icons/actions/Passive.webp",
            "name": "Vulnerable to Stone to Flesh",
            "sort": 400000,
            "type": "action"
        },
        {
            "_id": "3sCspRlk6MISf4El",
            "data": {
                "actionCategory": {
                    "value": "offensive"
                },
                "actionType": {
                    "value": "action"
                },
                "actions": {
                    "value": 1
                },
                "description": {
                    "value": "<p>The golem Strides up to its Speed, pushing back each creature whose space it moves into and damaging them if they try to stop its movement. A creature can bar the way by succeeding at a <span data-pf2-check=\"fortitude\" data-pf2-dc=\"36\" data-pf2-label=\"Inexorable March DC\" data-pf2-show-dc=\"gm\">Fortitude</span> save. On a critical success, the resisting creature takes no damage; otherwise, it takes damage equal to that dealt by the golem's fist Strike.</p>"
                },
                "requirements": {
                    "value": ""
                },
                "rules": [],
                "slug": null,
                "source": {
                    "value": ""
                },
                "traits": {
                    "custom": "",
                    "rarity": {
                        "value": "common"
                    },
                    "value": []
                },
                "trigger": {
                    "value": ""
                },
                "weapon": {
                    "value": ""
                }
            },
            "effects": [],
            "flags": {},
            "img": "systems/sf2e/icons/default-icons/action.svg",
            "name": "Inexorable March",
            "sort": 500000,
            "type": "action"
        },
        {
            "_id": "WuCv1jhPd5N5pzjT",
            "data": {
                "actionCategory": {
                    "value": "offensive"
                },
                "actionType": {
                    "value": "reaction"
                },
                "actions": {
                    "value": null
                },
                "description": {
                    "value": "<p data-visibility=\"gm\"><strong>Trigger</strong> The golem hits a slowed creature. <strong>Effect</strong> The creature must succeed at a <span data-pf2-check=\"fortitude\" data-pf2-dc=\"34\" data-pf2-traits=\"necromancy\" data-pf2-label=\"Necrotic Affliction DC\" data-pf2-show-dc=\"gm\">Fortitude</span> save or become @Compendium[sf2e.conditionitems.Drained]{Drained 1} (or drained 2 on a critical failure) as the golem's lazurite leeches vital energies and causes wounds to rot.</p>"
                },
                "requirements": {
                    "value": ""
                },
                "rules": [],
                "slug": null,
                "source": {
                    "value": ""
                },
                "traits": {
                    "custom": "",
                    "rarity": {
                        "value": "common"
                    },
                    "value": [
                        "necromancy"
                    ]
                },
                "trigger": {
                    "value": ""
                },
                "weapon": {
                    "value": ""
                }
            },
            "effects": [],
            "flags": {},
            "img": "systems/sf2e/icons/default-icons/action.svg",
            "name": "Necrotic Affliction",
            "sort": 600000,
            "type": "action"
        },
        {
            "_id": "z9uryB16lridJNHF",
            "data": {
                "actionCategory": {
                    "value": "offensive"
                },
                "actionType": {
                    "value": "action"
                },
                "actions": {
                    "value": 1
                },
                "description": {
                    "value": "<p>Each creature in a 10-foot emanation must succeed at a <span data-pf2-check=\"fortitude\" data-pf2-dc=\"32\" data-pf2-traits=\"arcane,concentrate,disease,necromancy,negative,damaging-effect\" data-pf2-label=\"Necrotic Pulse DC\" data-pf2-show-dc=\"gm\">Fortitude</span> save or take [[/r 1d6 #persistent necrotic]] @Compendium[sf2e.conditionitems.Persistent Damage]{Persistent Necrotic Damage} and be @Compendium[sf2e.conditionitems.Slowed]{Slowed 1} for 1 minute as their flesh and bones temporarily atrophy. The golem can't use Necrotic Pulse again for [[/br 1d4 #rounds]]{1d4 rounds}.</p>"
                },
                "requirements": {
                    "value": ""
                },
                "rules": [],
                "slug": null,
                "source": {
                    "value": ""
                },
                "traits": {
                    "custom": "",
                    "rarity": {
                        "value": "common"
                    },
                    "value": [
                        "arcane",
                        "concentrate",
                        "disease",
                        "necromancy",
                        "negative"
                    ]
                },
                "trigger": {
                    "value": ""
                },
                "weapon": {
                    "value": ""
                }
            },
            "effects": [],
            "flags": {},
            "img": "systems/sf2e/icons/default-icons/action.svg",
            "name": "Necrotic Pulse",
            "sort": 700000,
            "type": "action"
        },
        {
            "_id": "g5hcVDUmogJmxgMK",
            "data": {
                "description": {
                    "value": ""
                },
                "item": {
                    "value": 0
                },
                "mod": {
                    "value": 28
                },
                "proficient": {
                    "value": 0
                },
                "rules": [],
                "slug": null,
                "source": {
                    "value": ""
                },
                "traits": {
                    "custom": "",
                    "rarity": {
                        "value": "common"
                    },
                    "value": []
                }
            },
            "effects": [],
            "flags": {},
            "img": "systems/sf2e/icons/default-icons/lore.svg",
            "name": "Athletics",
            "sort": 800000,
            "type": "lore"
        }
    ],
    "name": "Lazurite-Infused Stone Golem",
    "token": {
        "disposition": -1,
        "height": 2,
        "img": "systems/sf2e/icons/default-icons/npc.svg",
        "name": "Lazurite-Infused Stone Golem",
        "width": 2
    },
    "type": "npc"
}
