{
    "_id": "pnZ9aFB0mdYdU7Zj",
    "data": {
        "attributes": {
            "ac": {
                "value": 0
            },
            "hardness": 0,
            "hasHealth": true,
            "hp": {
                "details": "",
                "max": 0,
                "temp": 0,
                "value": 0
            },
            "stealth": {
                "details": "",
                "value": 7
            }
        },
        "creatureType": "",
        "customModifiers": {},
        "details": {
            "description": "<p>A cloud of invisible magical sensors in a 10-foot radius surrounds a shadowy 3-foot-diameter rune on the floor.</p>",
            "disable": "<p><span data-pf2-check=\"thievery\" data-pf2-traits=\"magical,trap\" data-pf2-label=\"Erase the Rune DC\" data-pf2-dc=\"12\" data-pf2-show-dc=\"gm\">Thievery</span> (trained) to carefully erase the rune without triggering the sensors, <em>dispel magic</em> or a spell with the Light trait (1st level; counteract DC 13) to counteract the rune</p>",
            "isComplex": false,
            "level": {
                "value": -1
            },
            "reset": "<p>The trap resets each night at dusk.</p>",
            "routine": ""
        },
        "saves": {
            "fortitude": {
                "saveDetail": "",
                "value": 0
            },
            "reflex": {
                "saveDetail": "",
                "value": 0
            },
            "will": {
                "saveDetail": "",
                "value": 0
            }
        },
        "source": {
            "value": ""
        },
        "statusEffects": [],
        "traits": {
            "ci": [],
            "di": {
                "custom": "",
                "selected": {},
                "value": []
            },
            "dr": [],
            "dv": [],
            "rarity": {
                "value": "uncommon"
            },
            "size": {
                "value": "med"
            },
            "traits": {
                "custom": "",
                "value": [
                    "magical",
                    "trap"
                ]
            }
        }
    },
    "effects": [],
    "flags": {},
    "img": "systems/sf2e/icons/default-icons/hazard.svg",
    "items": [
        {
            "_id": "Eb68nbqtIJRsT6Jk",
            "data": {
                "actionCategory": {
                    "value": "offensive"
                },
                "actionType": {
                    "value": "reaction"
                },
                "actions": {
                    "value": null
                },
                "description": {
                    "value": "<p data-visibility=\"gm\"><strong>Trigger</strong> A creature without the Shadow trait ends its turn in the cloud of magical sensors, and a member of the Onyx Alliance is within 60 feet;</p>\n<p><strong>Effect</strong> This trap casts a minor version of <em>@Compendium[sf2e.spells-srd.Mirror Image]{Mirror Image}</em>: it creates a single illusory image that swirls about the nearest member of the Onyx Alliance within 60 feet, functioning in all ways as a <em>mirror image</em> cast by that creature. The image remains for 1 minute, or until it is destroyed or the trap is disabled. A creature can have up to three shadow doubles at one time; any additional doubles are instantly destroyed.</p>"
                },
                "requirements": {
                    "value": ""
                },
                "rules": [],
                "slug": null,
                "source": {
                    "value": ""
                },
                "traits": {
                    "custom": "",
                    "rarity": {
                        "value": "common"
                    },
                    "value": [
                        "illusion",
                        "occult",
                        "shadow",
                        "visual"
                    ]
                },
                "trigger": {
                    "value": ""
                },
                "weapon": {
                    "value": ""
                }
            },
            "effects": [],
            "flags": {},
            "img": "systems/sf2e/icons/actions/Reaction.webp",
            "name": "Create Shadow Double",
            "sort": 0,
            "type": "action"
        }
    ],
    "name": "Shadow Double Runes (1-2)",
    "token": {
        "disposition": 0,
        "height": 1,
        "img": "systems/sf2e/icons/default-icons/hazard.svg",
        "name": "Shadow Double Runes",
        "width": 1
    },
    "type": "hazard"
}
