{
    "_id": "N6U02s9qJKQIvmQd",
    "data": {
        "actionCategory": {
            "value": "interaction"
        },
        "actionType": {
            "value": "free"
        },
        "actions": {
            "value": null
        },
        "description": {
            "value": "<p><strong>Frequency</strong> once per day;</p>\n<p><strong>Trigger</strong> You are about to roll an attack roll, saving throw, or skill check;</p>\n<p><strong>Effect</strong> You wish aloud for success. Roll the check twice and take the higher result.</p>"
        },
        "requirements": {
            "value": ""
        },
        "rules": [],
        "source": {
            "value": ""
        },
        "traits": {
            "custom": "",
            "rarity": {
                "value": "common"
            },
            "value": [
                "arcane",
                "auditory",
                "divination",
                "fortune"
            ]
        },
        "trigger": {
            "value": ""
        },
        "weapon": {
            "value": ""
        }
    },
    "effects": [],
    "flags": {},
    "img": "systems/sf2e/icons/actions/FreeAction.webp",
    "name": "Wish for Luck",
    "type": "action"
}
