{
    "_id": "u35Qzft0c84UySq2",
    "data": {
        "description": {
            "value": "<p>For 1 minute and gain a +1 item bonus to attack rolls, saving throws, and DCs.</p>"
        },
        "duration": {
            "expiry": "turn-start",
            "sustained": false,
            "unit": "minutes",
            "value": 1
        },
        "level": {
            "value": 1
        },
        "rules": [
            {
                "key": "FlatModifier",
                "label": "Ebon Fulcrum Lens Reaction",
                "selector": "attack",
                "type": "item",
                "value": 1
            },
            {
                "key": "FlatModifier",
                "label": "Ebon Fulcrum Lens Reaction",
                "selector": "saving-throw",
                "type": "item",
                "value": 1
            },
            {
                "key": "FlatModifier",
                "label": "Ebon Fulcrum Lens Reaction",
                "selector": "skill-check",
                "type": "item",
                "value": 1
            },
            {
                "key": "FlatModifier",
                "label": "Ebon Fulcrum Lens Reaction",
                "selector": "ac",
                "type": "item",
                "value": 1
            },
            {
                "key": "FlatModifier",
                "label": "Ebon Fulcrum Lens Reaction",
                "selector": "perception",
                "type": "item",
                "value": 1
            },
            {
                "key": "FlatModifier",
                "label": "Ebon Fulcrum Lens Reaction",
                "selector": "class",
                "type": "item",
                "value": 1
            }
        ],
        "source": {
            "value": ""
        },
        "start": {
            "initiative": null,
            "value": 0
        },
        "target": null,
        "tokenIcon": {
            "show": true
        },
        "traits": {
            "custom": "",
            "rarity": {
                "value": "common"
            },
            "value": []
        }
    },
    "effects": [],
    "flags": {},
    "img": "systems/sf2e/icons/default-icons/effect.svg",
    "name": "Effect: Ebon Fulcrum Lens (2 Action)",
    "type": "effect"
}
