{
    "_id": "TTEcqxuMqzIdkX6q",
    "data": {
        "abilities": {
            "cha": {
                "mod": 0
            },
            "con": {
                "mod": 4
            },
            "dex": {
                "mod": 5
            },
            "int": {
                "mod": 1
            },
            "str": {
                "mod": 5
            },
            "wis": {
                "mod": 3
            }
        },
        "attributes": {
            "ac": {
                "details": "",
                "value": 36
            },
            "allSaves": {
                "value": ""
            },
            "hp": {
                "details": "",
                "max": 250,
                "temp": 0,
                "value": 250
            },
            "initiative": {
                "ability": "perception"
            },
            "perception": {
                "value": 23
            },
            "shield": {
                "ac": 0,
                "brokenThreshold": 0,
                "hardness": 0,
                "max": 0,
                "value": 0
            },
            "speed": {
                "otherSpeeds": [
                    {
                        "label": "Climb",
                        "type": "climb",
                        "value": "20"
                    }
                ],
                "value": "30"
            }
        },
        "details": {
            "alignment": {
                "value": "N"
            },
            "creatureType": "",
            "level": {
                "value": 14
            },
            "source": {
                "value": "Pathfinder #167: Ready? Fight!"
            }
        },
        "resources": {},
        "saves": {
            "fortitude": {
                "saveDetail": "",
                "value": 26
            },
            "reflex": {
                "saveDetail": "",
                "value": 27
            },
            "will": {
                "saveDetail": "",
                "value": 25
            }
        },
        "traits": {
            "ci": [],
            "di": {
                "custom": "",
                "value": []
            },
            "dr": [
                {
                    "exceptions": "",
                    "label": "Cold",
                    "type": "cold",
                    "value": "10"
                }
            ],
            "dv": [],
            "languages": {
                "custom": "",
                "selected": [],
                "value": [
                    "goblin",
                    "skald",
                    "taldane"
                ]
            },
            "rarity": {
                "value": "unique"
            },
            "senses": {
                "value": "darkvision"
            },
            "size": {
                "value": "med"
            },
            "traits": {
                "custom": "",
                "value": [
                    "goblin",
                    "humanoid"
                ]
            }
        }
    },
    "effects": [],
    "flags": {},
    "img": "systems/sf2e/icons/default-icons/npc.svg",
    "items": [
        {
            "_id": "iyGFgqovTHlzljo0",
            "data": {
                "MAP": {
                    "value": ""
                },
                "ability": {
                    "value": "str"
                },
                "baseItem": null,
                "bonus": {
                    "value": 1
                },
                "bonusDamage": {
                    "value": 0
                },
                "brokenThreshold": {
                    "value": 0
                },
                "bulkCapacity": {
                    "value": ""
                },
                "collapsed": {
                    "value": false
                },
                "containerId": {
                    "value": ""
                },
                "damage": {
                    "damageType": "bludgeoning",
                    "dice": 1,
                    "die": "d4",
                    "value": ""
                },
                "description": {
                    "value": "<p>As you invest these embroidered strips of cloth, you must meditate and slowly wrap them around your hands. These handwraps have weapon runes etched into them to give your unarmed attacks the benefits of those runes, making your unarmed attacks work like magic weapons. For example, <em>+1 striking handwraps of mighty blows</em> would give you a +1 item bonus to attack rolls with your unarmed attacks and increase the damage of your unarmed attacks from one weapon die to two (normally 2d4 instead of 1d4, but if your fists have a different weapon damage die or you have other unarmed attacks, use two of that die size instead).</p>\n<p>You can upgrade, add, and transfer runes to and from the handwraps just as you would for a weapon, and you can attach talismans to the handwraps. Treat the handwraps as melee weapons of the brawling group with light Bulk for these purposes. Property runes apply only when they would be applicable to the unarmed attack you're using. For example, a property that must be applied to a slashing weapon wouldn't function when you attacked with a fist, but you would gain its benefits if you attacked with a claw or some other slashing unarmed attack.</p>"
                },
                "equipped": {
                    "value": false
                },
                "equippedBulk": {
                    "value": ""
                },
                "group": {
                    "value": "brawling"
                },
                "hands": {
                    "value": ""
                },
                "hardness": {
                    "value": 0
                },
                "hp": {
                    "value": 0
                },
                "identification": {
                    "misidentified": {},
                    "status": "identified",
                    "unidentified": {
                        "data": {
                            "description": {
                                "value": ""
                            }
                        },
                        "img": "",
                        "name": ""
                    }
                },
                "invested": {
                    "value": false
                },
                "level": {
                    "value": 10
                },
                "maxHp": {
                    "value": 0
                },
                "negateBulk": {
                    "value": "0"
                },
                "potencyRune": {
                    "value": 2
                },
                "preciousMaterial": {
                    "value": null
                },
                "preciousMaterialGrade": {
                    "value": null
                },
                "price": {
                    "value": "1500 gp"
                },
                "property1": {
                    "critDamage": "",
                    "critDamageType": "",
                    "critDice": null,
                    "critDie": "",
                    "criticalConditionType": "",
                    "criticalConditionValue": null,
                    "damageType": "",
                    "dice": null,
                    "die": "",
                    "strikeConditionType": "",
                    "strikeConditionValue": null,
                    "value": ""
                },
                "propertyRune1": {
                    "value": null
                },
                "propertyRune2": {
                    "value": null
                },
                "propertyRune3": {
                    "value": null
                },
                "propertyRune4": {
                    "value": null
                },
                "quantity": {
                    "value": 1
                },
                "range": {
                    "value": "melee"
                },
                "reload": {
                    "value": ""
                },
                "rules": [
                    {
                        "key": "Striking",
                        "predicate": {
                            "all": [
                                "unarmed"
                            ]
                        },
                        "selector": "damage"
                    },
                    {
                        "key": "WeaponPotency",
                        "predicate": {
                            "all": [
                                "unarmed"
                            ]
                        },
                        "selector": "attack"
                    },
                    {
                        "damageType": "cold",
                        "diceNumber": 1,
                        "dieSize": "d6",
                        "key": "DamageDice",
                        "label": "Frost",
                        "predicate": {
                            "all": [
                                "unarmed"
                            ]
                        },
                        "selector": "damage"
                    },
                    {
                        "key": "Note",
                        "outcome": [
                            "criticalSuccess"
                        ],
                        "predicate": {
                            "all": [
                                "unarmed"
                            ]
                        },
                        "selector": "damage",
                        "text": "<p class='compact-text'><strong>Frost Rune</strong> The target is also @Compendium[sf2e.conditionitems.Slowed]{Slowed 1} until the end of your next turn unless it succeeds at a <span data-pf2-saving-throw='fortitude' data-pf2-dc='24' data-pf2-label='Frost Rune DC'><strong>DC 24 </strong>Fortitude save</span>.</p>"
                    }
                ],
                "size": {
                    "value": "med"
                },
                "slug": "handwraps-of-mighty-blows",
                "source": {
                    "value": ""
                },
                "specific": {
                    "value": false
                },
                "splashDamage": {
                    "value": null
                },
                "stackGroup": {
                    "value": ""
                },
                "strikingRune": {
                    "value": "striking"
                },
                "traits": {
                    "custom": "",
                    "rarity": {
                        "value": "common"
                    },
                    "value": [
                        "agile",
                        "finesse",
                        "invested",
                        "magical",
                        "nonlethal",
                        "transmutation",
                        "unarmed"
                    ]
                },
                "usage": {
                    "value": "worn-gloves"
                },
                "weaponType": {
                    "value": "unarmed"
                },
                "weight": {
                    "value": "-"
                }
            },
            "effects": [],
            "flags": {
                "core": {
                    "sourceId": "Compendium.sf2e.equipment-srd.FNDq4NFSN0g2HKWO"
                }
            },
            "img": "systems/sf2e/icons/equipment/worn-items/other-worn-items/handwraps-of-mighty-blows.webp",
            "name": "+2 Striking Frost Handwraps of Mighty Blows",
            "sort": 100000,
            "type": "weapon"
        },
        {
            "_id": "VDCtVd4rgGJO6bOo",
            "data": {
                "baseItem": null,
                "brokenThreshold": {
                    "value": 0
                },
                "bulkCapacity": {
                    "value": ""
                },
                "collapsed": {
                    "value": false
                },
                "containerId": {
                    "value": ""
                },
                "description": {
                    "value": "<p>These stiff leather armguards grant you a +2 item bonus to AC and saving throws, and a maximum Dexterity modifier of +5. You can affix talismans to <em>bracers of armor</em> as though they were light armor.</p>\n<hr />\n<p>Automatically applied effects:</p>\n<ul>\n<li> +2 item bonus to AC and saving throws, and a maximum Dexterity modifier of +5.</li>\n</ul>"
                },
                "equipped": {
                    "value": false
                },
                "equippedBulk": {
                    "value": ""
                },
                "hardness": {
                    "value": 0
                },
                "hp": {
                    "value": 0
                },
                "identification": {
                    "misidentified": {},
                    "status": "identified",
                    "unidentified": {
                        "data": {
                            "description": {
                                "value": ""
                            }
                        },
                        "img": "",
                        "name": ""
                    }
                },
                "invested": {
                    "value": false
                },
                "level": {
                    "value": 14
                },
                "maxHp": {
                    "value": 0
                },
                "negateBulk": {
                    "value": "0"
                },
                "preciousMaterial": {
                    "value": ""
                },
                "preciousMaterialGrade": {
                    "value": ""
                },
                "price": {
                    "value": "4000 gp"
                },
                "quantity": {
                    "value": 1
                },
                "rules": [
                    {
                        "key": "FlatModifier",
                        "selector": "ac",
                        "type": "item",
                        "value": 2
                    },
                    {
                        "key": "FlatModifier",
                        "selector": "saving-throw",
                        "type": "item",
                        "value": 2
                    },
                    {
                        "key": "DexterityModifierCap",
                        "value": 5
                    }
                ],
                "size": {
                    "value": "med"
                },
                "slug": "bracers-of-armor-ii",
                "source": {
                    "value": ""
                },
                "stackGroup": {
                    "value": ""
                },
                "traits": {
                    "custom": "",
                    "rarity": {
                        "value": "common"
                    },
                    "value": [
                        "abjuration",
                        "invested",
                        "magical"
                    ]
                },
                "usage": {
                    "value": "wornbracers"
                },
                "weight": {
                    "value": "L"
                }
            },
            "effects": [],
            "flags": {
                "core": {
                    "sourceId": "Compendium.sf2e.equipment-srd.8mhSUxEvNuXDP8Ki"
                }
            },
            "img": "systems/sf2e/icons/equipment/worn-items/other-worn-items/bracers-of-armor.webp",
            "name": "Bracers of Armor II",
            "sort": 200000,
            "type": "equipment"
        },
        {
            "_id": "pqQoijXmReVC6SQg",
            "data": {
                "attack": {
                    "value": ""
                },
                "attackEffects": {
                    "value": []
                },
                "bonus": {
                    "value": 28
                },
                "damageRolls": {
                    "od7xvcj90msw2mihg126": {
                        "damage": "2d6+13",
                        "damageType": "bludgeoning"
                    },
                    "sh0e7y0px44m99gcl07d": {
                        "damage": "1d6",
                        "damageType": "cold"
                    }
                },
                "description": {
                    "value": ""
                },
                "rules": [],
                "slug": null,
                "source": {
                    "value": ""
                },
                "traits": {
                    "custom": "",
                    "rarity": {
                        "value": "common"
                    },
                    "value": [
                        "agile",
                        "finesse",
                        "unarmed"
                    ]
                },
                "weaponType": {
                    "value": "melee"
                }
            },
            "effects": [],
            "flags": {},
            "img": "systems/sf2e/icons/default-icons/melee.svg",
            "name": "Fist",
            "sort": 300000,
            "type": "melee"
        },
        {
            "_id": "tSarOldwU95b0USG",
            "data": {
                "attack": {
                    "value": ""
                },
                "attackEffects": {
                    "custom": "",
                    "value": [
                        "trip"
                    ]
                },
                "bonus": {
                    "value": 28
                },
                "damageRolls": {
                    "ed9uwwb8lf5yvgrxgljt": {
                        "damage": "2d8+13",
                        "damageType": "piercing"
                    },
                    "afm8f7tumjnlbktf9i9r": {
                        "damage": "1d6",
                        "damageType": "cold"
                    }
                },
                "description": {
                    "value": ""
                },
                "rules": [],
                "slug": null,
                "source": {
                    "value": ""
                },
                "traits": {
                    "custom": "",
                    "rarity": {
                        "value": "common"
                    },
                    "value": [
                        "agile",
                        "backstabber",
                        "finesse",
                        "unarmed"
                    ]
                },
                "weaponType": {
                    "value": "melee"
                }
            },
            "effects": [],
            "flags": {},
            "img": "systems/sf2e/icons/default-icons/melee.svg",
            "name": "Icicle Gouge",
            "sort": 400000,
            "type": "melee"
        },
        {
            "_id": "EDvNQiLZnL4ItXgM",
            "data": {
                "actionCategory": {
                    "value": "interaction"
                },
                "actionType": {
                    "value": "passive"
                },
                "actions": {
                    "value": null
                },
                "description": {
                    "value": "<p>A monster with darkvision can see perfectly well in areas of darkness and dim light, though such vision is in black and white only. Some forms of magical darkness, such as a 4th-level @Compendium[sf2e.spells-srd.Darkness]{Darkness} spell, block normal darkvision. A monster with @Compendium[sf2e.bestiary-ability-glossary-srd.Greater Darkvision]{Greater Darkvision}, however, can see through even these forms of magical darkness.</p>"
                },
                "requirements": {
                    "value": ""
                },
                "rules": [],
                "slug": "darkvision",
                "source": {
                    "value": ""
                },
                "traits": {
                    "custom": "",
                    "rarity": {
                        "value": "common"
                    },
                    "value": []
                },
                "trigger": {
                    "value": ""
                },
                "weapon": {
                    "value": ""
                }
            },
            "effects": [],
            "flags": {
                "core": {
                    "sourceId": "Compendium.sf2e.bestiary-ability-glossary-srd.qCCLZhnp2HhP3Ex6"
                }
            },
            "img": "systems/sf2e/icons/default-icons/action.svg",
            "name": "Darkvision",
            "sort": 500000,
            "type": "action"
        },
        {
            "_id": "a2Ht2VRQHOf9f798",
            "data": {
                "actionCategory": {
                    "value": "offensive"
                },
                "actionType": {
                    "value": "reaction"
                },
                "actions": {
                    "value": null
                },
                "description": {
                    "value": "<p data-visibility=\"gm\"><strong>Trigger</strong> Troff rolls initiative or his turn starts;</p>\n<p><strong>Effect</strong> Troff readies himself to strike suddenly, like a falling icicle. While in this stance, Troff can make icicle gouge Strikes. While Troff is above a creature and in icicle stance, that creature is @Compendium[sf2e.conditionitems.Flat-Footed]{Flat-Footed} to him.</p>"
                },
                "requirements": {
                    "value": ""
                },
                "rules": [],
                "slug": null,
                "source": {
                    "value": ""
                },
                "traits": {
                    "custom": "",
                    "rarity": {
                        "value": "common"
                    },
                    "value": [
                        "stance"
                    ]
                },
                "trigger": {
                    "value": ""
                },
                "weapon": {
                    "value": ""
                }
            },
            "effects": [],
            "flags": {},
            "img": "systems/sf2e/icons/actions/Reaction.webp",
            "name": "Icicle Stance",
            "sort": 600000,
            "type": "action"
        },
        {
            "_id": "U1uqr0HgPoIr8ash",
            "data": {
                "actionCategory": {
                    "value": "offensive"
                },
                "actionType": {
                    "value": "action"
                },
                "actions": {
                    "value": 1
                },
                "description": {
                    "value": "<p>Troff makes an icicle gouge Strike against a @Compendium[sf2e.conditionitems.Flat-Footed]{Flat-Footed} creature. On a hit, the creature is @Compendium[sf2e.conditionitems.Dazzled]{Dazzled}. On a critical hit, the creature is @Compendium[sf2e.conditionitems.Blinded]{Blinded}. Either way, the effect lasts until the start of Troff's next turn. If his Strike fails (but isn't a critical failure), Troff still deals [[/r 13 #piercing]]{13 piercing damage} to the creature.</p>"
                },
                "requirements": {
                    "value": ""
                },
                "rules": [],
                "slug": null,
                "source": {
                    "value": ""
                },
                "traits": {
                    "custom": "",
                    "rarity": {
                        "value": "common"
                    },
                    "value": []
                },
                "trigger": {
                    "value": ""
                },
                "weapon": {
                    "value": ""
                }
            },
            "effects": [],
            "flags": {},
            "img": "systems/sf2e/icons/actions/OneAction.webp",
            "name": "Avalanche Pummel",
            "sort": 700000,
            "type": "action"
        },
        {
            "_id": "54wMKEbOXBHvnjXX",
            "data": {
                "actionCategory": {
                    "value": "offensive"
                },
                "actionType": {
                    "value": "action"
                },
                "actions": {
                    "value": 1
                },
                "description": {
                    "value": "<p><strong>Requirements</strong> Troff is within reach of a creature that has taken cold damage since the end of Troff's last turn;</p>\n<p><strong>Effect</strong> Troff jabs a pressure point on the creature made vulnerable by cold. The creature must attempt a <span data-pf2-check=\"fortitude\" data-pf2-traits=\"cold,damaging-effect\" data-pf2-label=\"Chattering Blow DC\" data-pf2-dc=\"31\" data-pf2-show-dc=\"gm\">Fortitude</span> save as its skin freezes and its limbs turn sluggish and clammy.</p>\n<hr />\n<p><strong>Critical Success</strong> The creature is unaffected.</p>\n<p><strong>Success</strong> The creature takes [[/r 2d4 #persistent cold]] @Compendium[sf2e.conditionitems.Persistent Damage]{Persistent Cold Damage} and a –5-foot status penalty to its Speeds until the persistent cold damage ends. Dealing fire damage to the creature is an especially effective way to help end the persistent cold damage (allowing a new flat check to end it at DC 10).</p>\n<p><strong>Failure</strong> As success, but the damage is [[/r 4d4 #persistent cold]] @Compendium[sf2e.conditionitems.Persistent Damage]{Persistent Cold Damage} and the penalty is –15-foot.</p>\n<p><strong>Critical Failure</strong> As success, but the damage is [[/r 6d4 #persistent cold]] @Compendium[sf2e.conditionitems.Persistent Damage]{Persistent Cold Damage} and the creature is @Compendium[sf2e.conditionitems.Immobilized]{Immobilized} instead of taking a Speed penalty.</p>"
                },
                "requirements": {
                    "value": ""
                },
                "rules": [],
                "slug": null,
                "source": {
                    "value": ""
                },
                "traits": {
                    "custom": "",
                    "rarity": {
                        "value": "common"
                    },
                    "value": [
                        "cold",
                        "press"
                    ]
                },
                "trigger": {
                    "value": ""
                },
                "weapon": {
                    "value": ""
                }
            },
            "effects": [],
            "flags": {},
            "img": "systems/sf2e/icons/actions/OneAction.webp",
            "name": "Chattering Blow",
            "sort": 800000,
            "type": "action"
        },
        {
            "_id": "PoK81ppdAf3Y4ZT7",
            "data": {
                "actionCategory": {
                    "value": "offensive"
                },
                "actionType": {
                    "value": "action"
                },
                "actions": {
                    "value": 1
                },
                "description": {
                    "value": "<p>Troff makes two Strikes with his fist or with a monk weapon. If both hit the same creature, combine their damage for the purpose of resistances and weaknesses.</p>"
                },
                "requirements": {
                    "value": ""
                },
                "rules": [],
                "slug": null,
                "source": {
                    "value": ""
                },
                "traits": {
                    "custom": "",
                    "rarity": {
                        "value": "common"
                    },
                    "value": [
                        "flourish"
                    ]
                },
                "trigger": {
                    "value": ""
                },
                "weapon": {
                    "value": ""
                }
            },
            "effects": [],
            "flags": {},
            "img": "systems/sf2e/icons/actions/OneAction.webp",
            "name": "Flurry of Blows",
            "sort": 900000,
            "type": "action"
        },
        {
            "_id": "pWzrUEYZ0Yintyx7",
            "data": {
                "description": {
                    "value": ""
                },
                "mod": {
                    "value": 27
                },
                "proficient": {
                    "value": 0
                },
                "rules": [],
                "slug": null,
                "source": {
                    "value": ""
                },
                "traits": {
                    "custom": "",
                    "rarity": {
                        "value": "common"
                    },
                    "value": []
                }
            },
            "effects": [],
            "flags": {},
            "img": "systems/sf2e/icons/default-icons/lore.svg",
            "name": "Acrobatics",
            "sort": 1000000,
            "type": "lore"
        },
        {
            "_id": "lGiYHJPb8C470eaa",
            "data": {
                "description": {
                    "value": ""
                },
                "mod": {
                    "value": 27
                },
                "proficient": {
                    "value": 0
                },
                "rules": [],
                "slug": null,
                "source": {
                    "value": ""
                },
                "traits": {
                    "custom": "",
                    "rarity": {
                        "value": "common"
                    },
                    "value": []
                }
            },
            "effects": [],
            "flags": {},
            "img": "systems/sf2e/icons/default-icons/lore.svg",
            "name": "Athletics",
            "sort": 1100000,
            "type": "lore"
        },
        {
            "_id": "q99vqZhtvzSwv5gr",
            "data": {
                "description": {
                    "value": ""
                },
                "mod": {
                    "value": 27
                },
                "proficient": {
                    "value": 0
                },
                "rules": [],
                "slug": null,
                "source": {
                    "value": ""
                },
                "traits": {
                    "custom": "",
                    "rarity": {
                        "value": "common"
                    },
                    "value": []
                }
            },
            "effects": [],
            "flags": {},
            "img": "systems/sf2e/icons/default-icons/lore.svg",
            "name": "Stealth",
            "sort": 1200000,
            "type": "lore"
        }
    ],
    "name": "Troff Frostknuckles",
    "token": {
        "disposition": -1,
        "height": 1,
        "img": "systems/sf2e/icons/default-icons/npc.svg",
        "name": "Troff Frostknuckles",
        "width": 1
    },
    "type": "npc"
}
