{
    "_id": "nuvfUC4TcOvFbKxx",
    "content": "<h1 class=\"title\">Osiris (Lord of the Living) [LG]</h1>\n<p class=\"title\"><span id=\"ctl00_MainContent_DetailedOutput\"><span id=\"ctl00_MainContent_DetailedOutput\"><strong>Edicts</strong> Ensure the health of crops and vegetation, protect the bodies and souls of the worthy dead, avenge the wrongly murdered</p>\n<p><strong>Anathema</strong> Dismember a creature, desecrate a corpse, show ingratitude for a sincere gift</p>\n<p><strong>Follower Alignments</strong> LG, NG</span></p>\n<p></span></p>\n<h2 class=\"title\">Devotee Benefits</h2>\n<div>\n<div><strong>Divine Ability</strong> Constitution or Wisdom</div>\n<div><strong>Divine Font</strong> heal</div>\n<div><strong>Divine Skill</strong> Nature</div>\n<div><strong>Favored Weapon</strong> flail</div>\n<div><strong>Domains</strong> change, healing, nature, soul</div>\n<div><strong>Cleric Spells</strong> 1st: soothe, 2nd: false life, 6th: tangling creepers</div>\n</div>",
    "flags": {},
    "name": "Osiris",
    "permission": {
        "default": 0
    }
}
