{
    "_id": "giAsBYiL2omr0x2L",
    "content": "<h1 class=\"title\">Qi Zhong (Master of Medicine) [NG]</h1>\n<p class=\"title\"><span id=\"ctl00_MainContent_DetailedOutput\"><span id=\"ctl00_MainContent_DetailedOutput\"><strong>Edicts</strong> Teach knowledge to others, relieve suffering despite personal difficulty, heal sickness and injuries</p>\n<p><strong>Anathema</strong> Deal lethal damage to another living creature (unless as part of a necessary medical treatment)</p>\n<p><strong>Follower Alignments</strong> LG, NG, CG, N</span></p>\n<p></span></p>\n<h2 class=\"title\">Devotee Benefits</h2>\n<div>\n<div><strong>Divine Ability</strong> Intelligence or Wisdom</div>\n<div><strong>Divine Font</strong> heal</div>\n<div><strong>Divine Skill</strong> Medicine</div>\n<div><strong>Favored Weapon</strong> heavy mace</div>\n<div><strong>Domains</strong> healing, knowledge, magic, protection</div>\n<div><strong>Cleric Spells</strong> 1st: soothe, 2nd: false life, 4th: resilient sphere</div>\n</div>",
    "flags": {},
    "name": "Qi Zhong",
    "permission": {
        "default": 0
    }
}
