{
    "_id": "u3YfcJh1C4w6n75j",
    "content": "<h1 class=\"title\">Raumya (The Evil Prince) [NE]</h1>\n<p class=\"title\"><span id=\"ctl00_MainContent_DetailedOutput\"><span id=\"ctl00_MainContent_DetailedOutput\"><strong>Edicts</strong> Improve yourself with music and literature, take what you want, seek power above others</p>\n<p><strong>Anathema</strong> Abuse a loyal subject, harm or kill a non-combatant</p>\n<p><strong>Follower Alignments</strong> NG, N, LE, NE</span></p>\n<p></span></p>\n<h2 class=\"title\">Devotee Benefits</h2>\n<div>\n<div><strong>Divine Ability</strong> Strength or Charisma</div>\n<div><strong>Divine Font</strong> harm or heal</div>\n<div><strong>Divine Skill</strong> Performance</div>\n<div><strong>Favored Weapon</strong> trident</div>\n<div><strong>Domains</strong> confidence, knowledge, might, wealth</div>\n<div><strong>Cleric Spells</strong> 1st: true strike, 2nd: invisibility, 4th: weapon storm</div>\n</div>",
    "flags": {},
    "name": "Raumya",
    "permission": {
        "default": 0
    }
}
