{
    "_id": "8wOAwLMgB1HFLo9n",
    "content": "<h1 class=\"title\">Winlas (The Elder of Divinity) [LG]</h1>\n<p><span id=\"ctl00_MainContent_DetailedOutput\"><strong>Edicts</strong> Serve leaders of ceremonies, craft ceremonial arms and armor, lead a congregation</p>\n<p><strong>Anathema</strong> Deride sacred ceremonies, carelessly or lazily perform rituals, destroy ceremonial objects</p>\n<p><strong>Follower Alignments</strong> LG, NG, LN</span></p>\n<h2 class=\"title\">Devotee Benefits</h2>\n<div>\n<div><strong>Divine Ability</strong> Intelligence or Wisdom</div>\n<div><strong>Divine Font</strong> heal</div>\n<div><strong>Divine Skill</strong> Occultism</div>\n<div><strong>Favored Weapon</strong> mace</div>\n<div><strong>Domains</strong> glyph, knowledge, protection, vigil</div>\n<div><strong>Cleric Spells</strong> 1st: share lore, 2nd: comprehend language, 4th: vei<strong>l</strong></div>\n</div>",
    "flags": {},
    "name": "Winlas",
    "permission": {
        "default": 0
    }
}
