{
    "_id": "7L9KIqixgseSCY3X",
    "content": "<h1 class=\"title\">Ymeri (Queen of the Inferno) [NE]</h1>\n<p class=\"title\"><span id=\"ctl00_MainContent_DetailedOutput\"><img class=\"thumbnail\" style=\"float: right;\" src=\"https://i.imgur.com/rbohL3D.png\" width=\"119\" height=\"123\" />The elemental lord of fire is Ymeri, Queen of the Inferno, lord of fire, heat, and smoke. The sole ruler of the Plane of Fire, Ymeri governs from her Auroric Palace, taking the form of a six-armed reptilian centaur with burning wings. She has systematically destroyed all record of her birth and true origins, claiming to have always existed, and she wages a never-ending war against the other denizens of the Plane of Fire and against the shaitans of the Plane of Earth.</p>\n<p>Of all the elemental lords, Ymeri has the largest following. Some mephits and most fire elementals revere her, alongside some efreet and a few other creatures of the Plane of Fire, though few salamanders honor her name, and a covert order of efreeti known as the Secret Fire is dedicated to opposing her rule. On Golarion, the Queen of the Inferno is worshipped primarily by cabals of fire wizards, arsonists, and red dragons.</p>\n<p><strong>Edicts</strong> Inspire your lessers with zeal and strategy, be passionate and quick of wit, destroy your foes with fire</p>\n<p><strong>Anathema</strong> Extinguish destructive blazes, allow yourself to stagnate or lose motivation</p>\n<p><strong>Areas of Concern</strong> fire, heat, and smoke</p>\n<p><strong>Follower Alignments</strong> N, LE, NE, CE</p>\n<p></span></p>\n<h2 class=\"title\">Devotee Benefits</h2>\n<div>\n<div><strong>Divine Ability</strong> Strength or Charisma</div>\n<div><strong>Divine Font</strong> harm</div>\n<div><strong>Divine Skill</strong> Intimidation</div>\n<div><strong>Favored Weapon</strong> longsword</div>\n<div><strong>Domains</strong> destruction, dust, fire, zeal</div>\n<div><strong>Cleric Spells</strong> 1st: burning hands, 2nd: summon elemental (fire only), 4th: wall of fire</div>\n</div>",
    "flags": {},
    "name": "Ymeri",
    "permission": {
        "default": 0
    }
}
