{
    "_id": "AKrxQ2JuDObM8coY",
    "data": {
        "actionCategory": {
            "value": ""
        },
        "actionType": {
            "value": "passive"
        },
        "actions": {
            "value": null
        },
        "description": {
            "value": "<p>You gain one of the following senses available to your inherent animal: @Compendium[sf2e.ancestryfeatures.Darkvision]{Darkvision}, @Compendium[sf2e.ancestryfeatures.Low-Light Vision]{Low-Light Vision}, or scent (imprecise) 30 feet. You must have low-light vision before you can gain darkvision with this feat. If your inherent animal doesn't typically have a specific type of sense, you can't gain that sense with this feat.</p>\n<hr />\n<p><strong>Special</strong> You can select this feat multiple times, choosing a different sense each time.</p>"
        },
        "featType": {
            "value": "ancestry"
        },
        "level": {
            "value": 1
        },
        "location": "",
        "prerequisites": {
            "value": []
        },
        "rules": [],
        "source": {
            "value": "Pathfinder Lost Omens: Ancestry Guide"
        },
        "traits": {
            "custom": "",
            "rarity": {
                "value": "common"
            },
            "value": [
                "beastkin"
            ]
        }
    },
    "effects": [],
    "flags": {},
    "img": "systems/sf2e/icons/features/feats/feats.webp",
    "name": "Animal Senses",
    "type": "feat"
}
