{
    "_id": "B6jXVgfPuPWWLx2K",
    "data": {
        "actionCategory": {
            "value": ""
        },
        "actionType": {
            "value": "action"
        },
        "actions": {
            "value": 1
        },
        "description": {
            "value": "<p>With careful observation during battle, you identify an enemy's strengths and weaknesses. The GM rolls a secret Perception check for you against the Deception or Stealth DC (whichever is higher) of an enemy of your choice who is not concealed from you, hidden from you, or undetected by you, and who is engaged in combat. The GM might apply a penalty for the distance between you and the enemy. The enemy is then temporarily immune to your Battle Assessment for 1 day.</p>\n<hr />\n<p><strong>Critical Success</strong> The GM chooses two of the following pieces of information about the enemy to tell you: which of the enemy's weaknesses is highest, which of the enemy's saving throws has the lowest modifier, one immunity the enemy has, or which of the enemy's resistances is highest. If the event of a tie, the GM should pick one at random.</p>\n<p><strong>Success</strong> The GM chooses one piece of information from the above list to tell you about the enemy.</p>\n<p><strong>Critical Failure</strong> The GM gives you false information (the GM makes up the information).</p>"
        },
        "featType": {
            "value": "class"
        },
        "level": {
            "value": 4
        },
        "prerequisites": {
            "value": []
        },
        "rules": [],
        "source": {
            "value": "Pathfinder Core Rulebook"
        },
        "traits": {
            "custom": "",
            "rarity": {
                "value": "common"
            },
            "value": [
                "rogue",
                "secret"
            ]
        }
    },
    "effects": [],
    "flags": {},
    "img": "systems/sf2e/icons/features/feats/feats.webp",
    "name": "Battle Assessment",
    "type": "feat"
}
