{
    "_id": "1gAehVvstGY885kJ",
    "data": {
        "actionCategory": {
            "value": "defensive"
        },
        "actionType": {
            "value": "action"
        },
        "actions": {
            "value": 1
        },
        "description": {
            "value": "<p>You curl into a posture that splays out your bone spines. You gain a +1 circumstance to AC until the start of your next turn.</p>\n<p>@Compendium[sf2e.feat-effects.Effect: Bristle]{Effect: Bristle}</p>\n<hr />\n<p><strong>Special</strong> If you have the Barbed Quills reaction or a quills unarmed attack, each gains a +1 circumstance bonus to damage rolls until the start of your next turn.</p>\n<p><em>Note: +1 to Barbed Quills is not automated</em></p>"
        },
        "featType": {
            "value": "ancestry"
        },
        "level": {
            "value": 5
        },
        "location": "",
        "prerequisites": {
            "value": []
        },
        "rules": [],
        "source": {
            "value": "Pathfinder Lost Omens: The Mwangi Expanse"
        },
        "traits": {
            "custom": "",
            "rarity": {
                "value": "common"
            },
            "value": [
                "shisk"
            ]
        }
    },
    "effects": [],
    "flags": {},
    "img": "systems/sf2e/icons/default-icons/feats.webp",
    "name": "Bristle",
    "type": "feat"
}
