{
    "_id": "uDFgL6uCwJsaTHi3",
    "data": {
        "actionCategory": {
            "value": ""
        },
        "actionType": {
            "value": "passive"
        },
        "actions": {
            "value": null
        },
        "description": {
            "value": "<p>You can call forth nearby nature spirits to augment your body. Once per day, you can cast @Compendium[sf2e.spells-srd.Plant Form]{Plant Form} as a 5th-level primal innate spell. When you reach 17th level, this spell can be heightened to 6th level.</p>"
        },
        "featType": {
            "value": "ancestry"
        },
        "level": {
            "value": 13
        },
        "location": "",
        "prerequisites": {
            "value": []
        },
        "rules": [],
        "source": {
            "value": "Pathfinder Lost Omens: Ancestry Guide"
        },
        "traits": {
            "custom": "",
            "rarity": {
                "value": "common"
            },
            "value": [
                "leshy"
            ]
        }
    },
    "effects": [],
    "flags": {},
    "img": "systems/sf2e/icons/features/feats/feats.webp",
    "name": "Call Of The Green Man",
    "type": "feat"
}
