{
    "_id": "qQh8wnslOagixxD1",
    "data": {
        "actionCategory": {
            "value": ""
        },
        "actionType": {
            "value": "passive"
        },
        "actions": {
            "value": null
        },
        "description": {
            "value": "<p>You've explored enough dusty tombs and hidden vaults to gain a sixth sense about traps, and you sometimes notice them even when you're not trying to. Even if you aren't Searching in exploration mode, you get a check to find traps that normally require you to Search for them. You still need to meet any other requirements to find the trap.</p>"
        },
        "featType": {
            "value": "archetype"
        },
        "level": {
            "value": 4
        },
        "prerequisites": {
            "value": [
                {
                    "value": "Pathfinder Agent Dedication"
                }
            ]
        },
        "rules": [],
        "source": {
            "value": "Pathfinder Lost Omens: World Guide"
        },
        "traits": {
            "custom": "",
            "rarity": {
                "value": "common"
            },
            "value": [
                "archetype"
            ]
        }
    },
    "effects": [],
    "flags": {},
    "img": "systems/sf2e/icons/features/feats/feats.webp",
    "name": "Careful Explorer",
    "type": "feat"
}
