{
    "_id": "vgsMKjAbRDNxT5TK",
    "data": {
        "actionCategory": {
            "value": ""
        },
        "actionType": {
            "value": "action"
        },
        "actions": {
            "value": 2
        },
        "description": {
            "value": "<p>Nothing can keep you from your enemy. @Compendium[sf2e.actionssf2e.Stride]{Stride} twice. During this movement you ignore difficult terrain, greater difficult terrain, and any effects that would impose a penalty to Speed.</p>\n<p>You can attempt an Athletics check instead of an Acrobatics check to @Compendium[sf2e.actionssf2e.Balance]{Balance} when moving across narrow surfaces or uneven ground, using the same DC. This doesn't prevent you from being harmed by hazardous terrain.</p>\n<p>You can increase the number of actions this activity takes to 3 to Stride three times instead.</p>"
        },
        "featType": {
            "value": "class"
        },
        "level": {
            "value": 10
        },
        "prerequisites": {
            "value": []
        },
        "rules": [],
        "source": {
            "value": "Pathfinder Advanced Player's Guide"
        },
        "traits": {
            "custom": "",
            "rarity": {
                "value": "common"
            },
            "value": [
                "barbarian",
                "rage"
            ]
        }
    },
    "effects": [],
    "flags": {},
    "img": "systems/sf2e/icons/features/feats/feats.webp",
    "name": "Determined Dash",
    "type": "feat"
}
