{
    "_id": "5cYFHKQK6OZCwavI",
    "data": {
        "actionCategory": {
            "value": ""
        },
        "actionType": {
            "value": "passive"
        },
        "actions": {
            "value": null
        },
        "description": {
            "value": "<p>When you're on a case, you stay watchful and resolute to avoid tricks your suspect might pull.</p>\n<p>You gain your circumstance bonus from @Compendium[sf2e.actionssf2e.Pursue a Lead]{Pursue a Lead} on saving throws (and their DCs, as normal) against the subject of a lead, and you can use @Compendium[sf2e.actionssf2e.Clue In]{Clue In} to assist an ally's saving throw against that subject.</p>\n<p>@Compendium[sf2e.feat-effects.Effect: Clue In (Detective's Readiness)]{Effect: Clue In (Detective's Readiness)}</p>"
        },
        "featType": {
            "value": "class"
        },
        "level": {
            "value": 4
        },
        "location": "",
        "prerequisites": {
            "value": []
        },
        "rules": [
            {
                "key": "FlatModifier",
                "label": "Pursue a Lead (Detective's Readiness)",
                "predicate": {
                    "all": [
                        "pursue-a-lead"
                    ]
                },
                "roll-options": [
                    "all"
                ],
                "selector": "saving-throw",
                "type": "circumstance",
                "value": {
                    "brackets": [
                        {
                            "end": 8,
                            "value": 1
                        },
                        {
                            "start": 9,
                            "value": 2
                        }
                    ]
                }
            }
        ],
        "source": {
            "value": "Pathfinder Advanced Player's Guide"
        },
        "traits": {
            "custom": "",
            "rarity": {
                "value": "common"
            },
            "value": [
                "investigator"
            ]
        }
    },
    "effects": [],
    "flags": {},
    "img": "systems/sf2e/icons/features/feats/feats.webp",
    "name": "Detective's Readiness",
    "type": "feat"
}
