{
    "_id": "mf2cdCRV8uowOMOm",
    "data": {
        "actionCategory": {
            "value": ""
        },
        "actionType": {
            "value": "reaction"
        },
        "actions": {
            "value": null
        },
        "description": {
            "value": "<p><strong>Trigger</strong> A creature within your reach critically fails a Strike against you.</p>\n<p><strong>Requirements</strong> You are benefiting from @Compendium[sf2e.feats-srd.Dueling Parry (Fighter)]{Dueling Parry}.</p>\n<hr />\n<p>You riposte against your flailing enemy. Make a melee Strike against or attempt to @Compendium[sf2e.actionssf2e.Disarm]{Disarm} the triggering creature.</p>"
        },
        "featType": {
            "value": "class"
        },
        "level": {
            "value": 8
        },
        "prerequisites": {
            "value": [
                {
                    "value": "Dueling Parry"
                }
            ]
        },
        "rules": [],
        "source": {
            "value": "Pathfinder Core Rulebook"
        },
        "traits": {
            "custom": "",
            "rarity": {
                "value": "common"
            },
            "value": [
                "fighter"
            ]
        }
    },
    "effects": [],
    "flags": {},
    "img": "systems/sf2e/icons/features/feats/feats.webp",
    "name": "Dueling Riposte",
    "type": "feat"
}
