{
    "_id": "zfnZki2CxmZXdNBO",
    "data": {
        "actionCategory": {
            "value": "defensive"
        },
        "actionType": {
            "value": "reaction"
        },
        "actions": {
            "value": null
        },
        "description": {
            "value": "<p><strong>Trigger</strong> You would take damage.</p>\n<p><strong>Requirements</strong> You are in Wild Winds stance.</p>\n<hr />\n<p>You gain resistance to electricity equal to your level until the start of your next turn. If the triggering damage was electricity, this resistance applies to it. If the triggering damage was from a melee attack, the attacker takes [[/r 3d6 #electricity]]{3d6 electricity damage}.</p>\n<p><strong>Special</strong> This feat has the trait corresponding to the tradition of ki spells you cast, either divine or occult.</p>"
        },
        "featType": {
            "value": "class"
        },
        "level": {
            "value": 16
        },
        "location": "",
        "prerequisites": {
            "value": [
                {
                    "value": "Wild Winds Initiate"
                }
            ]
        },
        "rules": [],
        "source": {
            "value": "Pathfinder #167: Ready? Fight!"
        },
        "traits": {
            "custom": "",
            "rarity": {
                "value": "common"
            },
            "value": [
                "electricity",
                "evocation",
                "monk"
            ]
        }
    },
    "effects": [],
    "flags": {},
    "img": "systems/sf2e/icons/default-icons/feats.webp",
    "name": "Electric Counter",
    "type": "feat"
}
