{
    "_id": "eEVZ19G2BAnHQZpa",
    "data": {
        "actionCategory": {
            "value": ""
        },
        "actionType": {
            "value": "passive"
        },
        "actions": {
            "value": null
        },
        "description": {
            "value": "<p>Your malfunctioning emotional processors make it difficult for you to feel strong emotions. You gain a +1 circumstance bonus to saving throws against emotion and fear effects. If you roll a success on a saving throw against an emotion or fear effect, you get a critical success instead.</p>"
        },
        "featType": {
            "value": "ancestry"
        },
        "level": {
            "value": 1
        },
        "location": "",
        "prerequisites": {
            "value": []
        },
        "rules": [
            {
                "key": "FlatModifier",
                "label": "Emotionless (vs. emotion and fear effects)",
                "predicate": {
                    "any": [
                        "emotion",
                        "fear"
                    ]
                },
                "selector": "saving-throw",
                "type": "circumstance",
                "value": 1
            },
            {
                "key": "Note",
                "predicate": {
                    "any": [
                        "emotion",
                        "fear"
                    ]
                },
                "selector": "saving-throw",
                "text": "<p class='compact-text'><strong>{item|name}</strong> When you roll a success on a save against an emotion or fear effect, you get a critical success instead.</p>"
            },
            {
                "adjustment": {
                    "success": "one-degree-better"
                },
                "key": "AdjustDegreeOfSuccess",
                "predicate": {
                    "any": [
                        "emotion",
                        "fear"
                    ]
                },
                "selector": "saving-throw",
                "type": "save"
            }
        ],
        "source": {
            "value": "Pathfinder Lost Omens: Ancestry Guide"
        },
        "traits": {
            "custom": "",
            "rarity": {
                "value": "common"
            },
            "value": [
                "android"
            ]
        }
    },
    "effects": [],
    "flags": {},
    "img": "systems/sf2e/icons/features/feats/feats.webp",
    "name": "Emotionless",
    "type": "feat"
}
