{
    "_id": "VbHuOvF1MM9ls6Tg",
    "data": {
        "actionCategory": {
            "value": ""
        },
        "actionType": {
            "value": "passive"
        },
        "actions": {
            "value": null
        },
        "description": {
            "value": "<p>You're one of Hei Feng's chosen people and have the authority of the Celestial Court on your side. Once per day, you can cast a 6th-level @Compendium[sf2e.spells-srd.Spirit Blast]{Spirit Blast} as a divine innate spell. In addition, you gain resistance 5 to both good and evil damage.</p>"
        },
        "featType": {
            "value": "ancestry"
        },
        "level": {
            "value": 17
        },
        "location": "",
        "prerequisites": {
            "value": []
        },
        "rules": [],
        "source": {
            "value": "Pathfinder Lost Omens: Ancestry Guide"
        },
        "traits": {
            "custom": "",
            "rarity": {
                "value": "common"
            },
            "value": [
                "tengu"
            ]
        }
    },
    "effects": [],
    "flags": {},
    "img": "systems/sf2e/icons/features/feats/feats.webp",
    "name": "Favor Of Heaven",
    "type": "feat"
}
