{
    "_id": "Hey5rucsel7apOOi",
    "data": {
        "actionCategory": {
            "value": "defensive"
        },
        "actionType": {
            "value": "passive"
        },
        "actions": {
            "value": null
        },
        "description": {
            "value": "<p>The most important thing you've learned living with fear is how to overcome it. When you roll a success on a saving throw against a fear effect, you get a critical success instead. In addition, you gain a +1 circumstance bonus to Will saves against fear effects and a +2 circumstance bonus to your Will DC against attempts to Demoralize you.</p>"
        },
        "featType": {
            "value": "ancestry"
        },
        "level": {
            "value": 1
        },
        "location": "",
        "prerequisites": {
            "value": []
        },
        "rules": [
            {
                "key": "FlatModifier",
                "label": "Goloma Courage",
                "predicate": {
                    "all": [
                        "fear"
                    ]
                },
                "selector": "will",
                "type": "status",
                "value": 1
            },
            {
                "adjustment": {
                    "success": "one-degree-better"
                },
                "key": "AdjustDegreeOfSuccess",
                "predicate": {
                    "all": [
                        "fear"
                    ]
                },
                "selector": "will",
                "type": "save"
            },
            {
                "key": "Note",
                "predicate": {
                    "all": [
                        "fear"
                    ]
                },
                "selector": "saving-throw",
                "text": "<p class='compact-text'><strong>{item|name}</strong> When you roll a success on a saving throw against a fear effect, you get a critical success instead.</p>"
            }
        ],
        "source": {
            "value": "Pathfinder Lost Omens: The Mwangi Expanse"
        },
        "traits": {
            "custom": "",
            "rarity": {
                "value": "common"
            },
            "value": [
                "goloma"
            ]
        }
    },
    "effects": [],
    "flags": {},
    "img": "systems/sf2e/icons/default-icons/feats.webp",
    "name": "Goloma Courage",
    "type": "feat"
}
