{
    "_id": "kZdcoaTD849QalR9",
    "data": {
        "actionCategory": {
            "value": ""
        },
        "actionType": {
            "value": "passive"
        },
        "actions": {
            "value": null
        },
        "description": {
            "value": "<p>Your faith enhances your ability to remove conditions.</p>\n<p>When you use @Compendium[sf2e.feats-srd.Mercy]{Mercy}, you can instead attempt to counteract the @Compendium[sf2e.conditionitems.Blinded]{Blinded}, @Compendium[sf2e.conditionitems.Deafened]{Deafened}, @Compendium[sf2e.conditionitems.Sickened]{Sickened}, or @Compendium[sf2e.conditionitems.Slowed]{Slowed} conditions.</p>"
        },
        "featType": {
            "value": "class"
        },
        "level": {
            "value": 8
        },
        "location": "",
        "prerequisites": {
            "value": [
                {
                    "value": "Mercy"
                }
            ]
        },
        "rules": [],
        "source": {
            "value": "Pathfinder Core Rulebook"
        },
        "traits": {
            "custom": "",
            "rarity": {
                "value": "common"
            },
            "value": [
                "champion"
            ]
        }
    },
    "effects": [],
    "flags": {},
    "img": "systems/sf2e/icons/features/feats/feats.webp",
    "name": "Greater Mercy",
    "type": "feat"
}
