{
    "_id": "bjNeSAldeTzRcEaQ",
    "data": {
        "actionCategory": {
            "value": ""
        },
        "actionType": {
            "value": "passive"
        },
        "actions": {
            "value": null
        },
        "description": {
            "value": "<p>You weave dispelling energy into a spell, sending both effects at a foe.</p>\n<p>If your next action is to cast a single-target spell against a creature, and you either hit the foe with the spell attack roll or the foe fails its saving throw, you can cast @Compendium[sf2e.spells-srd.Dispel Magic]{Dispel Magic} on the foe as a free action, expending a spell slot as normal and targeting one spell effect affecting the foe.</p>"
        },
        "featType": {
            "value": "class"
        },
        "level": {
            "value": 14
        },
        "location": "",
        "prerequisites": {
            "value": [
                {
                    "value": "dispel magic in your spell repertoire"
                }
            ]
        },
        "rules": [],
        "source": {
            "value": "Pathfinder Core Rulebook"
        },
        "traits": {
            "custom": "",
            "rarity": {
                "value": "common"
            },
            "value": [
                "metamagic",
                "sorcerer"
            ]
        }
    },
    "effects": [],
    "flags": {},
    "img": "systems/sf2e/icons/features/feats/feats.webp",
    "name": "Interweave Dispel",
    "type": "feat"
}
