{
    "_id": "CZXhJS55rG5H6PpB",
    "data": {
        "actionCategory": {
            "value": ""
        },
        "actionType": {
            "value": "passive"
        },
        "actions": {
            "value": null
        },
        "description": {
            "value": "<p>You gain the on the case class feature, which grants you both the @Compendium[sf2e.actionssf2e.Pursue a Lead]{Pursue a Lead} activity and @Compendium[sf2e.actionssf2e.Clue In]{Clue In} reaction. You become trained in Society and another skill of your choice. If you were already trained in Society, you instead become trained in an additional skill of your choice. You also become trained in investigator class DC.</p>\n<p><strong>Special</strong> You can't select another dedication feat until you have gained two other feats from the investigator archetype.</p>"
        },
        "featType": {
            "value": "archetype"
        },
        "level": {
            "value": 2
        },
        "location": "",
        "prerequisites": {
            "value": [
                {
                    "value": "Intelligence 14"
                }
            ]
        },
        "rules": [
            {
                "key": "ActiveEffectLike",
                "mode": "upgrade",
                "path": "data.skills.soc.rank",
                "value": 1
            },
            {
                "key": "ActiveEffectLike",
                "mode": "upgrade",
                "path": "flags.sf2e.rollOptions.all.investigator-dedication",
                "value": 1
            }
        ],
        "source": {
            "value": "Pathfinder Advanced Player's Guide"
        },
        "traits": {
            "custom": "",
            "rarity": {
                "value": "common"
            },
            "value": [
                "archetype",
                "dedication",
                "multiclass"
            ]
        }
    },
    "effects": [],
    "flags": {},
    "img": "systems/sf2e/icons/features/feats/feats.webp",
    "name": "Investigator Dedication",
    "type": "feat"
}
