{
    "_id": "m7aW56wExv2ieMFL",
    "data": {
        "actionCategory": {
            "value": ""
        },
        "actionType": {
            "value": "action"
        },
        "actions": {
            "value": 2
        },
        "description": {
            "value": "<p><strong>Frequency</strong> once per day</p>\n<hr />\n<p>You summon an aura of swirling wind and lightning.</p>\n<p>For 1 minute, you gain @Compendium[sf2e.conditionitems.Concealed]{Concealment} against creatures more than 5 feet away, and any creature that ends its turn within 5 feet of you suffers [[/r 1d12 #electricity]]{1d12 electricity damage} damage (basic Reflex save using your class DC or spell DC, whichever is higher).</p>\n<p>At [[/r 2d12 #electricity]]{13th} and [[/r 3d12 #electricity]]{17th} level, this damage increases by 1d12.</p>"
        },
        "featType": {
            "value": "ancestry"
        },
        "level": {
            "value": 9
        },
        "location": "",
        "prerequisites": {
            "value": [
                {
                    "value": "Virga May"
                }
            ]
        },
        "rules": [],
        "source": {
            "value": ""
        },
        "traits": {
            "custom": "",
            "rarity": {
                "value": "common"
            },
            "value": [
                "changeling",
                "evocation",
                "primal"
            ]
        }
    },
    "effects": [],
    "flags": {},
    "img": "systems/sf2e/icons/features/feats/feats.webp",
    "name": "Invoke The Elements (Virga May)",
    "type": "feat"
}
