{
    "_id": "Aeea44xyJqYArFun",
    "data": {
        "actionCategory": {
            "value": ""
        },
        "actionType": {
            "value": "passive"
        },
        "actions": {
            "value": null
        },
        "description": {
            "value": "<p>You can have up to two animal companions active at once. However, when you do, it's slightly more difficult to @Compendium[sf2e.actionssf2e.Command an Animal]{Command} them. If you don't Command either of your companions, one of the two (your choice) can still use 1 action on your turn to @Compendium[sf2e.actionssf2e.Stride]{Stride} or @Compendium[sf2e.actionssf2e.Strike]{Strike}, as per Mature Beastmaster Companion, but not both.</p>\n<p>When you Command an Animal, either choose one of the companions to take 2 actions, as normal, or else both companions can take 1 action to Stride or Strike. Either way, you can't Command an Animal to make either companion act again until your next turn.</p>"
        },
        "featType": {
            "value": "archetype"
        },
        "level": {
            "value": 16
        },
        "location": "",
        "prerequisites": {
            "value": [
                {
                    "value": "Mature Beastmaster Companion"
                },
                {
                    "value": "you have multiple animal companions"
                }
            ]
        },
        "rules": [],
        "source": {
            "value": "Pathfinder Advanced Player's Guide"
        },
        "traits": {
            "custom": "",
            "rarity": {
                "value": "uncommon"
            },
            "value": [
                "archetype"
            ]
        }
    },
    "effects": [],
    "flags": {},
    "img": "systems/sf2e/icons/features/feats/feats.webp",
    "name": "Lead The Pack",
    "type": "feat"
}
