{
    "_id": "itjTPh76mZfJCBxQ",
    "data": {
        "actionCategory": {
            "value": ""
        },
        "actionType": {
            "value": "passive"
        },
        "actions": {
            "value": null
        },
        "description": {
            "value": "<p>You are adept at moving through marshy terrain. When you use the @Compendium[sf2e.actionssf2e.Step]{Step} action, you can ignore difficult terrain caused by flooding, swamps, or quicksand. In addition, when you use the Acrobatics skill to @Compendium[sf2e.actionssf2e.Balance]{Balance} on narrow surfaces or uneven marshy ground, you aren't @Compendium[sf2e.conditionitems.Flat-Footed]{Flat-Footed}, and if you roll a success on the Acrobatics check, you get a critical success instead.</p>"
        },
        "featType": {
            "value": "ancestry"
        },
        "level": {
            "value": 1
        },
        "prerequisites": {
            "value": [
                {
                    "value": "You have a swim Speed"
                }
            ]
        },
        "rules": [],
        "source": {
            "value": "Pathfinder Lost Omens: Character Guide"
        },
        "traits": {
            "custom": "",
            "rarity": {
                "value": "common"
            },
            "value": [
                "lizardfolk"
            ]
        }
    },
    "effects": [],
    "flags": {},
    "img": "systems/sf2e/icons/features/feats/feats.webp",
    "name": "Marsh Runner",
    "type": "feat"
}
