{
    "_id": "TPX0fm9wxndpIqpk",
    "data": {
        "actionCategory": {
            "value": ""
        },
        "actionType": {
            "value": "passive"
        },
        "actions": {
            "value": null
        },
        "description": {
            "value": "<p>Much like morrignas, you feel an affinity for spiders. You can cast @Compendium[sf2e.spells-srd.Animal Messenger]{Animal Messenger (spiders only)}, @Compendium[sf2e.spells-srd.Speak with Animals]{Speak with Animals (spiders only)}, and @Compendium[sf2e.spells-srd.Spider Climb]{Spider Climb} each once per day as 2nd-level divine innate spells.</p>"
        },
        "featType": {
            "value": "ancestry"
        },
        "level": {
            "value": 9
        },
        "location": "",
        "prerequisites": {
            "value": []
        },
        "rules": [],
        "source": {
            "value": "Pathfinder Lost Omens: Ancestry Guide"
        },
        "traits": {
            "custom": "",
            "rarity": {
                "value": "common"
            },
            "value": [
                "duskwalker"
            ]
        }
    },
    "effects": [],
    "flags": {},
    "img": "systems/sf2e/icons/features/feats/feats.webp",
    "name": "Morrigna's Spider Affinity",
    "type": "feat"
}
