{
    "_id": "z2ptq23nNBOeEI7H",
    "data": {
        "actionCategory": {
            "value": ""
        },
        "actionType": {
            "value": "free"
        },
        "actions": {
            "value": null
        },
        "description": {
            "value": "<p><strong>Frequency</strong> once per day</p>\n<hr />\n<p>If your next action is to cast a class cantrip or a class spell that is at least 2 levels lower than the highest-level class spell slot you have, reduce the number of actions to cast it by 1 (minimum 1 action).</p>"
        },
        "featType": {
            "value": "class"
        },
        "level": {
            "value": 10
        },
        "prerequisites": {
            "value": []
        },
        "rules": [],
        "source": {
            "value": "Pathfinder Advanced Player's Guide"
        },
        "traits": {
            "custom": "",
            "rarity": {
                "value": "common"
            },
            "value": [
                "bard",
                "concentrate",
                "metamagic",
                "oracle",
                "sorcerer",
                "witch",
                "wizard"
            ]
        }
    },
    "effects": [],
    "flags": {},
    "img": "systems/sf2e/icons/features/feats/feats.webp",
    "name": "Quickened Casting",
    "type": "feat"
}
