{
    "_id": "uotQ9yqetPoAWrfW",
    "data": {
        "actionCategory": {
            "value": ""
        },
        "actionType": {
            "value": "passive"
        },
        "actions": {
            "value": null
        },
        "description": {
            "value": "<p>You can riposte almost without a thought. At the start of each of your turns when you regain your actions, you gain an additional reaction that can be used only to perform an @Compendium[sf2e.actionssf2e.Opportune Riposte]{Opportune Riposte}.</p>"
        },
        "featType": {
            "value": "class"
        },
        "level": {
            "value": 10
        },
        "location": "",
        "prerequisites": {
            "value": [
                {
                    "value": "Opportune Riposte"
                }
            ]
        },
        "rules": [],
        "source": {
            "value": "Pathfinder Advanced Player's Guide"
        },
        "traits": {
            "custom": "",
            "rarity": {
                "value": "common"
            },
            "value": [
                "swashbuckler"
            ]
        }
    },
    "effects": [],
    "flags": {},
    "img": "systems/sf2e/icons/features/feats/feats.webp",
    "name": "Reflexive Riposte",
    "type": "feat"
}
