{
    "_id": "e9NcDk6ds5YebGvb",
    "data": {
        "actionCategory": {
            "value": ""
        },
        "actionType": {
            "value": "reaction"
        },
        "actions": {
            "value": null
        },
        "description": {
            "value": "<p><strong>Trigger</strong> An adjacent creature you are hunting attempts to move away from you using an action that has the move trait</p>\n<hr />\n<p>Your hunted prey cannot escape your relentless pursuit. Stride up to your Speed in tandem with the triggering creature, remaining adjacent to the foe throughout its movement until it stops moving or you run out of movement. You can ignore difficult terrain during this movement unless the difficult terrain is caused by a magical effect.</p>"
        },
        "featType": {
            "value": "class"
        },
        "level": {
            "value": 2
        },
        "prerequisites": {
            "value": []
        },
        "rules": [],
        "source": {
            "value": "Pathfinder Adventure: The Fall of Plaguestone"
        },
        "traits": {
            "custom": "",
            "rarity": {
                "value": "common"
            },
            "value": [
                "move",
                "ranger"
            ]
        }
    },
    "effects": [],
    "flags": {},
    "img": "systems/sf2e/icons/features/feats/feats.webp",
    "name": "Relentless Stalker",
    "type": "feat"
}
