{
    "_id": "AYByEEgPXk3QbCiF",
    "data": {
        "actionCategory": {
            "value": "offensive"
        },
        "actionType": {
            "value": "reaction"
        },
        "actions": {
            "value": null
        },
        "description": {
            "value": "<p><strong>Trigger</strong> You make a Strike with a weapon of light bulk.</p>\n<p>You quickly hide your weapon to make it difficult to pin the attack on you. You attempt to Conceal an Object to hide the triggering weapon. Your Stealth check is compared to the Perception DC of all creatures within 30 feet that can see you. You automatically succeed against creatures farther than 30 feet. The target of your Strike gains a +4 circumstance bonus to their Perception DC for this check. If your Stealth check is a success, you hide your weapon so well that the creature can't clearly determine where the attack originated.</p>"
        },
        "featType": {
            "value": "archetype"
        },
        "level": {
            "value": 10
        },
        "location": "",
        "prerequisites": {
            "value": [
                {
                    "value": "Golden League Xun Dedication"
                },
                {
                    "value": "expert in Stealth"
                }
            ]
        },
        "rules": [],
        "source": {
            "value": "Pathfinder #167: Ready? Fight!"
        },
        "traits": {
            "custom": "",
            "rarity": {
                "value": "uncommon"
            },
            "value": [
                "archetype"
            ]
        }
    },
    "effects": [],
    "flags": {},
    "img": "systems/sf2e/icons/default-icons/feats.webp",
    "name": "Silent Sting",
    "type": "feat"
}
