{
    "_id": "cEu8BUS41dlPyPGW",
    "data": {
        "actionCategory": {
            "value": ""
        },
        "actionType": {
            "value": "reaction"
        },
        "actions": {
            "value": null
        },
        "description": {
            "value": "<p><strong>Frequency</strong> once per day</p>\n<p><strong>Trigger</strong> You fail, but don't critically fail, a Perception check or a skill check.</p>\n<hr />\n<p>Though no one sees them and only you can hear them, the spirits around you constantly chatter, save when you are raging. Sometimes they're even helpful. You can heed the spirits' guidance to reroll the triggering check, using the second result even if it's worse.</p>"
        },
        "featType": {
            "value": "class"
        },
        "level": {
            "value": 4
        },
        "prerequisites": {
            "value": [
                {
                    "value": "spirit instinct"
                }
            ]
        },
        "rules": [],
        "source": {
            "value": "Pathfinder Advanced Player's Guide"
        },
        "traits": {
            "custom": "",
            "rarity": {
                "value": "common"
            },
            "value": [
                "barbarian",
                "concentrate",
                "fortune"
            ]
        }
    },
    "effects": [],
    "flags": {},
    "img": "systems/sf2e/icons/features/feats/feats.webp",
    "name": "Spiritual Guides",
    "type": "feat"
}
