{
    "_id": "Gz9NQBjSDRQP8YTY",
    "data": {
        "actionCategory": {
            "value": ""
        },
        "actionType": {
            "value": "passive"
        },
        "actions": {
            "value": null
        },
        "description": {
            "value": "<p>You can attach a scroll to your weapon or <em>@Compendium[sf2e.equipment-srd.Handwraps of Mighty Blows]{Handwraps of Mighty Blows}</em> to blend its spell into an attack, carefully folding it around a part of the weapon or sealing it to the weapon's surface. Attaching a scroll requires using the @Compendium[sf2e.actionssf2e.Affix a Talisman]{Affix a Talisman} action. You can have only one scroll affixed to a weapon at a time, and you can't have both a talisman and scroll attached.</p>\n<p>You can Cast the Spell from the scroll as part of a Spellstrike, assuming the spell is one you could normally use with Spellstrike. You can't Cast the Spell in any other way while it's affixed, though you can use Affix a Talisman again to remove the scroll and use it as a normal—if a bit crumpled-scroll.</p>"
        },
        "featType": {
            "value": "class"
        },
        "level": {
            "value": 4
        },
        "location": "",
        "prerequisites": {
            "value": [
                {
                    "value": "Spellstrike"
                }
            ]
        },
        "rules": [],
        "source": {
            "value": ""
        },
        "traits": {
            "custom": "",
            "rarity": {
                "value": "common"
            },
            "value": [
                "magus"
            ]
        }
    },
    "effects": [],
    "flags": {},
    "img": "systems/sf2e/icons/features/feats/feats.webp",
    "name": "Striker's Scroll",
    "type": "feat"
}
