{
    "_id": "Uof5QNeGklGnks1h",
    "data": {
        "actionCategory": {
            "value": ""
        },
        "actionType": {
            "value": "passive"
        },
        "actions": {
            "value": null
        },
        "description": {
            "value": "<p>Your senses are peerless. You gain a +2 circumstance bonus to Perception checks, and you gain low-light vision. If you already have low-light vision, gain darkvision instead. Furthermore, when you target an enemy, you automatically succeed at the flat check if that enemy is concealed, hidden, or undetected.</p>\n<hr />\n<p><em>Note: this version of the feat does not modify vision. See @Compendium[sf2e.feats-srd.Superior Sight (Darkvision)]{Superior Sight (Darkvision)} or @Compendium[sf2e.feats-srd.Superior Sight (Low-Light Vision)]{Superior Sight (Low-Light Vision)} if you need the feature to also grant you a new sense.</em></p>"
        },
        "featType": {
            "value": "class"
        },
        "level": {
            "value": 20
        },
        "location": "",
        "prerequisites": {
            "value": []
        },
        "rules": [
            {
                "key": "FlatModifier",
                "label": "Superior Sight",
                "selector": "perception",
                "type": "circumstance",
                "value": 2
            }
        ],
        "source": {
            "value": "Pathfinder #150: Broken Promises"
        },
        "traits": {
            "custom": "",
            "rarity": {
                "value": "uncommon"
            },
            "value": [
                "ranger"
            ]
        }
    },
    "effects": [],
    "flags": {},
    "img": "systems/sf2e/icons/features/feats/feats.webp",
    "name": "Superior Sight",
    "type": "feat"
}
