{
    "_id": "RMSVWMFoLUk0P1cC",
    "data": {
        "actionCategory": {
            "value": ""
        },
        "actionType": {
            "value": "action"
        },
        "actions": {
            "value": 1
        },
        "description": {
            "value": "<p>You capture transformative fragments of magic and slam them into the ground, creating a shock wave that alters your surroundings. If your next action is to Cast a non-cantrip transmutation Spell, either each space adjacent to you becomes difficult terrain, or each space adjacent to you is no longer difficult terrain. This doesn't have any effect on greater difficult terrain and doesn't remove the damaging effects of hazardous terrain.</p>"
        },
        "featType": {
            "value": "class"
        },
        "level": {
            "value": 16
        },
        "prerequisites": {
            "value": []
        },
        "rules": [],
        "source": {
            "value": "Pathfinder Advanced Player's Guide"
        },
        "traits": {
            "custom": "",
            "rarity": {
                "value": "common"
            },
            "value": [
                "concentrate",
                "earth",
                "metamagic",
                "sorcerer",
                "transmutation"
            ]
        }
    },
    "effects": [],
    "flags": {},
    "img": "systems/sf2e/icons/features/feats/feats.webp",
    "name": "Terraforming Spell",
    "type": "feat"
}
