{
    "_id": "VXA50vhIRCBt4vvP",
    "data": {
        "actionCategory": {
            "value": ""
        },
        "actionType": {
            "value": "action"
        },
        "actions": {
            "value": 1
        },
        "description": {
            "value": "<p>You attack with a flashy assault that leaves your target off balance. Make a melee Strike. If you hit and deal damage, the target is @Compendium[sf2e.conditionitems.Flat-Footed]{Flat-Footed} until the end of your next turn.</p>"
        },
        "featType": {
            "value": "class"
        },
        "level": {
            "value": 2
        },
        "location": "",
        "prerequisites": {
            "value": []
        },
        "rules": [],
        "source": {
            "value": "Pathfinder Advanced Player's Guide"
        },
        "traits": {
            "custom": "",
            "rarity": {
                "value": "common"
            },
            "selected": {
                "finisher": "Finisher",
                "swashbuckler": "Swashbuckler"
            },
            "value": [
                "finisher",
                "swashbuckler"
            ]
        }
    },
    "effects": [],
    "flags": {},
    "img": "systems/sf2e/icons/features/feats/feats.webp",
    "name": "Unbalancing Finisher",
    "type": "feat"
}
