{
    "_id": "espST21gwaZQFxpw",
    "data": {
        "actionCategory": {
            "value": ""
        },
        "actionType": {
            "value": "passive"
        },
        "actions": {
            "value": null
        },
        "description": {
            "value": "<p>Your companion is also touched by undeath, a mix of a traditional companion and a skeleton, zombie, or stranger form of unlife. Your companion gains the undead trait instead of the animal trait and gains negative healing. It otherwise uses the normal rules for an animal companion or familiar; that means it can still be affected by many conditions or effects to which most undead are immune.</p>"
        },
        "featType": {
            "value": "ancestry"
        },
        "level": {
            "value": 5
        },
        "location": "",
        "prerequisites": {
            "value": [
                {
                    "value": "an animal companion or familiar"
                }
            ]
        },
        "rules": [],
        "source": {
            "value": "Pathfinder Lost Omens: Ancestry Guide"
        },
        "traits": {
            "custom": "",
            "rarity": {
                "value": "common"
            },
            "value": [
                "dhampir"
            ]
        }
    },
    "effects": [],
    "flags": {},
    "img": "systems/sf2e/icons/features/feats/feats.webp",
    "name": "Undead Companion",
    "type": "feat"
}
