{
    "_id": "AgR1OPBHDvwV5wKD",
    "data": {
        "actionCategory": {
            "value": ""
        },
        "actionType": {
            "value": "reaction"
        },
        "actions": {
            "value": null
        },
        "description": {
            "value": "<p><strong>Trigger</strong> You would take damage from an attack, spell, or other effect.</p>\n<hr />\n<p>Your supernatural connection sometimes causes you to phase from reality when under threat, disappearing for split seconds before reappearing-often surprising you as much as your enemies. Roll a DC 16 flat check. On a success, you gain resistance to all damage equal to your level against the triggering effect, you gain a +2 circumstance bonus to saving throws against that effect until the start of your turn, and you gain the @Compendium[sf2e.conditionitems.Dazzled]{Dazzled} condition for 1 round.</p>"
        },
        "featType": {
            "value": "ancestry"
        },
        "level": {
            "value": 1
        },
        "prerequisites": {
            "value": []
        },
        "rules": [],
        "source": {
            "value": "Pathfinder Lost Omens: Character Guide"
        },
        "traits": {
            "custom": "",
            "rarity": {
                "value": "common"
            },
            "value": [
                "gnome"
            ]
        }
    },
    "effects": [],
    "flags": {},
    "img": "systems/sf2e/icons/features/feats/feats.webp",
    "name": "Unexpected Shift",
    "type": "feat"
}
