{
    "_id": "S8Hda5OtajS9gpqM",
    "data": {
        "actionCategory": {
            "value": ""
        },
        "actionType": {
            "value": "reaction"
        },
        "actions": {
            "value": null
        },
        "description": {
            "value": "<p><strong>Requirements</strong> You're currently affected by a mental effect that you gained by failing, but not critically failing, a saving throw.</p>\n<p><strong>Trigger</strong> Your turn ends.</p>\n<hr />\n<p>To protect the knowledge within your mind from intrusion or erasure, you ward yourself against a mental attack, temporarily delaying its effects. Until the end of your next turn, you ignore a single mental effect that meets the requirement. You can suppress a particular effect using Ward Mind or Cognitive Loophole only once, even if you have both feats.</p>\n<hr />\n<p><strong>Special</strong> You can use this reaction even if the mental effect prevents you from using reactions.</p>"
        },
        "featType": {
            "value": "archetype"
        },
        "level": {
            "value": 16
        },
        "prerequisites": {
            "value": [
                {
                    "value": "Scrollmaster Dedication"
                }
            ]
        },
        "rules": [],
        "source": {
            "value": "Pathfinder Lost Omens: Pathfinder Society Guide"
        },
        "traits": {
            "custom": "",
            "rarity": {
                "value": "common"
            },
            "value": [
                "archetype"
            ]
        }
    },
    "effects": [],
    "flags": {},
    "img": "systems/sf2e/icons/features/feats/feats.webp",
    "name": "Ward Mind",
    "type": "feat"
}
