{
    "_id": "tilqIbJZLqeknTYo",
    "data": {
        "actionCategory": {
            "value": ""
        },
        "actionType": {
            "value": "passive"
        },
        "actions": {
            "value": null
        },
        "description": {
            "value": "<p><strong>Minor Boon</strong>: Once, when you roll a failure on a Diplomacy check, you get a critical success instead.</p>\n<p>Shelyn typically grants this boon only when the Diplomacy check would serve to increase love or offer a chance of redemption.</p>"
        },
        "featType": {
            "value": "deityboon"
        },
        "level": {
            "value": 0
        },
        "prerequisites": {
            "value": []
        },
        "rules": [],
        "source": {
            "value": ""
        },
        "traits": {
            "custom": "",
            "rarity": {
                "value": "common"
            },
            "selected": {},
            "value": []
        }
    },
    "effects": [],
    "flags": {},
    "img": "systems/sf2e/icons/deity/Shelyn.webp",
    "name": "Shelyn - Minor Boon",
    "type": "feat"
}
