{
    "_id": "uDOxq24S7IT2EcXv",
    "data": {
        "description": {
            "value": "<p>Granted by @Compendium[sf2e.spells-srd.Object Memory]{Object Memory}.</p>\n<p>If you touch a weapon, your proficiency rank with that weapon temporarily increases to trained (if it is not already higher).</p>\n<hr />\n<p><strong>Heightened (6th)</strong> Your proficiency rank increases to expert instead of trained.</p>"
        },
        "duration": {
            "expiry": "turn-start",
            "sustained": false,
            "unit": "minutes",
            "value": 1
        },
        "level": {
            "value": 1
        },
        "rules": [
            {
                "key": "EffectTarget",
                "scope": "weapon"
            },
            {
                "ability": "str",
                "key": "FixedProficiency",
                "selector": "{item|data.target}-attack",
                "value": {
                    "brackets": [
                        {
                            "end": 5,
                            "start": 1,
                            "value": "2 + @details.level.value"
                        },
                        {
                            "start": 6,
                            "value": "4 + @details.level.value"
                        }
                    ],
                    "field": "item|data.level.value"
                }
            }
        ],
        "source": {
            "value": ""
        },
        "start": {
            "initiative": null,
            "value": 0
        },
        "target": null,
        "tokenIcon": {
            "show": true
        },
        "traits": {
            "custom": "",
            "rarity": {
                "value": "common"
            },
            "value": []
        }
    },
    "effects": [],
    "flags": {},
    "img": "systems/sf2e/icons/spells/object-memory.webp",
    "name": "Spell Effect: Object Memory (Weapon)",
    "type": "effect"
}
