{
    "_id": "C3RdbEQTvawqKAhw",
    "data": {
        "description": {
            "value": "<p>Granted by @Compendium[sf2e.spells-srd.Tempest Form]{Tempest Form}</p>\n<p>Your body becomes fluid to better suit your surroundings.</p>\n<p>When you cast this spell, choose whether to become air, water, or mist. The spell gains the air trait if you choose air or mist, and the water trait if you choose water or mist.</p>\n<p>You become amorphous, as does your armor. You lose any item bonus to AC and use your proficiency bonus for unarmored defense to determine your AC. You also gain resistance 10 to physical damage and become immune to precision damage. You can slip through tiny cracks and don't need to breathe. You can't cast spells, activate items, or use actions that have the attack or manipulate trait. You also gain the following effects based on your form.</p>\n<p><strong>Water</strong></p>\n<ul>\n<li>You gain a Swim Speed of 20 feet and become @Compendium[sf2e.conditionitems.Invisible]{Invisible} while you are in the water.</li>\n<li>You can electrically charge yourself by taking a single action, which has the manipulate trait. If you do, you are no longer Invisible in the water due to electricity indicating your location, but any creature that makes a melee attack against you takes [[/r 1d6 #electricity]]{1d6 electricity damage}; if it touches you, this is cumulative with the damage from your major curse.</li>\n</ul>\n<hr />\n<p><strong>Heightened (+2)</strong> Increase the resistance by 5 and the electricity damage from the charged water form by 1.</p>"
        },
        "duration": {
            "expiry": "turn-start",
            "sustained": false,
            "unit": "minutes",
            "value": 1
        },
        "level": {
            "value": 6
        },
        "rules": [
            {
                "key": "BaseSpeed",
                "selector": "swim",
                "value": 20
            }
        ],
        "source": {
            "value": ""
        },
        "start": {
            "initiative": null,
            "value": 0
        },
        "target": null,
        "tokenIcon": {
            "show": true
        },
        "traits": {
            "custom": "",
            "rarity": {
                "value": "common"
            },
            "value": []
        }
    },
    "effects": [],
    "flags": {},
    "img": "systems/sf2e/icons/spells/tempest-form.webp",
    "name": "Spell Effect: Tempest Form (Water)",
    "type": "effect"
}
