{
    "_id": "l8HkOKfiUqd3BUwT",
    "data": {
        "description": {
            "value": "<p>Granted by @Compendium[sf2e.spells-srd.Ancestral Form]{Ancestral Form}</p>\n<p>You take the form of your ancestral spirits, becoming @Compendium[sf2e.conditionitems.Invisible]{Invisible} and quasi‑corporeal. You gain resistance 10 to all damage (except force and damage from Strikes with the ghost touch property rune), and this resistance is doubled against non‑magical and precision damage.</p>\n<p>You gain a fly Speed equal to your land Speed; when @Compendium[sf2e.actionssf2e.Fly]{Flying}, moving upward isn't difficult terrain for you. You can't move through solid objects, but you can float through tiny gaps.</p>\n<p>You can't Cast Spells (but you can @Compendium[sf2e.actionssf2e.Sustain a Spell]{Sustain a Spell}), activate items, or use actions that have the attack or manipulate trait.</p>\n<hr />\n<p><strong>Heightened (+2)</strong> The resistance increasse by 5.</p>"
        },
        "duration": {
            "expiry": "turn-start",
            "sustained": true,
            "unit": "minutes",
            "value": 1
        },
        "level": {
            "value": 6
        },
        "rules": [
            {
                "key": "BaseSpeed",
                "selector": "land",
                "value": "@attributes.speed.value"
            }
        ],
        "source": {
            "value": ""
        },
        "start": {
            "initiative": null,
            "value": 0
        },
        "target": null,
        "tokenIcon": {
            "show": true
        },
        "traits": {
            "custom": "",
            "rarity": {
                "value": "common"
            },
            "value": []
        }
    },
    "effects": [],
    "flags": {},
    "img": "systems/sf2e/icons/spells/ancestral-form.webp",
    "name": "Spell Effect: Ancestral Form",
    "type": "effect"
}
