{
    "_id": "ukL9sApDCIWsVL64",
    "data": {
        "attributes": {
            "ac": {
                "value": 10
            },
            "hardness": 0,
            "hasHealth": false,
            "hp": {
                "details": "",
                "max": 0,
                "temp": 0,
                "tempmax": 0,
                "value": 0
            },
            "stealth": {
                "details": "(master)",
                "value": 27
            }
        },
        "creatureType": "",
        "details": {
            "description": "A snapped trip wire causes an alchemical bomb to detonate and blow up part of the tin tub, spilling boiling water all over the trap's victim.",
            "disable": "DC 32 Thievery (master) to safely remove the trip wire from the bomb",
            "isComplex": false,
            "level": {
                "value": 13
            },
            "reset": "",
            "routine": ""
        },
        "saves": {
            "fortitude": {
                "saveDetail": "",
                "value": 0
            },
            "reflex": {
                "saveDetail": "",
                "value": 0
            },
            "will": {
                "saveDetail": "",
                "value": 0
            }
        },
        "source": {
            "value": "Pathfinder #159: All or Nothing"
        },
        "statusEffects": [],
        "traits": {
            "ci": [],
            "di": {
                "custom": "",
                "selected": {},
                "value": []
            },
            "dr": [],
            "dv": [],
            "rarity": {
                "value": "common"
            },
            "size": {
                "value": "med"
            },
            "traits": {
                "custom": "",
                "value": [
                    "mechanical",
                    "trap"
                ]
            }
        }
    },
    "effects": [],
    "flags": {},
    "img": "systems/sf2e/icons/default-icons/hazard.svg",
    "items": [
        {
            "_id": "P2D3nIr4b8QtzEFx",
            "data": {
                "actionCategory": {
                    "value": "offensive"
                },
                "actionType": {
                    "value": "reaction"
                },
                "actions": {
                    "value": null
                },
                "description": {
                    "value": "<p data-visibility=\"gm\"><strong>Trigger</strong> The trip wire is pulled or severed;</p>\n<p><strong>Effect</strong> An acid flask detonates, spraying acid at nearby creatures and causing the tub of boiling water to burst in the same direction.</p>\n<p>All creatures in a 5-foot cone east of the triggered boiling tub trap take [[/r 3d6 #persistent acid]] @Compendium[sf2e.conditionitems.Persistent Damage]{Persistent Acid Damage}, [[/r 3 #acid splash]]{3 acid splash damage}, and [[/r 8d6+20 #fire]]{8d6+20 fire damage} (<span data-pf2-check=\"reflex\" data-pf2-dc=\"31\" data-pf2-traits=\"acid,fire,damaging-effect\" data-pf2-label=\"Overflowing Boiling Water DC\" data-pf2-show-dc=\"gm\">basic Reflex</span> save).</p>"
                },
                "requirements": {
                    "value": ""
                },
                "rules": [],
                "slug": null,
                "source": {
                    "value": ""
                },
                "traits": {
                    "custom": "",
                    "rarity": {
                        "value": "common"
                    },
                    "value": []
                },
                "trigger": {
                    "value": ""
                },
                "weapon": {
                    "value": ""
                }
            },
            "effects": [],
            "flags": {},
            "img": "systems/sf2e/icons/actions/Reaction.webp",
            "name": "Overflowing Boiling Water",
            "sort": 100000,
            "type": "action"
        }
    ],
    "name": "Boiling Tub Trap",
    "token": {
        "disposition": 0,
        "height": 1,
        "img": "systems/sf2e/icons/default-icons/hazard.svg",
        "name": "Boiling Tub Trap",
        "width": 1
    },
    "type": "hazard"
}
