{
    "_id": "qvRlih3u7vK3FYUR",
    "data": {
        "actionCategory": {
            "value": ""
        },
        "actionType": {
            "value": "passive"
        },
        "actions": {
            "value": null
        },
        "description": {
            "value": "<p>The voices of generations past speak to you, and you hear their words. You might resent the constant interruption, or you might revere the spirits of those who came before. Perhaps you hail from a culture with strong ancestral traditions, such as the Shoanti Skoan-Quah (Skull Clan), a traditional dwarven community that worships Torag's family pantheon, or a group that reveres Erastil or Pharasma. You might commune with powerful psychopomps who shepherd souls to the afterlife, with the River of Souls itself, or with those spirits who have become trapped outside of the great cycle of spiritual rebirth. You learn from their whispers and the fragments of their memories, but opening your mind to their knowledge and experience also allows them to meddle in your worldly affairs.</p>\n<p><strong>Mystery Benefit</strong></p>\n<p>The whispers of your ancestors have bestowed additional knowledge upon you. You gain an additional ancestry feat at 1st level and another additional ancestry feat at 11th level. These feats can't be ones that grant physiological effects, such as additional senses or unarmed attacks.</p>\n<p><strong>Trained Skill</strong> Society</p>\n<p><strong>Granted Cantrip</strong> @Compendium[sf2e.spells-srd.Guidance]{Guidance}</p>\n<p><strong>Revelation Spells</strong></p>\n<ul>\n<li>Initial @Compendium[sf2e.spells-srd.Ancestral Touch]{Ancestral Touch};</li>\n<li>Advanced @Compendium[sf2e.spells-srd.Ancestral Defense]{Ancestral Defense};</li>\n<li>Greater @Compendium[sf2e.spells-srd.Ancestral Form]{Ancestral Form}</li>\n</ul>\n<p><strong>Related Domains</strong> death, family</p>\n<h3>Curse of Ancestral Meddling</h3>\n<p>The ancestral spirits you commune with haunt you and meddle with your belongings and actions, either out of a well-intentioned (but ultimately detrimental) attempt to assist you, as punishment for your audacity in circumventing the traditional means of achieving divine power, for their own amusement, or a mixture of the above. Your hair, clothing, and belongings constantly shift and stir, seemingly of their own volition.</p>\n<p><strong>Minor Curse</strong></p>\n<p>One of your ancestors becomes predominant in their meddling. The first time you gain this effect each day, roll [[/r 1d4]] on the list below to determine which type of ancestor becomes predominant. This predominant ancestor guides you to use their preferred type of action. When you try to use one of the types of actions listed for the other ancestors, you must succeed at a DC 4 flat check. On a failure, you spend the action but gain no effect (though you don't lose the spell if you were Casting a Spell). If your action would take 1 minute or longer, it's long enough that you can overcome the meddling, and you don't need to attempt a flat check.</p>\n<p>During combat or another tense, round-by-round encounter, other ancestors wrestle for control of your actions. When you roll initiative, and then at the end of each of your turns during the encounter, roll [[/r 1d4]] and change your predominant ancestor appropriately. Once the encounter ends, you return to the influence of the ancestor you first rolled for the day.</p>\n<p>@Compendium[sf2e.feature-effects.Effect: Minor Martial Ancestor Curse]{Effect: Minor Martial Ancestor Curse}, @Compendium[sf2e.feature-effects.Effect: Minor Skillful Ancestor Curse]{Effect: Minor Skillful Ancestor Curse}, @Compendium[sf2e.feature-effects.Effect: Minor Spellcaster Ancestor Curse]{Effect: Minor Spellcaster Ancestor Curse}</p>\n<p><strong>Moderate Curse</strong></p>\n<p>The flat check DC to use other actions is 6, and you get the moderate curse benefit listed for your predominant ancestor in the list below.</p>\n<p>@Compendium[sf2e.feature-effects.Effect: Moderate Martial Ancestor Curse]{Effect: Moderate Martial Ancestor Curse}, @Compendium[sf2e.feature-effects.Effect: Moderate Skillful Ancestor Curse]{Effect: Moderate Skillful Ancestor Curse}, @Compendium[sf2e.feature-effects.Effect: Moderate Spellcasting Ancestor Curse]{Effect: Moderate Spellcasting Ancestor Curse}</p>\n<p><strong>Major Curse (11th)</strong></p>\n<p>The flat check DC is 8, and you get the major curse benefit listed for your predominant ancestor instead of the moderate curse benefit.</p>\n<p>@Compendium[sf2e.feature-effects.Effect: Major Martial Ancestor Curse]{Effect: Major Martial Ancestor Curse}, @Compendium[sf2e.feature-effects.Effect: Major Skillful Ancestor Curse]{Effect: Major Skillful Ancestor Curse}, @Compendium[sf2e.feature-effects.Effect: Major Spellcasting Ancestor Curse]{Effect: Major Spellcasting Ancestor Curse}</p>\n<hr />\n<h4>Ancestral Influence</h4>\n<ol>\n<li>Martial Ancestor\n<ul>\n<li><strong>Preferred action</strong> Strikes</li>\n<li><strong>Moderate curse benefit</strong> Your Strikes gain a +1 status bonus to attack rolls and a +2 status bonus to damage.</li>\n<li><strong>Major curse benefit</strong> Your Strikes gain a +1 status bonus to attack rolls and a +6 status bonus to damage</li>\n</ul>\n</li>\n<li>Skillful Ancestor\n<ul>\n<li><strong>Preferred action</strong> Perception and Skill actions</li>\n<li><strong>Moderate curse benefit</strong> You gain a +1 status bonus to skill checks and Perception checks.</li>\n<li><strong>Major curse benefit</strong> You gain a +2 status bonus to skill checks and Perception checks.</li>\n</ul>\n</li>\n<li>Spellcasting Ancestor\n<ul>\n<li><strong>Preferred action</strong> Cast a Spell</li>\n<li><strong>Moderate curse benefit</strong> Non-cantrip spells without a duration gain a status bonus to their damage and healing equal to the spell's level.</li>\n<li><strong>Major curse benefit</strong> Non-cantrip spells without a duration gain a status bonus to their damage and healing equal to the spell's level + 3.</li>\n</ul>\n</li>\n<li>You choose which ancestor guides your actions</li>\n</ol>"
        },
        "featType": {
            "value": "classfeature"
        },
        "level": {
            "value": 1
        },
        "location": "",
        "prerequisites": {
            "value": []
        },
        "rules": [
            {
                "key": "ActiveEffectLike",
                "mode": "upgrade",
                "path": "data.skills.soc.rank",
                "value": 1
            }
        ],
        "source": {
            "value": ""
        },
        "traits": {
            "custom": "",
            "rarity": {
                "value": "common"
            },
            "value": [
                "oracle"
            ]
        }
    },
    "effects": [],
    "flags": {},
    "img": "systems/sf2e/icons/features/classes/ancestors-mystery.webp",
    "name": "Ancestors Mystery",
    "type": "feat"
}
