{
    "_id": "eNZnx4LISDNftbx2",
    "data": {
        "actionCategory": {
            "value": ""
        },
        "actionType": {
            "value": "passive"
        },
        "actions": {
            "value": null
        },
        "description": {
            "value": "<p>You concentrate on healing others with alchemy. You start with the formulas for two of the following in your formula book, in addition to your other formulas: @Compendium[sf2e.equipment-srd.Antidote (Lesser)]{Antidote (Lesser)}, @Compendium[sf2e.equipment-srd.Antiplague (Lesser)]{Antiplague (Lesser)}, or @Compendium[sf2e.equipment-srd.Elixir of Life (Minor)]{Elixir of Life (Minor)}.</p>\n<p>Your research field adds a number of formulas to your formula book; these are your signature items. When using a batch of @Compendium[sf2e.classfeatures.Infused Reagents]{Infused Reagents} to create your signature items using @Compendium[sf2e.classfeatures.Advanced Alchemy]{Advanced Alchemy}, you create three items instead of two. Each time you gain a level, you can swap one of your signature items with another formula in your formula book. This new signature item must be on your research field's list of possible signature items.</p>\n<p>As long as your proficiency rank in Medicine is trained or better, you can attempt a Crafting check instead of a Medicine check for any of Medicine's untrained and trained uses.</p>\n<h2 class=\"title\">@Compendium[sf2e.classfeatures.Field Discovery (Chirurgeon)]{Field Discovery}<span style=\"float: right;\">Level 5</span></h2>\n<p>When using Advanced Alchemy to make elixirs of life during your daily preparations, you can create three elixirs with each batch of reagents instead of two.</p>\n<h2 class=\"title\">@Compendium[sf2e.classfeatures.Perpetual Infusions (Chirurgeon)]{Perpetual Infusions}<span style=\"float: right;\">Level 7</span></h2>\n<p>You have learned how to create perpetual alchemical infusions that can provide a near-infinite supply of certain simple items. You gain the ability to create two 1st-level alchemical items using @Compendium[sf2e.classfeatures.Quick Alchemy]{Quick Alchemy} without spending a batch of infused reagents. The items you can select depend on your research field and must be in your formula book.</p>\n<p>Lesser antidote and lesser antiplague.</p>\n<h2 class=\"title\">@Compendium[sf2e.classfeatures.Perpetual Potency (Chirurgeon)]{Perpetual Potency}<span style=\"float: right;\">Level 11</span></h2>\n<p>Your perpetual infusions improve, allowing you to use Quick Alchemy to create more powerful items with no cost. The items you can select depend on your research field and must be in your formula book.</p>\n<p>Moderate @Compendium[sf2e.equipment-srd.Antidote (Moderate)]{Antidote} and @Compendium[sf2e.equipment-srd.Antiplague (Moderate)]{Antiplague}.</p>\n<h2 class=\"title\">@Compendium[sf2e.classfeatures.Greater Field Discovery (Chirurgeon)]{Greater Field Discovery}<span style=\"float: right;\">Level 13</span></h2>\n<p>When you use Quick Alchemy to create any type of elixir of life, the creature drinking the elixir gains the maximum Hit Points possible for that elixir, instead of rolling to determine the number of Hit Points regained.</p>\n<h2 class=\"title\">@Compendium[sf2e.classfeatures.Perpetual Perfection (Chirurgeon)]{Perpetual Perfection}<span style=\"float: right;\">Level 17</span></h2>\n<p>You have perfected your perpetual infusions, allowing you to use Quick Alchemy to create even more powerful items at no cost. The items you can select depend on your research field and must be in your formula book.</p>\n<p>Greater @Compendium[sf2e.equipment-srd.Antidote (Greater)]{Antidote} and @Compendium[sf2e.equipment-srd.Antiplague (Greater)]{Antiplague}.</p>"
        },
        "featType": {
            "value": "classfeature"
        },
        "level": {
            "value": 1
        },
        "location": "",
        "prerequisites": {
            "value": []
        },
        "rules": [],
        "source": {
            "value": ""
        },
        "traits": {
            "custom": "",
            "rarity": {
                "value": "common"
            },
            "value": [
                "alchemist"
            ]
        }
    },
    "effects": [],
    "flags": {},
    "img": "systems/sf2e/icons/features/classes/chirurgeon.webp",
    "name": "Chirurgeon",
    "type": "feat"
}
