{
    "_id": "qMZiTugiLCEmkg8h",
    "data": {
        "actionCategory": {
            "value": ""
        },
        "actionType": {
            "value": "passive"
        },
        "actions": {
            "value": null
        },
        "description": {
            "value": "<p>Through your patron, you gain glimpses of the future and insight into the ever-woven tapestry of time.</p>\n<p><strong>Spell List</strong> occult</p>\n<p><strong>Patron Skill</strong> Occultism</p>\n<p><strong>Hex Cantrip</strong> @Compendium[sf2e.spells-srd.Nudge Fate]{Nudge Fate}</p>\n<p><strong>Granted Spell</strong> @Compendium[sf2e.spells-srd.True Strike]{True Strike}</p>"
        },
        "featType": {
            "value": "classfeature"
        },
        "level": {
            "value": 1
        },
        "location": "",
        "prerequisites": {
            "value": []
        },
        "rules": [
            {
                "key": "ActiveEffectLike",
                "mode": "upgrade",
                "path": "data.skills.occ.rank",
                "value": 1
            }
        ],
        "source": {
            "value": ""
        },
        "traits": {
            "custom": "",
            "rarity": {
                "value": "common"
            },
            "value": [
                "witch"
            ]
        }
    },
    "effects": [],
    "flags": {},
    "img": "systems/sf2e/icons/features/classes/fate.webp",
    "name": "Fate Patron",
    "type": "feat"
}
