{
    "_id": "N2CYUVBELOaZ7lj2",
    "data": {
        "actionCategory": {
            "value": ""
        },
        "actionType": {
            "value": "passive"
        },
        "actions": {
            "value": null
        },
        "description": {
            "value": "<p>Knowledge and information come freely to you. You might use this lore to gain power or perhaps to understand the divine mysteries of the multiverse. You might have a conduit to the fabled Akashic Record, maintain a subtle telepathic connection to the collective subconscious of all living creatures, or follow in the footsteps of deities such as Abadar, Irori, Nethys, Irori's scholarly nephew Gruhastha, the fey triune goddess of fate Magdh, or the lawful aeon god-figure known as the Monad.</p>\n<h3>Curse of Torrential Knowledge</h3>\n<p>You have a link to true divine knowledge, but your mortal mind struggles to process and act on what you know. Loose materials around you, such as dust, grains of rice, and droplets of water, slowly shift to form strange runes or faint indecipherable writing, and you sometimes speak unintelligible truths or statements in unknown languages without realizing it.</p>"
        },
        "featType": {
            "value": "classfeature"
        },
        "level": {
            "value": 2
        },
        "location": "",
        "prerequisites": {
            "value": []
        },
        "rules": [],
        "source": {
            "value": ""
        },
        "traits": {
            "custom": "",
            "rarity": {
                "value": "common"
            },
            "value": [
                "oracle"
            ]
        }
    },
    "effects": [],
    "flags": {},
    "img": "systems/sf2e/icons/features/classes/lore-mystery.webp",
    "name": "Lore Mystery (Multiclass)",
    "type": "feat"
}
