{
    "_id": "70jqXP2eS4tRZ0Ok",
    "data": {
        "actionCategory": {
            "value": ""
        },
        "actionType": {
            "value": "passive"
        },
        "actions": {
            "value": null
        },
        "description": {
            "value": "<p><strong>Sorcerer</strong>: Magical power has improved your body's resiliency. Your proficiency rank for Fortitude saves increases to expert.</p>\n<hr />\n<p><strong>Witch</strong>: Your patron's power boosts your physical resiliency. Your proficiency rank for Fortitude saves increases to expert.</p>"
        },
        "featType": {
            "value": "classfeature"
        },
        "level": {
            "value": 5
        },
        "location": "",
        "prerequisites": {
            "value": []
        },
        "rules": [
            {
                "key": "ActiveEffectLike",
                "mode": "upgrade",
                "path": "data.saves.fortitude.rank",
                "value": 2
            }
        ],
        "source": {
            "value": ""
        },
        "traits": {
            "custom": "",
            "rarity": {
                "value": "common"
            },
            "value": [
                "sorcerer",
                "witch"
            ]
        }
    },
    "effects": [],
    "flags": {},
    "img": "systems/sf2e/icons/features/classes/magical-fortitude.webp",
    "name": "Magical Fortitude (Level 5)",
    "type": "feat"
}
