{
    "_id": "O99eXctsEjEpuBwe",
    "data": {
        "actionCategory": {
            "value": ""
        },
        "actionType": {
            "value": "passive"
        },
        "actions": {
            "value": null
        },
        "description": {
            "value": "<p><strong>Sorcerer:</strong> Training and magic improved your weapon technique. Your proficiency rank for simple weapons and unarmed attacks increases to expert.</p>\n<hr />\n<p><strong>Summoner</strong>: Training and magic improved your weapon technique. Your proficiency rank for simple weapons and unarmed attacks increases to expert. (<em>Note: this is called Simple Weapon Expertise in Secrets of Magic</em>)</p>\n<hr />\n<p><strong>Oracle</strong>: You've dedicated yourself to learning the intricacies of your weapons. Your proficiency ranks for simple weapons and unarmed attacks increase to expert.</p>\n<hr />\n<p><strong>Witch</strong>: Through sheer experience, you've improved your technique with your weapons. Your proficiency ranks for simple weapons and unarmed attacks increase to expert.</p>"
        },
        "featType": {
            "value": "classfeature"
        },
        "level": {
            "value": 11
        },
        "location": "",
        "prerequisites": {
            "value": []
        },
        "rules": [
            {
                "key": "ActiveEffectLike",
                "mode": "upgrade",
                "path": "data.martial.simple.rank",
                "value": 2
            },
            {
                "key": "ActiveEffectLike",
                "mode": "upgrade",
                "path": "data.martial.unarmed.rank",
                "value": 2
            }
        ],
        "source": {
            "value": ""
        },
        "traits": {
            "custom": "",
            "rarity": {
                "value": "common"
            },
            "value": [
                "oracle",
                "sorcerer",
                "summoner",
                "witch"
            ]
        }
    },
    "effects": [],
    "flags": {},
    "img": "systems/sf2e/icons/features/classes/weapon-expertise.webp",
    "name": "Weapon Expertise (Level 11)",
    "type": "feat"
}
