{
    "_id": "mpBOeFrbtx1wMrNn",
    "data": {
        "abilities": {
            "cha": {
                "mod": 0
            },
            "con": {
                "mod": 6
            },
            "dex": {
                "mod": 4
            },
            "int": {
                "mod": -4
            },
            "str": {
                "mod": 7
            },
            "wis": {
                "mod": 4
            }
        },
        "attributes": {
            "ac": {
                "details": "",
                "value": 33
            },
            "allSaves": {
                "value": ""
            },
            "hp": {
                "details": "",
                "max": 225,
                "temp": 0,
                "value": 225
            },
            "initiative": {
                "ability": "perception"
            },
            "perception": {
                "value": 22
            },
            "shield": {
                "ac": 0,
                "brokenThreshold": 0,
                "hardness": 0,
                "max": 0,
                "value": 0
            },
            "speed": {
                "otherSpeeds": [
                    {
                        "exceptions": "",
                        "label": "Burrow",
                        "type": "burrow",
                        "value": "10"
                    }
                ],
                "value": "25"
            }
        },
        "details": {
            "alignment": {
                "value": "N"
            },
            "creatureType": "Animal",
            "flavorText": "<p>The frost worm's single round, red eye gleams prominently at the head of its monstrous mass, white as a winter snowfall. What appears to be a bifurcated lower jaw is actually two spiky parapodia that the worm uses to shovel food into its lamprey-like mouth. An adult frost worm measures 35 feet long and weighs 8,000 pounds.</p>\n<p>A frost worm is an apex predator that uses camouflage, burrowing, and deceit to ambush its prey. When it attacks, a frost worm produces a distinctive, high-pitched trill. Though some survivors of frost worm attacks have compared it to a wailing lament, the trill has a captivating effect on nearby creatures, causing them to stop and listen even as the monstrous creature approaches.</p>\n<p>The cold shed by a frost worm is as dangerous as its trill or its jaws, and while it is not fond of warmer climates, neither is it particularly hampered in such regions. A frost worm that somehow finds itself in temperate or even tropical environs causes the immediate area to chill and ice over with frost over time, creating seemingly impossible pockets of frozen terrain.</p>",
            "level": {
                "value": 12
            },
            "source": {
                "value": "Pathfinder Bestiary 2"
            }
        },
        "resources": {},
        "saves": {
            "fortitude": {
                "saveDetail": "",
                "value": 24
            },
            "reflex": {
                "saveDetail": "",
                "value": 22
            },
            "will": {
                "saveDetail": "",
                "value": 20
            }
        },
        "traits": {
            "attitude": {
                "value": "hostile"
            },
            "ci": [],
            "di": {
                "custom": "",
                "value": [
                    "cold"
                ]
            },
            "dr": [],
            "dv": [
                {
                    "label": "Fire",
                    "type": "fire",
                    "value": "15"
                }
            ],
            "languages": {
                "custom": "",
                "selected": [],
                "value": []
            },
            "rarity": {
                "value": "common"
            },
            "senses": {
                "value": "darkvision"
            },
            "size": {
                "value": "huge"
            },
            "traits": {
                "custom": "",
                "value": [
                    "animal",
                    "cold"
                ]
            }
        }
    },
    "effects": [],
    "flags": {},
    "img": "systems/sf2e/icons/default-icons/npc.svg",
    "items": [
        {
            "_id": "zcW44MHFdHDFSbQ5",
            "data": {
                "attack": {
                    "value": ""
                },
                "attackEffects": {
                    "value": []
                },
                "bonus": {
                    "value": 25
                },
                "damageRolls": {
                    "0": {
                        "damage": "3d8+10",
                        "damageType": "piercing"
                    }
                },
                "description": {
                    "value": "<p>[[/r 2d6 #persistent cold]] @Compendium[sf2e.conditionitems.Persistent Damage]{Persistent Cold Damage}</p>"
                },
                "rules": [],
                "slug": null,
                "source": {
                    "value": ""
                },
                "traits": {
                    "custom": "",
                    "rarity": {
                        "value": "common"
                    },
                    "value": []
                },
                "weaponType": {
                    "value": "melee"
                }
            },
            "effects": [],
            "flags": {},
            "img": "systems/sf2e/icons/default-icons/melee.svg",
            "name": "Jaws",
            "sort": 100000,
            "type": "melee"
        },
        {
            "_id": "9bMQUXIt8V0ivYCg",
            "data": {
                "actionCategory": {
                    "value": "interaction"
                },
                "actionType": {
                    "value": "passive"
                },
                "actions": {
                    "value": null
                },
                "description": {
                    "value": "<p>A monster with darkvision can see perfectly well in areas of darkness and dim light, though such vision is in black and white only. Some forms of magical darkness, such as a 4th-level @Compendium[sf2e.spells-srd.Darkness]{Darkness} spell, block normal darkvision. A monster with @Compendium[sf2e.bestiary-ability-glossary-srd.Greater Darkvision]{Greater Darkvision}, however, can see through even these forms of magical darkness.</p>"
                },
                "requirements": {
                    "value": ""
                },
                "rules": [],
                "slug": "darkvision",
                "source": {
                    "value": ""
                },
                "traits": {
                    "custom": "",
                    "rarity": {
                        "value": "common"
                    },
                    "value": []
                },
                "trigger": {
                    "value": ""
                },
                "weapon": {
                    "value": ""
                }
            },
            "effects": [],
            "flags": {
                "core": {
                    "sourceId": "Compendium.sf2e.bestiary-ability-glossary-srd.qCCLZhnp2HhP3Ex6"
                }
            },
            "img": "systems/sf2e/icons/default-icons/action.svg",
            "name": "Darkvision",
            "sort": 200000,
            "type": "action"
        },
        {
            "_id": "MPJFQqOrPfQloQLr",
            "data": {
                "actionCategory": {
                    "value": "defensive"
                },
                "actionType": {
                    "value": "passive"
                },
                "actions": {
                    "value": null
                },
                "description": {
                    "value": "<p>When a frost worm dies, it explodes in a 100-foot burst of searing cold blood. All creatures and objects in range take [[/r 10d8 #cold]]{10d8 cold damage} (<span data-pf2-check=\"reflex\" data-pf2-dc=\"29\" data-pf2-traits=\"cold,evocation,primal,damaging-effect\" data-pf2-label=\"Death Throes DC\" data-pf2-show-dc=\"gm\">basic Reflex</span> save).</p>"
                },
                "requirements": {
                    "value": ""
                },
                "rules": [],
                "slug": null,
                "source": {
                    "value": ""
                },
                "traits": {
                    "custom": "",
                    "rarity": {
                        "value": "common"
                    },
                    "value": [
                        "cold",
                        "evocation",
                        "primal"
                    ]
                },
                "trigger": {
                    "value": ""
                },
                "weapon": {
                    "value": ""
                }
            },
            "effects": [],
            "flags": {},
            "img": "systems/sf2e/icons/default-icons/mystery-man.svg",
            "name": "Death Throes",
            "sort": 300000,
            "type": "action"
        },
        {
            "_id": "GFW3IASGrcBSyETb",
            "data": {
                "actionCategory": {
                    "value": "defensive"
                },
                "actionType": {
                    "value": "passive"
                },
                "actions": {
                    "value": null
                },
                "description": {
                    "value": "<p>5 feet.</p>\n<p>A creature that enters or begins its turn in the emanation takes [[/r 3d6 #cold]]{3d6 cold damage} (<span data-pf2-check=\"reflex\" data-pf2-dc=\"29\" data-pf2-traits=\"aura,cold,evocation,primal,damaging-effect\" data-pf2-label=\"Worm Chill DC\" data-pf2-show-dc=\"gm\">basic Reflex</span> save).</p>"
                },
                "requirements": {
                    "value": ""
                },
                "rules": [],
                "slug": null,
                "source": {
                    "value": ""
                },
                "traits": {
                    "custom": "",
                    "rarity": {
                        "value": "common"
                    },
                    "value": [
                        "aura",
                        "cold",
                        "evocation",
                        "primal"
                    ]
                },
                "trigger": {
                    "value": ""
                },
                "weapon": {
                    "value": ""
                }
            },
            "effects": [],
            "flags": {},
            "img": "systems/sf2e/icons/default-icons/mystery-man.svg",
            "name": "Worm Chill",
            "sort": 400000,
            "type": "action"
        },
        {
            "_id": "jISdvlh9f3wIBxZ8",
            "data": {
                "actionCategory": {
                    "value": "defensive"
                },
                "actionType": {
                    "value": "reaction"
                },
                "actions": {
                    "value": null
                },
                "description": {
                    "value": "<p data-visibility=\"gm\"><strong>Trigger</strong> The frost worm takes piercing or slashing damage;</p>\n<p><strong>Effect</strong> The frost worm's freezing blood sprays out on a random creature within 10 feet of the frost worm. That creature takes [[/r 7d6 #cold]]{7d6 cold damage} (<span data-pf2-check=\"reflex\" data-pf2-dc=\"29\" data-pf2-traits=\"cold,damaging-effect\" data-pf2-label=\"Freezing Blood DC\" data-pf2-show-dc=\"gm\">basic Reflex</span> save).</p>"
                },
                "requirements": {
                    "value": ""
                },
                "rules": [],
                "slug": null,
                "source": {
                    "value": ""
                },
                "traits": {
                    "custom": "",
                    "rarity": {
                        "value": "common"
                    },
                    "value": [
                        "cold"
                    ]
                },
                "trigger": {
                    "value": ""
                },
                "weapon": {
                    "value": ""
                }
            },
            "effects": [],
            "flags": {},
            "img": "systems/sf2e/icons/actions/Reaction.webp",
            "name": "Freezing Blood",
            "sort": 500000,
            "type": "action"
        },
        {
            "_id": "BdPJLN1AK4im8nIu",
            "data": {
                "actionCategory": {
                    "value": "offensive"
                },
                "actionType": {
                    "value": "action"
                },
                "actions": {
                    "value": 2
                },
                "description": {
                    "value": "<p>The frost worm exhales a blast of frost, dealing [[/r 13d6 #cold]]{13d6 cold damage} to creatures in a 50-foot cone (<span data-pf2-check=\"reflex\" data-pf2-dc=\"32\" data-pf2-traits=\"cold,evocation,primal,damaging-effect\" data-pf2-label=\"Breath Weapon DC\" data-pf2-show-dc=\"gm\">basic Reflex</span> save).</p>\n<p>It can't use Breath Weapon again for [[/r 1d4 #rounds]]{1d4 rounds}.</p>"
                },
                "requirements": {
                    "value": ""
                },
                "rules": [],
                "slug": null,
                "source": {
                    "value": ""
                },
                "traits": {
                    "custom": "",
                    "rarity": {
                        "value": "common"
                    },
                    "value": [
                        "cold",
                        "evocation",
                        "primal"
                    ]
                },
                "trigger": {
                    "value": ""
                },
                "weapon": {
                    "value": ""
                }
            },
            "effects": [],
            "flags": {},
            "img": "systems/sf2e/icons/actions/TwoActions.webp",
            "name": "Breath Weapon",
            "sort": 600000,
            "type": "action"
        },
        {
            "_id": "KtIqgI2Oe8cbrguF",
            "data": {
                "actionCategory": {
                    "value": "offensive"
                },
                "actionType": {
                    "value": "action"
                },
                "actions": {
                    "value": 1
                },
                "description": {
                    "value": "<p>The frost worm emits a hypnotic trill. Each non-frost worm creature within 100 feet must attempt a <span data-pf2-check=\"will\" data-pf2-dc=\"32\" data-pf2-traits=\"auditory,concentrate,enchantment,mental,primal\" data-pf2-label=\"Worm Trill DC\" data-pf2-show-dc=\"gm\">Will</span> save. The effects of Worm Trill last for 1 round, but if the frost worm uses this ability again on subsequent rounds, it extends this duration by 1 round for any creature already affected.</p>\n<p><strong>Success</strong> The creature is unaffected and is immune to Worm Trill for 24 hours.</p>\n<p><strong>Failure</strong> The creature is @Compendium[sf2e.conditionitems.Fascinated]{Fascinated} by the frost worm.</p>\n<p><strong>Critical Failure</strong> As failure, but the fascinated condition doesn't end if the frost worm uses hostile actions against the creature.</p>"
                },
                "requirements": {
                    "value": ""
                },
                "rules": [],
                "slug": null,
                "source": {
                    "value": ""
                },
                "traits": {
                    "custom": "",
                    "rarity": {
                        "value": "common"
                    },
                    "value": [
                        "auditory",
                        "concentrate",
                        "enchantment",
                        "mental",
                        "primal"
                    ]
                },
                "trigger": {
                    "value": ""
                },
                "weapon": {
                    "value": ""
                }
            },
            "effects": [],
            "flags": {},
            "img": "systems/sf2e/icons/actions/OneAction.webp",
            "name": "Worm Trill",
            "sort": 700000,
            "type": "action"
        },
        {
            "_id": "UHBwT9OkIzBLCG1V",
            "data": {
                "description": {
                    "value": ""
                },
                "item": {
                    "value": 0
                },
                "mod": {
                    "value": 25
                },
                "proficient": {
                    "value": 0
                },
                "rules": [],
                "slug": null,
                "source": {
                    "value": ""
                },
                "traits": {
                    "custom": "",
                    "rarity": {
                        "value": "common"
                    },
                    "value": []
                }
            },
            "effects": [],
            "flags": {},
            "img": "systems/sf2e/icons/default-icons/lore.svg",
            "name": "Athletics",
            "sort": 800000,
            "type": "lore"
        },
        {
            "_id": "0DWjvOoTNOT0cP4O",
            "data": {
                "description": {
                    "value": ""
                },
                "item": {
                    "value": 0
                },
                "mod": {
                    "value": 20
                },
                "proficient": {
                    "value": 0
                },
                "rules": [
                    {
                        "key": "FlatModifier",
                        "label": "In Ice and Snow",
                        "predicate": {
                            "any": [
                                "terrain:icy",
                                "terrain:snow"
                            ]
                        },
                        "selector": "stealth",
                        "value": 4
                    }
                ],
                "slug": null,
                "source": {
                    "value": ""
                },
                "traits": {
                    "custom": "",
                    "rarity": {
                        "value": "common"
                    },
                    "value": []
                },
                "variants": {
                    "0": {
                        "label": "+24 in ice and snow",
                        "options": "terrain:icy,terrain:snow"
                    }
                }
            },
            "effects": [],
            "flags": {},
            "img": "systems/sf2e/icons/default-icons/lore.svg",
            "name": "Stealth",
            "sort": 900000,
            "type": "lore"
        }
    ],
    "name": "Frost Worm",
    "token": {
        "disposition": -1,
        "height": 3,
        "img": "systems/sf2e/icons/default-icons/npc.svg",
        "name": "Frost Worm",
        "width": 3
    },
    "type": "npc"
}
