{
  "_id": "4gBIw4IDrSfFHik4",
  "data": {
    "ability": {
      "label": "Spellcasting Ability",
      "type": "String",
      "value": ""
    },
    "area": {
      "areaType": "",
      "label": "Area",
      "type": "String",
      "value": null
    },
    "components": {
      "label": "Spell Components",
      "type": "String",
      "value": "somatic, verbal"
    },
    "cost": {
      "label": "Cost",
      "type": "String",
      "value": ""
    },
    "damage": {
      "applyMod": true,
      "label": "Spell Damage",
      "type": "String",
      "value": "0"
    },
    "damageType": {
      "label": "Damage Type",
      "type": "String",
      "value": "mental"
    },
    "description": {
      "chat": "",
      "label": "Description",
      "type": "String",
      "unidentified": "",
      "value": "<p>You cloud the target's mind and daze it with a mental jolt. The jolt deals mental damage equal to your spellcasting ability modifier; the target must attempt a basic Will save. If the target critically fails the save, it is also @JournalEntry[Stunned] 1.</p>\n<hr>\n<p><strong>Heightened (+2)</strong> The damage increases by 1d6.</p>"
    },
    "duration": {
      "label": "Duration",
      "type": "String",
      "value": "1 round"
    },
    "level": {
      "label": "Spell Level",
      "type": "Number",
      "value": 0
    },
    "location": {
      "label": "Spellcasting Entry Location",
      "type": "String",
      "value": 66
    },
    "materials": {
      "label": "Materials",
      "type": "String",
      "value": ""
    },
    "prepared": {
      "label": "Prepared Spell",
      "type": "String",
      "value": ""
    },
    "range": {
      "label": "Range",
      "type": "String",
      "value": "60 feet"
    },
    "save": {
      "basic": "",
      "label": "Saving Throw",
      "type": "String",
      "value": "will"
    },
    "scaling": {
      "formula": "1d6",
      "mode": "level2"
    },
    "school": {
      "label": "Spell School",
      "type": "String",
      "value": "enc"
    },
    "source": {
      "label": "Source",
      "type": "String",
      "value": "https://2e.aonprd.com/Spells.aspx?ID=61"
    },
    "spellType": {
      "label": "Spell Type",
      "type": "String",
      "value": "save"
    },
    "sustained": {
      "label": "Can be Sustained",
      "type": "Boolean",
      "value": false
    },
    "target": {
      "label": "Target",
      "type": "String",
      "value": "1 creature"
    },
    "time": {
      "label": "Casting Time",
      "type": "String",
      "value": "2"
    },
    "traditions": {
      "label": "Spell Traditions",
      "type": "String",
      "value": [
        "arcane",
        "divine",
        "occult"
      ]
    },
    "traits": {
      "label": "Spell Traits",
      "type": "String",
      "value": [
        "cantrip",
        "enchantment",
        "mental",
        "nonlethal"
      ]
    }
  },
  "flags": {
    "_sheetTab": "details"
  },
  "img": "systems/sf2e/icons/spells/daze.jpg",
  "name": "Daze",
  "permission": {
    "default": 0
  },
  "sort": 400000,
  "type": "spell"
}
