{
    "_id": "6fb15XuSV4TNuVAT",
    "data": {
        "description": {
            "value": "<p>Spiteful curses punish your foes. The first creature that deals damage to you before the end of your next turn takes 2 mental damage per spell level and must attempt a basic Will save.</p>"
        },
        "duration": {
            "expiry": "turn-end",
            "sustained": false,
            "unit": "rounds",
            "value": 1
        },
        "level": {
            "value": 1
        },
        "rules": [],
        "source": {
            "value": ""
        },
        "start": {
            "initiative": null,
            "value": 0
        },
        "target": null,
        "tokenIcon": {
            "show": true
        },
        "traits": {
            "custom": "",
            "rarity": {
                "value": "common"
            },
            "value": []
        }
    },
    "effects": [],
    "flags": {},
    "img": "systems/sf2e/icons/features/classes/hag.webp",
    "name": "Effect: Hag Blood Magic",
    "type": "effect"
}
