{
    "_id": "fWU7Qjp1JiX9g6eg",
    "data": {
        "ability": {
            "value": ""
        },
        "area": {
            "areaType": "",
            "value": ""
        },
        "areasize": {
            "value": ""
        },
        "autoHeightenLevel": {
            "value": null
        },
        "category": {
            "value": "spell"
        },
        "components": {
            "material": false,
            "somatic": true,
            "verbal": true
        },
        "cost": {
            "value": ""
        },
        "damage": {
            "value": {
                "0": {
                    "type": {
                        "categories": [],
                        "value": "mental"
                    },
                    "value": "4d8"
                }
            }
        },
        "description": {
            "value": "<p>You implant a mental mine within your psyche that detonates against anyone attempting to manipulate your thoughts. You can use a single action, which has the concentrate trait, to suppress the effects of the mine for 1 round to allow someone to safely use a mental effect on you. You can Dismiss the spell.</p>\n<p>The first creature that uses a mental effect against you triggers the animus mine, causing the spell to end. The animus mine deals 4d8 mental damage to the triggering creature, which must attempt a Will save. This spell should only the deal the mental damage on magical mental effects that send their magic into your mind, not if a creature tries to do something mundane like talk to you.</p>\n<hr />\n<p><strong>Critical Success</strong> The creature is unaffected.</p>\n<p><strong>Success</strong> The creature takes half damage.</p>\n<p><strong>Failure</strong> The creature takes full damage and is @Compendium[sf2e.conditionitems.Stunned]{Stunned 1}.</p>\n<p><strong>Critical Failure</strong> The creature takes double damage and is @Compendium[sf2e.conditionitems.Stunned]{Stunned 1}. You are unaffected by the triggering mental effect.</p>\n<hr />\n<p><strong>Heightened (+1)</strong> The damage increases by 2d8.</p>"
        },
        "duration": {
            "value": "1 hour"
        },
        "hasCounteractCheck": {
            "value": false
        },
        "level": {
            "value": 2
        },
        "location": {
            "value": ""
        },
        "materials": {
            "value": ""
        },
        "prepared": {
            "value": ""
        },
        "primarycheck": {
            "value": ""
        },
        "range": {
            "value": ""
        },
        "rules": [],
        "save": {
            "basic": "",
            "value": "will"
        },
        "scaling": {
            "damage": {
                "0": "2d8"
            },
            "interval": 1
        },
        "school": {
            "value": "abjuration"
        },
        "secondarycasters": {
            "value": ""
        },
        "secondarycheck": {
            "value": ""
        },
        "source": {
            "value": "Pathfinder Lost Omens: Gods & Magic"
        },
        "spellType": {
            "value": "save"
        },
        "sustained": {
            "value": false
        },
        "target": {
            "value": ""
        },
        "time": {
            "value": "2"
        },
        "traditions": {
            "custom": "",
            "value": [
                "occult"
            ]
        },
        "traits": {
            "custom": "",
            "rarity": {
                "value": "common"
            },
            "value": [
                "mental"
            ]
        }
    },
    "effects": [],
    "flags": {},
    "img": "systems/sf2e/icons/spells/animus-mine.webp",
    "name": "Animus Mine",
    "type": "spell"
}
