{
    "_id": "OdqM06M0wDUqZWiR",
    "data": {
        "ability": {
            "value": ""
        },
        "area": {
            "areaType": "cone",
            "value": "15"
        },
        "autoHeightenLevel": {
            "value": null
        },
        "category": {
            "value": "spell"
        },
        "components": {
            "focus": false,
            "material": false,
            "somatic": true,
            "verbal": true
        },
        "cost": {
            "value": ""
        },
        "damage": {
            "applyMod": false,
            "value": {
                "0": {
                    "applyMod": false,
                    "type": {
                        "subtype": "",
                        "value": "mental"
                    },
                    "value": "5d8"
                },
                "1": {
                    "applyMod": false,
                    "type": {
                        "subtype": "",
                        "value": "bludgeoning"
                    },
                    "value": "5d6"
                }
            }
        },
        "description": {
            "value": "<p>You release a wave of temporal energy that sends creatures violently tumbling through time, scarring their thoughts with the information flowing around them. Although the journey can feel like it lasts for minutes or even days, the targets reappear instantly. Witnessing this chaotic flow of time and being bashed against objects from different times deals the targets 5d8 mental damage and 5d6 bludgeoning damage, with a Fortitude save. A creature that falls into time disappears until the end of your turn. It then reappears in the same space it left; if that space is occupied, it appears in the nearest empty space, chosen by the GM.</p>\n<hr />\n<p><strong>Critical Success</strong> The creature is unaffected.</p>\n<p><strong>Success</strong> The creature falls into time. When it returns, it takes half damage.</p>\n<p><strong>Failure</strong> The creature falls into time. When it returns, it takes full damage and is @Compendium[sf2e.conditionitems.Sickened]{Sickened 1}.</p>\n<p><strong>Critical Failure</strong> The creature falls into time. When it returns, it takes double damage and is @Compendium[sf2e.conditionitems.Sickened]{Sickened 2}.</p>\n<hr />\n<p><strong>Heightened (+1)</strong> The bludgeoning damage increase by 2d6.</p>"
        },
        "duration": {
            "value": ""
        },
        "hasCounteractCheck": {
            "value": false
        },
        "level": {
            "value": 6
        },
        "location": {
            "value": ""
        },
        "materials": {
            "value": ""
        },
        "prepared": {
            "value": ""
        },
        "range": {
            "value": ""
        },
        "rules": [],
        "save": {
            "basic": "",
            "value": "fortitude"
        },
        "scaling": {
            "damage": {
                "0": "",
                "1": "2d6"
            },
            "interval": 1
        },
        "school": {
            "value": "divination"
        },
        "source": {
            "value": "Pathfinder Secrets of Magic"
        },
        "spellType": {
            "value": "save"
        },
        "sustained": {
            "value": false
        },
        "target": {
            "value": ""
        },
        "time": {
            "value": "2"
        },
        "traditions": {
            "custom": "",
            "value": [
                "arcane",
                "occult"
            ]
        },
        "traits": {
            "custom": "",
            "rarity": {
                "value": "common"
            },
            "value": []
        }
    },
    "effects": [],
    "flags": {},
    "img": "systems/sf2e/icons/spells/cast-into-time.webp",
    "name": "Cast into Time",
    "type": "spell"
}
