{
    "_id": "9WlTR9JlEcjRmGiD",
    "data": {
        "ability": {
            "value": ""
        },
        "area": {
            "areaType": "",
            "value": ""
        },
        "areasize": {
            "value": ""
        },
        "category": {
            "value": "focus"
        },
        "components": {
            "material": false,
            "somatic": true,
            "verbal": false
        },
        "cost": {
            "value": ""
        },
        "damage": {
            "value": {
                "0": {
                    "type": {
                        "categories": [],
                        "value": "good"
                    },
                    "value": "1d4"
                }
            }
        },
        "description": {
            "value": "<p>A blazing symbol appears on the target, cursing it to face divine justice. You and your allies receive a +1 status bonus to your attack rolls and skill checks against it.</p>\n<p>Anytime a good creature damages it, the good creature deals an additional [[/r 1d4 #good]]{1d4 good damage}. The target is then temporarily immune for 1 minute.</p>\n<hr />\n<p><strong>Heightened (+2)</strong> The good damage increases by 1.</p>\n<p>@Compendium[sf2e.spell-effects.Spell Effect: Celestial Brand]{Spell Effect: Celestial Brand}</p>"
        },
        "duration": {
            "value": "1 round"
        },
        "hasCounteractCheck": {
            "value": false
        },
        "level": {
            "value": 5
        },
        "location": {
            "value": ""
        },
        "materials": {
            "value": ""
        },
        "prepared": {
            "value": ""
        },
        "primarycheck": {
            "value": ""
        },
        "range": {
            "value": "30 feet"
        },
        "rules": [],
        "save": {
            "basic": "",
            "value": ""
        },
        "scaling": {
            "damage": {
                "0": "1"
            },
            "interval": 2
        },
        "school": {
            "value": "necromancy"
        },
        "secondarycasters": {
            "value": ""
        },
        "secondarycheck": {
            "value": ""
        },
        "source": {
            "value": "Pathfinder Core Rulebook"
        },
        "spellType": {
            "value": "utility"
        },
        "sustained": {
            "value": false
        },
        "target": {
            "value": "1 evil creature"
        },
        "time": {
            "value": "1"
        },
        "traditions": {
            "value": []
        },
        "traits": {
            "custom": "",
            "rarity": {
                "value": "uncommon"
            },
            "value": [
                "uncommon",
                "sorcerer",
                "curse"
            ]
        }
    },
    "effects": [],
    "flags": {},
    "img": "systems/sf2e/icons/spells/celestial-brand.webp",
    "name": "Celestial Brand",
    "type": "spell"
}
