{
    "_id": "6UafOE1ZUbHamsZJ",
    "data": {
        "ability": {
            "value": ""
        },
        "area": {
            "value": ""
        },
        "areasize": {
            "value": ""
        },
        "category": {
            "value": "focus"
        },
        "components": {
            "material": false,
            "somatic": true,
            "verbal": false
        },
        "cost": {
            "value": ""
        },
        "damage": {
            "value": {}
        },
        "description": {
            "value": "<p><strong>Trigger</strong> You cast a darkness or shadow spell.</p>\n<hr />\n<p>You magnify the darkness from the triggering effect, causing the ambient light level to flicker briefly so you can slip from sight. You can immediately attempt a Stealth check to @Compendium[sf2e.actionssf2e.Hide]{Hide}, and you can become @Compendium[sf2e.conditionitems.Hidden]{Hidden} to a creature even if you don't have cover and aren't otherwise concealed from that creature. You cease being hidden at the end of your turn unless you move into cover or become @Compendium[sf2e.conditionitems.Concealed]{Concealed} before then.</p>"
        },
        "duration": {
            "value": ""
        },
        "hasCounteractCheck": {
            "value": false
        },
        "level": {
            "value": 1
        },
        "location": {
            "value": ""
        },
        "materials": {
            "value": ""
        },
        "prepared": {
            "value": ""
        },
        "primarycheck": {
            "value": ""
        },
        "range": {
            "value": ""
        },
        "rules": [],
        "save": {
            "basic": "",
            "value": ""
        },
        "school": {
            "value": "evocation"
        },
        "secondarycasters": {
            "value": ""
        },
        "secondarycheck": {
            "value": ""
        },
        "source": {
            "value": "Pathfinder Advanced Player's Guide"
        },
        "spellType": {
            "value": "utility"
        },
        "sustained": {
            "value": false
        },
        "target": {
            "value": ""
        },
        "time": {
            "value": "reaction"
        },
        "traditions": {
            "value": []
        },
        "traits": {
            "custom": "",
            "rarity": {
                "value": "uncommon"
            },
            "value": [
                "darkness",
                "sorcerer"
            ]
        }
    },
    "effects": [],
    "flags": {},
    "img": "systems/sf2e/icons/spells/dim-the-light.webp",
    "name": "Dim the Light",
    "type": "spell"
}
