{
    "_id": "vQMAdnIwnV9prPiG",
    "data": {
        "ability": {
            "value": ""
        },
        "area": {
            "areaType": "",
            "value": ""
        },
        "autoHeightenLevel": {
            "value": null
        },
        "category": {
            "value": "spell"
        },
        "components": {
            "focus": false,
            "material": false,
            "somatic": true,
            "verbal": true
        },
        "cost": {
            "value": ""
        },
        "damage": {
            "value": {}
        },
        "description": {
            "value": "<p>Drawing upon the deepest wells of magic in an elemental plane, you transform into a spectacular elemental. You can choose between an air elemental, earth elemental, fire elemental, or water elemental. Your battle form is Gargantuan, and you must have enough space to expand into or the spell is lost. While in this form, you gain the elemental trait and the trait for the element you choose. You can Dismiss the spell.</p>\n<p>You gain the following statistics and abilities regardless of which battle form you choose:</p>\n<ul>\n<li>AC = 25 + your level. Ignore your armor’s check penalty and Speed reduction.</li>\n<li>30 temporary Hit Points.</li>\n<li>Darkvision.</li>\n<li>One or more attacks specific to the battle form you choose, which are the only attacks you can use. You’re trained with them. Your attack modifier is +34, and you use the listed damage. These attacks are Dexterity based if you choose an air or fire elemental, or Strength based if you choose an earth or water elemental. (This distinction doesn’t change the statistics, but matters for the enfeebled and clumsy conditions, for example). If your unarmed attack modifier is higher, you can use it instead.</li>\n<li>Acrobatics modifier of +36 for air or fire elemental or Athletics modifier of +36 for earth or water elemental, unless your own modifier is higher.</li>\n</ul>\n<p>You also gain specific abilities based on the type of elemental you choose:</p>\n<ul>\n<li><strong>Air Elemental</strong> fly Speed 80 feet;\n<ul>\n<li><strong>High Winds</strong> (air, aura) 30 feet. Air within the emanation is difficult terrain for flying creatures that don’t have the air trait;</li>\n<li><strong>Swiftness</strong> Your movement doesn’t trigger reactions;</li>\n<li><strong>Melee</strong> <span class=\"pf2-icon\">1</span> gust (reach 25 feet), <strong>Damage</strong> 3d12+11 bludgeoning plus Push 10 feet;</li>\n<li><strong>Ranged</strong> <span class=\"pf2-icon\">1</span> lightning lash (range increment 80 feet), <strong>Damage</strong> 3d12+4 electricity.</li>\n</ul>\n</li>\n</ul>\n<p>@Compendium[sf2e.spell-effects.Spell Effect: Element Embodied (Air)]{Spell Effect: Element Embodied (Air)}</p>\n<ul>\n<li><strong>Earth Elemental</strong> 30 feet, burrow 20 feet; resistance 5 to physical;\n<ul>\n<li><strong>Spike Stones</strong> (aura, earth) 30 feet. The area is difficult terrain and hazardous terrain. A creature without the earth trait that moves on the ground in the area takes 5 piercing damage for every square of that area it moves into;</li>\n<li><strong>Rocky Toughness</strong> You gain 40 temporary Hit Points when you choose this form instead of 30;</li>\n<li><strong>Melee</strong> <span class=\"pf2-icon\">1</span> fist (reach 25 feet), <strong>Damage</strong> 3d12+15 bludgeoning;</li>\n<li><strong>Ranged</strong> <span class=\"pf2-icon\">1</span> rock (range increment 40 feet), <strong>Damage</strong> 4d8+6 bludgeoning.</li>\n</ul>\n</li>\n</ul>\n<p>@Compendium[sf2e.spell-effects.Spell Effect: Element Embodied (Earth)]{Spell Effect: Element Embodied (Earth)}</p>\n<ul>\n<li><strong>Fire Elemental</strong> 50 feet; immunity to fire; weakness to cold 10;\n<ul>\n<li><strong>Intense Heat</strong> (aura, fire) 30 feet. A creature that enters the aura or starts its turn in the aura takes 5d6 fire damage with a basic Reflex save against your spell DC. A creature can take damage from the aura only once per round;</li>\n<li><strong>Melee</strong> <span class=\"pf2-icon\">1</span> tendril (reach 25 feet), <strong>Damage</strong> 3d10+12 fire plus 2d6 persistent fire;</li>\n<li><strong>Ranged</strong> <span class=\"pf2-icon\">1</span> fire mote (range increment 60 feet), <strong>Damage</strong> 4d8+6 bludgeoning.</li>\n</ul>\n</li>\n</ul>\n<p>@Compendium[sf2e.spell-effects.Spell Effect: Element Embodied (Fire)]{Spell Effect: Element Embodied (Fire)}</p>\n<ul>\n<li><strong>Water Elemental</strong> 40 feet, swim 80 feet; resistance 10 to fire;\n<ul>\n<li><strong>Vortex</strong> (aura, water) 30 feet. Water within the aura that is part of the same body of water you occupy is difficult terrain for Swimming creatures that don’t have the water trait;</li>\n<li><strong>Melee</strong> <span class=\"pf2-icon\">1</span> wave (reach 25 feet), <strong>Damage</strong> 3d12+18 bludgeoning plus Push or Pull 10 feet;</li>\n<li><strong>Ranged</strong> <span class=\"pf2-icon\">1</span> water spout (range increment 60 feet), <strong>Damage</strong> 4d8+6 bludgeoning.</li>\n</ul>\n</li>\n</ul>\n<p>@Compendium[sf2e.spell-effects.Spell Effect: Element Embodied (Water)]{Spell Effect: Element Embodied (Water)}</p>"
        },
        "duration": {
            "value": "1 minute"
        },
        "hasCounteractCheck": {
            "value": false
        },
        "level": {
            "value": 10
        },
        "location": {
            "value": ""
        },
        "materials": {
            "value": ""
        },
        "range": {
            "value": ""
        },
        "rules": [],
        "save": {
            "basic": "",
            "value": ""
        },
        "school": {
            "value": "transmutation"
        },
        "source": {
            "value": "Pathfinder Secrets of Magic"
        },
        "spellType": {
            "value": "utility"
        },
        "sustained": {
            "value": false
        },
        "target": {
            "value": ""
        },
        "time": {
            "value": "2"
        },
        "traditions": {
            "custom": "",
            "value": [
                "primal"
            ]
        },
        "traits": {
            "custom": "",
            "rarity": {
                "value": "common"
            },
            "value": [
                "polymorph"
            ]
        }
    },
    "effects": [],
    "flags": {},
    "img": "systems/sf2e/icons/spells/element-embodied.webp",
    "name": "Element Embodied",
    "type": "spell"
}
