{
    "_id": "HRb2doyaLtaoCfi3",
    "data": {
        "ability": {
            "value": ""
        },
        "area": {
            "areaType": "burst",
            "value": 10
        },
        "areasize": {
            "value": "10-foot burst"
        },
        "category": {
            "value": "spell"
        },
        "components": {
            "material": false,
            "somatic": true,
            "verbal": true
        },
        "cost": {
            "value": ""
        },
        "damage": {
            "value": {}
        },
        "description": {
            "value": "<p>All creatures in the area when you cast the spell are limned in colorful, heatless fire of a color of your choice for the duration. Visible creatures can't be @Compendium[sf2e.conditionitems.Concealed]{Concealed} while affected by faerie fire. If the creatures are @Compendium[sf2e.conditionitems.Invisible]{Invisible}, they are Concealed while affected by faerie fire, rather than being @Compendium[sf2e.conditionitems.Undetected]{Undetected}.</p>"
        },
        "duration": {
            "value": "5 minutes"
        },
        "hasCounteractCheck": {
            "value": false
        },
        "level": {
            "value": 2
        },
        "location": {
            "value": ""
        },
        "materials": {
            "value": ""
        },
        "prepared": {
            "value": ""
        },
        "primarycheck": {
            "value": ""
        },
        "range": {
            "value": "120 feet"
        },
        "rules": [],
        "save": {
            "basic": "",
            "value": ""
        },
        "school": {
            "value": "evocation"
        },
        "secondarycasters": {
            "value": ""
        },
        "secondarycheck": {
            "value": ""
        },
        "source": {
            "value": "Pathfinder Core Rulebook"
        },
        "spellType": {
            "value": "utility"
        },
        "sustained": {
            "value": false
        },
        "target": {
            "value": ""
        },
        "time": {
            "value": "2"
        },
        "traditions": {
            "value": [
                "divine",
                "occult",
                "primal"
            ]
        },
        "traits": {
            "custom": "",
            "rarity": {
                "value": "common"
            },
            "value": [
                "light"
            ]
        }
    },
    "effects": [],
    "flags": {},
    "img": "systems/sf2e/icons/spells/faerie-fire.webp",
    "name": "Faerie Fire",
    "type": "spell"
}
