{
    "_id": "rfFZKfeCSweFv7P3",
    "data": {
        "ability": {
            "value": ""
        },
        "area": {
            "areaType": "",
            "value": ""
        },
        "autoHeightenLevel": {
            "value": null
        },
        "category": {
            "value": "spell"
        },
        "components": {
            "focus": false,
            "material": false,
            "somatic": true,
            "verbal": true
        },
        "cost": {
            "value": ""
        },
        "damage": {
            "applyMod": false,
            "value": {
                "0": {
                    "applyMod": false,
                    "type": {
                        "subtype": "",
                        "value": "mental"
                    },
                    "value": "6d6"
                }
            }
        },
        "description": {
            "value": "<p>You sift through myriad potential futures, seize upon one potential moment in which the target meets a particularly gruesome and fatal end, and then show it a vision of its impending demise. The intense mental vision grows more and more terrifying to the target as the doom grows closer, and it takes 3 rounds to reach its conclusion. The target must attempt a Will saving throw to determine the effects. At the end of the spell's duration, if the target was affected, the target witnesses its death and takes 6d6 mental damage.</p>\n<hr />\n<p><strong>Critical Success</strong> The creature is unaffected.</p>\n<p><strong>Success</strong> The creature is unaffected for 1 round. On the second round, it becomes @Compendium[sf2e.conditionitems.Flat-Footed]{Flat-Footed}. Finally, on the third round, it becomes @Compendium[sf2e.conditionitems.Frightened]{Frightened 1}. At the end of the third round, it takes half damage.</p>\n<p><strong>Failure</strong> The creature is immediately flat-footed. On the second round, it becomes @Compendium[sf2e.conditionitems.Frightened]{Frightened 2}. Finally, on the third round, it also becomes @Compendium[sf2e.conditionitems.Stunned]{Stunned 1}. At the end of the third round, the creature takes full damage.</p>\n<p><strong>Critical Failure</strong> The creature is immediately flat-footed and @Compendium[sf2e.conditionitems.Frightened]{Frightened 3}. On the second round, it becomes stunned 1. Finally, on the third round, it also becomes @Compendium[sf2e.conditionitems.Paralyzed]{Paralyzed}. At the end of the third round, the creature takes double damage.</p>\n<hr />\n<p><strong>Heightened (+1)</strong> The damage increases by 2d6.</p>"
        },
        "duration": {
            "value": "3 round"
        },
        "hasCounteractCheck": {
            "value": false
        },
        "level": {
            "value": 3
        },
        "location": {
            "value": ""
        },
        "materials": {
            "value": ""
        },
        "range": {
            "value": "30 feet"
        },
        "rules": [],
        "save": {
            "basic": "",
            "value": "will"
        },
        "scaling": {
            "damage": {
                "0": "2d6"
            },
            "interval": 1
        },
        "school": {
            "value": "divination"
        },
        "source": {
            "value": "Pathfinder Secrets of Magic"
        },
        "spellType": {
            "value": "save"
        },
        "sustained": {
            "value": false
        },
        "target": {
            "value": "1 living creature"
        },
        "time": {
            "value": "2"
        },
        "traditions": {
            "custom": "",
            "value": [
                "arcane",
                "divine",
                "occult"
            ]
        },
        "traits": {
            "custom": "",
            "rarity": {
                "value": "common"
            },
            "value": [
                "emotion",
                "fear",
                "incapacitation",
                "mental",
                "prediction"
            ]
        }
    },
    "effects": [],
    "flags": {},
    "img": "systems/sf2e/icons/spells/impending-doom.webp",
    "name": "Impending Doom",
    "type": "spell"
}
