{
    "_id": "gMbrNFKz9NP3TR4s",
    "data": {
        "ability": {
            "value": ""
        },
        "area": {
            "areaType": "",
            "value": ""
        },
        "autoHeightenLevel": {
            "value": null
        },
        "category": {
            "value": "spell"
        },
        "components": {
            "focus": false,
            "material": false,
            "somatic": true,
            "verbal": true
        },
        "cost": {
            "value": ""
        },
        "damage": {
            "applyMod": false,
            "value": {
                "0": {
                    "applyMod": false,
                    "type": {
                        "subtype": "",
                        "value": "mental"
                    },
                    "value": "6d6"
                }
            }
        },
        "description": {
            "value": "<p>You inflict your targets with a crushing doubt about everyone and everything around them. For the duration, each target is unwilling to receive any effects that require a willing target (in case the effect was secretly an attack), refuse to ingest anything (in case the substances have been replaced with poisons and cursed duplicates), doesn't treat anyone as an ally (in case its friends were replaced by an impostor), and doesn't believe anything it's told (in case of lies, though this doesn't mean the creature automatically believes the opposite either). It doesn't even fully trust its own ability to Recall Knowledge, as it becomes convinced it most likely remembered false information, as from a critical failure on a check to Recall Knowledge.</p>\n<p>Finally, the creature takes 6d6 mental damage at the end of each of its turns (with no save) unless it spent at least 1 action that turn Seeking or otherwise interacting with its surroundings in an attempt to disbelieve the illusions that it feels are obviously surrounding it.</p>\n<hr />\n<p><strong>Critical Success</strong> The creature is unaffected.</p>\n<p><strong>Success</strong> The creature is affected for 1 round.</p>\n<p><strong>Failure</strong> The creature is affected for 1 minute.</p>\n<p><strong>Critical Failure</strong> The creature is affected for 1 hour.</p>"
        },
        "duration": {
            "value": ""
        },
        "hasCounteractCheck": {
            "value": false
        },
        "level": {
            "value": 7
        },
        "location": {
            "value": ""
        },
        "materials": {
            "value": ""
        },
        "range": {
            "value": "30 feet"
        },
        "rules": [],
        "save": {
            "basic": "",
            "value": "will"
        },
        "school": {
            "value": "enchantment"
        },
        "source": {
            "value": "Pathfinder Secrets of Magic"
        },
        "spellType": {
            "value": "save"
        },
        "sustained": {
            "value": false
        },
        "target": {
            "value": "up to 5 creatures"
        },
        "time": {
            "value": "2"
        },
        "traditions": {
            "custom": "",
            "value": [
                "arcane",
                "divine",
                "occult"
            ]
        },
        "traits": {
            "custom": "",
            "rarity": {
                "value": "common"
            },
            "value": [
                "emotion",
                "mental"
            ]
        }
    },
    "effects": [],
    "flags": {},
    "img": "systems/sf2e/icons/spells/inexhaustible-cynicism.webp",
    "name": "Inexhaustible Cynicism",
    "type": "spell"
}
