{
    "_id": "Z7N5IxJCwrAdIgSg",
    "data": {
        "ability": {
            "value": ""
        },
        "area": {
            "areaType": "",
            "value": null
        },
        "areasize": {
            "value": ""
        },
        "category": {
            "value": "spell"
        },
        "components": {
            "material": true,
            "somatic": true,
            "verbal": true
        },
        "cost": {
            "value": ""
        },
        "damage": {
            "value": {}
        },
        "description": {
            "value": "<p>You record a message up to 5 minutes long and inscribe a special rune on any flat unattended surface within reach. The nature of the rune's appearance is up to you, but it is visible to everyone and it must be no smaller than 2 inches in diameter. You also specify a trigger that creatures must meet to activate the rune. For the duration of the spell, creatures who meet the criteria of the trigger can touch the rune to hear the recorded message in their head as though you were speaking to them telepathically. You know when someone is listening to the message, but you do not know who is listening to it. You can Dismiss the spell.</p>"
        },
        "duration": {
            "value": "1 day"
        },
        "hasCounteractCheck": {
            "value": false
        },
        "level": {
            "value": 1
        },
        "location": {
            "value": ""
        },
        "materials": {
            "value": ""
        },
        "prepared": {
            "value": ""
        },
        "primarycheck": {
            "value": ""
        },
        "range": {
            "value": "touch"
        },
        "rules": [],
        "save": {
            "basic": "",
            "value": ""
        },
        "school": {
            "value": "abjuration"
        },
        "secondarycasters": {
            "value": ""
        },
        "secondarycheck": {
            "value": ""
        },
        "source": {
            "value": "Pathfinder Lost Omens: Gods & Magic"
        },
        "spellType": {
            "value": "utility"
        },
        "sustained": {
            "value": false
        },
        "target": {
            "value": "1 flat unattended surface"
        },
        "time": {
            "value": "5 minutes"
        },
        "traditions": {
            "custom": "",
            "value": [
                "arcane",
                "occult"
            ]
        },
        "traits": {
            "custom": "",
            "rarity": {
                "value": "common"
            },
            "value": [
                "mental",
                "linguistic"
            ]
        }
    },
    "effects": [],
    "flags": {},
    "img": "systems/sf2e/icons/spells/message-rune.webp",
    "name": "Message Rune",
    "type": "spell"
}
