{
    "_id": "29JyWqqZ0thCFr1C",
    "data": {
        "ability": {
            "value": ""
        },
        "area": {
            "areaType": "",
            "value": ""
        },
        "autoHeightenLevel": {
            "value": null
        },
        "category": {
            "value": "spell"
        },
        "components": {
            "material": false,
            "somatic": true,
            "verbal": true
        },
        "cost": {
            "value": "3 gp game piece focus"
        },
        "damage": {
            "value": {}
        },
        "description": {
            "value": "<p>You lock minds with the target, trying to mentally subdue them. The target must attempt a Will save. Each time you Sustain this Spell, the target attempts another Will save.</p>\n<hr />\n<p><strong>Critical Success</strong> You are @Compendium[sf2e.conditionitems.Stunned]{Stunned 1} and the spell ends.</p>\n<p><strong>Success</strong> The target is unaffected.</p>\n<p><strong>Failure</strong> The target is stunned 1.</p>\n<p><strong>Critical Failure</strong> The target is @Compendium[sf2e.conditionitems.Stunned]{Stunned 2}.</p>"
        },
        "duration": {
            "value": "sustained up to 1 minute"
        },
        "hasCounteractCheck": {
            "value": false
        },
        "level": {
            "value": 2
        },
        "location": {
            "value": ""
        },
        "materials": {
            "value": ""
        },
        "prepared": {
            "value": ""
        },
        "range": {
            "value": "30 feet"
        },
        "rules": [],
        "save": {
            "basic": "",
            "value": "will"
        },
        "school": {
            "value": "enchantment"
        },
        "source": {
            "value": "Pathfinder Adventure #169: Kindled Magic"
        },
        "spellType": {
            "value": "save"
        },
        "sustained": {
            "value": false
        },
        "target": {
            "value": "1 creature"
        },
        "time": {
            "value": "2"
        },
        "traditions": {
            "custom": "",
            "value": [
                "arcane",
                "occult"
            ]
        },
        "traits": {
            "custom": "",
            "rarity": {
                "value": "uncommon"
            },
            "value": [
                "mental"
            ]
        }
    },
    "effects": [],
    "flags": {},
    "img": "systems/sf2e/icons/default-icons/spell.svg",
    "name": "Mind Games",
    "type": "spell"
}
