{
    "_id": "YtBZq49N4Um1cwm7",
    "data": {
        "ability": {
            "value": ""
        },
        "area": {
            "areaType": "burst",
            "value": "80"
        },
        "autoHeightenLevel": {
            "value": null
        },
        "category": {
            "value": "spell"
        },
        "components": {
            "focus": false,
            "material": true,
            "somatic": true,
            "verbal": true
        },
        "cost": {
            "value": ""
        },
        "damage": {
            "value": {
                "0": {
                    "applyMod": false,
                    "type": {
                        "categories": [],
                        "subtype": "",
                        "value": "poison"
                    },
                    "value": "6"
                }
            }
        },
        "description": {
            "value": "<p>The plant life within the area begins to writhe and lash out against your enemies as you call upon nature to impede your foes. To your enemies, the area becomes difficult terrain, and areas that were naturally difficult terrain due to plants become greater difficult terrain as well as hazardous terrain, dealing [[/r 6 #poison]]{6 poison damage} to an enemy each time it enters an affected square.</p>\n<hr />\n<p><strong>Heightened (+1)</strong> The poison damage of the hazardous terrain increases by [[/r 1 #poison]].</p>"
        },
        "duration": {
            "value": "1 minute"
        },
        "hasCounteractCheck": {
            "value": false
        },
        "level": {
            "value": 6
        },
        "location": {
            "value": ""
        },
        "materials": {
            "value": ""
        },
        "range": {
            "value": "120 feet"
        },
        "rules": [],
        "save": {
            "basic": "",
            "value": ""
        },
        "scaling": {
            "damage": {
                "0": "1"
            },
            "interval": 1
        },
        "school": {
            "value": "transmutation"
        },
        "source": {
            "value": "Pathfinder Secrets of Magic"
        },
        "spellType": {
            "value": "utility"
        },
        "sustained": {
            "value": false
        },
        "target": {
            "value": "all squares on the ground that contain plants in an 80-foot burst"
        },
        "time": {
            "value": "3"
        },
        "traditions": {
            "custom": "",
            "value": [
                "primal"
            ]
        },
        "traits": {
            "custom": "",
            "rarity": {
                "value": "common"
            },
            "value": [
                "plant",
                "poison"
            ]
        }
    },
    "effects": [],
    "flags": {},
    "img": "systems/sf2e/icons/default-icons/spell.svg",
    "name": "Nature's Resprisal",
    "type": "spell"
}
