{
    "_id": "CPNlhDQP3aDmLzB3",
    "data": {
        "ability": {
            "value": ""
        },
        "area": {
            "areaType": "emanation",
            "value": "30"
        },
        "autoHeightenLevel": {
            "value": null
        },
        "category": {
            "value": "focus"
        },
        "components": {
            "material": false,
            "somatic": true,
            "verbal": true
        },
        "cost": {
            "value": ""
        },
        "damage": {
            "value": {
                "0": {
                    "type": {
                        "categories": [],
                        "value": "mental"
                    },
                    "value": "4d6"
                }
            }
        },
        "description": {
            "value": "<p>You call upon the authority of cosmic forces of order, overwhelming creatures with remorse and agony for acting outside of their station and purpose.</p>\n<p>Enemies in the area take 4d6 mental damage and must attempt a Will save. A creature that has lost abilities as a result of performing acts anathema to its deity or beliefs (such as a champion who violated their tenets and hasn't atoned) uses the outcome one degree of success worse than the result of its saving throw.</p>\n<p>At the GM's discretion, a creature currently filling its appointed station and purpose (such as a farmer working in a field or a criminal in the act of committing a crime) uses the outcome one degree of success better than the result of its saving throw.</p>\n<hr />\n<p><strong>Critical Success</strong> The creature is unaffected.</p>\n<p><strong>Success</strong> The creature takes half damage.</p>\n<p><strong>Failure</strong> The creature takes full damage and must @Compendium[sf2e.actionssf2e.Drop Prone]{Drop Prone} as its first action on its next turn.</p>\n<p><strong>Critical Failure</strong> The creature takes double damage, must @Compendium[sf2e.actionssf2e.Drop Prone]{Drop Prone} as its first action on its next turn, and can't @Compendium[sf2e.actionssf2e.Stand]{Stand} during its next turn.</p>\n<hr />\n<p><strong>Heightened (+1)</strong> The damage increases by 2d6.</p>"
        },
        "duration": {
            "value": ""
        },
        "hasCounteractCheck": {
            "value": false
        },
        "level": {
            "value": 4
        },
        "location": {
            "value": ""
        },
        "materials": {
            "value": ""
        },
        "prepared": {
            "value": ""
        },
        "range": {
            "value": ""
        },
        "rules": [],
        "save": {
            "basic": "basic",
            "value": "will"
        },
        "scaling": {
            "damage": {
                "0": "2d6"
            },
            "interval": 1
        },
        "school": {
            "value": "enchantment"
        },
        "source": {
            "value": "Pathfinder #161: Belly of the Black Whale"
        },
        "spellType": {
            "value": "save"
        },
        "sustained": {
            "value": false
        },
        "target": {
            "value": ""
        },
        "time": {
            "value": "2"
        },
        "traditions": {
            "custom": "",
            "value": []
        },
        "traits": {
            "custom": "",
            "rarity": {
                "value": "uncommon"
            },
            "value": [
                "mental"
            ]
        }
    },
    "effects": [],
    "flags": {},
    "img": "systems/sf2e/icons/spells/ordained-purpose.webp",
    "name": "Ordained Purpose",
    "type": "spell"
}
