{
    "_id": "D31YX7zvRBvenTAz",
    "data": {
        "ability": {
            "value": ""
        },
        "area": {
            "areaType": "burst",
            "value": "15"
        },
        "autoHeightenLevel": {
            "value": null
        },
        "category": {
            "value": "spell"
        },
        "components": {
            "focus": false,
            "material": false,
            "somatic": true,
            "verbal": true
        },
        "cost": {
            "value": ""
        },
        "damage": {
            "applyMod": false,
            "value": {
                "0": {
                    "applyMod": false,
                    "type": {
                        "subtype": "",
                        "value": "slashing"
                    },
                    "value": "2d10"
                }
            }
        },
        "description": {
            "value": "<p>You bring forth a cloud of razor-sharp flower petals that thrash violently in the wind. A creature that enters the storm or starts its turn in the storm is sliced by the razor-sharp edges of the petals. It takes 2d10 slashing damage with a basic Reflex save. A creature can take damage from the petals only once per round. At the end of the duration, the storm calms and the petals fall harmlessly to the ground.</p>\n<hr />\n<p><strong>Heightened (+2)</strong> The damage increases by [[/r 1d10]]{1d10}.</p>"
        },
        "duration": {
            "value": "1 minute"
        },
        "hasCounteractCheck": {
            "value": false
        },
        "level": {
            "value": 4
        },
        "location": {
            "value": ""
        },
        "materials": {
            "value": ""
        },
        "range": {
            "value": "120 fet"
        },
        "rules": [],
        "save": {
            "basic": "basic",
            "value": "reflex"
        },
        "scaling": {
            "damage": {
                "0": "1d10"
            },
            "interval": 2
        },
        "school": {
            "value": "conjuration"
        },
        "source": {
            "value": "Pathfinder Secrets of Magic"
        },
        "spellType": {
            "value": "save"
        },
        "sustained": {
            "value": false
        },
        "target": {
            "value": ""
        },
        "time": {
            "value": "2"
        },
        "traditions": {
            "custom": "",
            "value": [
                "primal"
            ]
        },
        "traits": {
            "custom": "",
            "rarity": {
                "value": "common"
            },
            "value": [
                "air",
                "plant"
            ]
        }
    },
    "effects": [],
    "flags": {},
    "img": "systems/sf2e/icons/default-icons/spell.svg",
    "name": "Petal Storm",
    "type": "spell"
}
