{
    "_id": "L0GoJpHxSD0wRY5k",
    "data": {
        "ability": {
            "value": ""
        },
        "area": {
            "value": ""
        },
        "areasize": {
            "value": ""
        },
        "category": {
            "value": "spell"
        },
        "components": {
            "material": false,
            "somatic": true,
            "verbal": true
        },
        "cost": {
            "value": ""
        },
        "damage": {
            "value": {}
        },
        "description": {
            "value": "<p>A phantasmal image of the most precious thing imaginable to the target appears in a location of your choice within the spell's range. Only the spell's target can see the treasure, though you can see the vague shape of the treasure-be it a pile of items, a deific avatar, or a cherished loved one or hero. The target's response to the treasure is based on the outcome of the target's Will save.</p>\n<hr />\n<p><strong>Critical Success</strong> The target is unaffected.</p>\n<p><strong>Success</strong> The target becomes @Compendium[sf2e.conditionitems.Fascinated]{Fascinated} with the treasure, and the duration is until the end of its turn. The target can also try to disbelieve the illusion if it touches the treasure @Compendium[sf2e.actionssf2e.Seek]{Seeks} to examine it, or speaks to it if the illusion appears to be a person or the like. If the target disbelieves the illusion, the spell ends.</p>\n<p><strong>Failure</strong> As success, but the duration is 1 minute.</p>\n<p><strong>Critical Failure</strong> As success, but the duration is 1 minute. The target finds the treasure so appealing that until the spell ends, it must spend each action focused on it. This can include moving toward the treasure if the target isn't next to it, and @Compendium[sf2e.actionssf2e.Interact]{Interacting} with the treasure if the target is next to it. (If the illusion appears to be a person or the like, the target can also Interact to converse with it.)</p>"
        },
        "duration": {
            "value": "varies"
        },
        "hasCounteractCheck": {
            "value": false
        },
        "level": {
            "value": 2
        },
        "location": {
            "value": ""
        },
        "materials": {
            "value": ""
        },
        "prepared": {
            "value": false
        },
        "primarycheck": {
            "value": ""
        },
        "range": {
            "value": "60 feet"
        },
        "rules": [],
        "save": {
            "basic": "",
            "value": "will"
        },
        "school": {
            "value": "illusion"
        },
        "secondarycasters": {
            "value": ""
        },
        "secondarycheck": {
            "value": ""
        },
        "source": {
            "value": "Pathfinder Advanced Player's Guide"
        },
        "spellType": {
            "value": "save"
        },
        "sustained": {
            "value": false
        },
        "target": {
            "value": "1 living creature"
        },
        "time": {
            "value": "2"
        },
        "traditions": {
            "value": [
                "arcane",
                "occult"
            ]
        },
        "traits": {
            "custom": "",
            "rarity": {
                "value": "common"
            },
            "value": [
                "emotion",
                "mental"
            ]
        }
    },
    "effects": [],
    "flags": {},
    "img": "systems/sf2e/icons/spells/phantasmal-treasure.webp",
    "name": "Phantasmal Treasure",
    "type": "spell"
}
