{
    "_id": "oOaEfsdVpgTXRhrY",
    "data": {
        "ability": {
            "value": ""
        },
        "area": {
            "areaType": "",
            "value": ""
        },
        "autoHeightenLevel": {
            "value": null
        },
        "category": {
            "value": "focus"
        },
        "components": {
            "focus": false,
            "material": false,
            "somatic": true,
            "verbal": false
        },
        "cost": {
            "value": ""
        },
        "damage": {
            "value": {}
        },
        "description": {
            "value": "<p>Your unarmed attacks or weapon gain the benefits of a weapon rune you choose when you cast this spell: corrosive, flaming, frost, ghost touch, returning, shock, or thundering. If you cast runic impression on a weapon, this spell ends if you cease holding the weapon. If this spell would give a weapon more property runes than its normal maximum, one of the existing property runes (you choose) is suppressed until the spell ends. For unarmed attacks, if this spell would give you more property runes than you could have from handwraps of mighty blows, one of the existing property runes is similarly suppressed.</p>\n<hr />\n<p><strong>Heightened (8th)</strong> Add keen to the list of runes you can choose as well as the greater types of corrosive, flaming, frost, shock, and thundering.</p>"
        },
        "duration": {
            "value": "1 minute"
        },
        "hasCounteractCheck": {
            "value": false
        },
        "level": {
            "value": 4
        },
        "location": {
            "value": ""
        },
        "materials": {
            "value": ""
        },
        "range": {
            "value": "touch"
        },
        "rules": [],
        "save": {
            "basic": "",
            "value": ""
        },
        "school": {
            "value": "evocation"
        },
        "source": {
            "value": "Pathfinder Secrets of Magic"
        },
        "spellType": {
            "value": "utility"
        },
        "sustained": {
            "value": false
        },
        "target": {
            "value": "you or one weapon you're wielding"
        },
        "time": {
            "value": "1"
        },
        "traditions": {
            "value": []
        },
        "traits": {
            "custom": "",
            "rarity": {
                "value": "uncommon"
            },
            "value": [
                "magus"
            ]
        }
    },
    "effects": [],
    "flags": {},
    "img": "systems/sf2e/icons/default-icons/spell.svg",
    "name": "Runic Impression",
    "type": "spell"
}
