{
    "_id": "DYdvMZ8G2LiSLVWw",
    "data": {
        "ability": {
            "value": ""
        },
        "area": {
            "areaType": "",
            "value": ""
        },
        "areasize": {
            "value": ""
        },
        "category": {
            "value": "spell"
        },
        "components": {
            "material": false,
            "somatic": true,
            "verbal": true
        },
        "cost": {
            "value": ""
        },
        "damage": {
            "value": {
                "0": {
                    "type": {
                        "categories": [],
                        "value": "poison"
                    },
                    "value": "1d4"
                }
            }
        },
        "description": {
            "value": "<p>You magically duplicate a spider's venomous sting. You deal 1d4 piercing damage to the touched creature and afflict it with spider venom. The target must attempt a Fortitude save.</p>\n<hr />\n<p><strong>Critical Success</strong> The target is unaffected.</p>\n<p><strong>Success</strong> The target takes 1d4 poison damage.</p>\n<p><strong>Failure</strong> The target is afflicted with spider venom at stage 1.</p>\n<p><strong>Critical Failure</strong> The target is afflicted with spider venom at stage 2.</p>\n<hr />\n<p><strong>Spider Venom</strong> (poison)</p>\n<p><strong>Level 1;</strong></p>\n<p><strong>Maximum Duration</strong> 4 rounds.</p>\n<p><strong>Stage 1</strong> [[/r 1d4 #poison]]{1d4 poison damage} and @Compendium[sf2e.conditionitems.Enfeebled]{Enfeebled 1} (1 round);</p>\n<p><strong>Stage 2</strong> [[/r 1d4 #poison]]{1d4 poison damage} and @Compendium[sf2e.conditionitems.Enfeebled]{Enfeebled 2} (1 round).</p>"
        },
        "duration": {
            "value": ""
        },
        "hasCounteractCheck": {
            "value": false
        },
        "level": {
            "value": 1
        },
        "location": {
            "value": ""
        },
        "materials": {
            "value": ""
        },
        "prepared": {
            "value": ""
        },
        "primarycheck": {
            "value": ""
        },
        "range": {
            "value": "touch"
        },
        "rules": [],
        "save": {
            "basic": "",
            "value": "fortitude"
        },
        "school": {
            "value": "necromancy"
        },
        "secondarycasters": {
            "value": ""
        },
        "secondarycheck": {
            "value": ""
        },
        "source": {
            "value": "Pathfinder Core Rulebook"
        },
        "spellType": {
            "value": "save"
        },
        "sustained": {
            "value": false
        },
        "target": {
            "value": "1 creature"
        },
        "time": {
            "value": "2"
        },
        "traditions": {
            "value": [
                "arcane",
                "primal"
            ]
        },
        "traits": {
            "custom": "",
            "rarity": {
                "value": "common"
            },
            "value": [
                "poison"
            ]
        }
    },
    "effects": [],
    "flags": {},
    "img": "systems/sf2e/icons/spells/spider-sting.webp",
    "name": "Spider Sting",
    "type": "spell"
}
