{
    "_id": "B0FZLkoHsiRgw7gv",
    "data": {
        "ability": {
            "value": ""
        },
        "area": {
            "areaType": "",
            "value": ""
        },
        "autoHeightenLevel": {
            "value": null
        },
        "category": {
            "value": "spell"
        },
        "components": {
            "focus": false,
            "material": true,
            "somatic": true,
            "verbal": true
        },
        "cost": {
            "value": ""
        },
        "damage": {
            "value": {}
        },
        "description": {
            "value": "<p>While deities jealously guard their most powerful servants from the summoning spells of those who aren't steeped in the faith, this spell allows you to conjure an inhabitant of the Outer Sphere with or without the deity's permission.</p>\n<p>You summon a celestial, monitor, or fiend whose level is –1 to fight on your behalf. Alternatively, you can choose a magical animal from the Outer Sphere as your lesser servitor. This animal is your choice of an @Compendium[sf2e.pathfinder-bestiary.Eagle]{Eagle}, @Compendium[sf2e.pathfinder-bestiary.Guard Dog]{Guard Dog}, or @Compendium[sf2e.pathfinder-bestiary-2.Raven]{Raven}. It gains the alignment matching your deity (or you, if you don't have a deity) and has the following trait depending on the alignment it gained: celestial for lawful, monitor for neutral, or fiend for evil. You can't summon a creature if it is opposed to your deity's alignment on either axis (or opposed to your alignment if you don't follow a deity). For example, if you deity is lawful good, you can't summon a chaotic or evil creature. The GM might determine that deities restrict specific types of creatures even if their alignments aren't diametrically opposed. For example, Pharasma would restrict the summoning of sahkils.</p>\n<p>Heightening the spell increases the maximum level of creature you can summon and might add additional animal servitors, which otherwise work like the eagle, guard dog, and raven.</p>\n<hr />\n<p><strong>Heightened (2nd)</strong> Level 1.</p>\n<p><strong>Heightened (3rd)</strong> Level 2. You can summon a @Compendium[sf2e.pathfinder-bestiary-2.Black Bear]{Black Bear}, @Compendium[sf2e.pathfinder-bestiary.Giant Bat]{Giant Bat}, or @Compendium[sf2e.pathfinder-bestiary.Leopard]{Leopard}.</p>\n<p><strong>Heightened (4th)</strong> Level 3. You can summon a @Compendium[sf2e.pathfinder-bestiary.Great White Shark]{Great White Shark} or @Compendium[sf2e.pathfinder-bestiary.Tiger]{Tiger}.</p>"
        },
        "duration": {
            "value": "sustained up to 1 minute"
        },
        "hasCounteractCheck": {
            "value": false
        },
        "level": {
            "value": 1
        },
        "location": {
            "value": ""
        },
        "materials": {
            "value": ""
        },
        "range": {
            "value": "30 feet"
        },
        "rules": [],
        "save": {
            "basic": "",
            "value": ""
        },
        "school": {
            "value": "conjuration"
        },
        "source": {
            "value": "Pathfinder Secrets of Magic"
        },
        "spellType": {
            "value": "utility"
        },
        "sustained": {
            "value": false
        },
        "target": {
            "value": ""
        },
        "time": {
            "value": "3"
        },
        "traditions": {
            "custom": "",
            "value": [
                "divine"
            ]
        },
        "traits": {
            "custom": "",
            "rarity": {
                "value": "common"
            },
            "value": []
        }
    },
    "effects": [],
    "flags": {},
    "img": "systems/sf2e/icons/spells/summon-lesser-servitor.webp",
    "name": "Summon Lesser Servitor",
    "type": "spell"
}
