{
    "_id": "kIRWUBxocERjIBni",
    "data": {
        "ability": {
            "value": ""
        },
        "area": {
            "areaType": "",
            "value": ""
        },
        "autoHeightenLevel": {
            "value": null
        },
        "category": {
            "value": "spell"
        },
        "components": {
            "focus": false,
            "material": true,
            "somatic": true,
            "verbal": true
        },
        "cost": {
            "value": ""
        },
        "damage": {
            "value": {}
        },
        "description": {
            "value": "<p>Your faith is strong enough to briefly summon a direct representative of your deity, such as the deity's herald. The herald occupies the space of a Huge creature and has a Speed of 60 feet. The effects of this spell depend on your deity's alignment.</p>\n<ul>\n<li><strong>Lawful Good</strong>: <strong>Arrive</strong> (enchantment, good, lawful) <em>Aura of Retribution</em> While within 100 feet of the herald, you and your allies gain the champion's @Compendium[sf2e.actionssf2e.Retributive Strike]{Retributive Strike} reaction; <strong>Depart</strong> <em>Holy Smite</em> The herald casts 5th-level @Compendium[sf2e.spells-srd.Divine Wrath]{Divine Wrath} (choosing good) in a 100-foot emanation.</li>\n<li><strong>Neutral Good</strong>: <strong>Arrive</strong> (enchantment, good) <em>Aura of Redemption</em> While within 100 feet of the herald, you and your allies gain the champion's @Compendium[sf2e.actionssf2e.Glimpse of Redemption]{Glimpse of Redemption} reaction; <strong>Depart</strong> <em>Merciful Healing</em> The herald casts the 3-action version of 5th-level @Compendium[sf2e.spells-srd.Heal]{Heal} with a radius of 100 feet. This spell targets only you and your allies.</li>\n<li><strong>Chaotic Good</strong>: <strong>Arrive</strong> (chaotic, enchantment, good) <em>Aura of Liberation</em> While within 100 feet of the herald, you and your allies gain the champion's @Compendium[sf2e.actionssf2e.Liberating Step]{Liberating Step} reaction; <strong>Depart</strong> <em>Radiating Freedom</em> The herald affects you and all your allies within 100 feet with @Compendium[sf2e.spells-srd.Freedom of Movement]{Freedom of Movement}. The duration is reduced to 3 rounds.</li>\n<li><strong>Lawful Neutral</strong>: <strong>Arrive</strong> (abjuration, lawful) <em>Defy Chaos</em> You and each ally within 100 feet of the herald gain resistance 20 against chaotic damage while the herald is present; <strong>Depart</strong> <em>Order's Wrath</em> The herald casts 5th-level @Compendium[sf2e.spells-srd.Divine Wrath]{Divine Wrath} (choosing lawful) in a 100-foot emanation</li>\n<li><strong>Neutral</strong>: <strong>Arrive</strong> (transmutation) <em>Quickening Ripple</em> You and each ally within 100 feet of the herald are @Compendium[sf2e.conditionitems.Quickened]{Quickened} while the herald is present, and can use the additional action to Step, Stride, or Strike; <strong>Depart</strong> <em>Sapping Beam</em> The herald casts 6th-level @Compendium[sf2e.spells-srd.Enervation]{Enervation} in a 100‑foot line.</li>\n<li><strong>Chaotic Neutral</strong>: <strong>Arrive</strong> (abjuration, chaotic) <em>Defy Law</em> You and each ally within 100 feet of the herald gain resistance 20 against lawful damage while the herald is present; <strong>Depart</strong> <em>Chaos Hammer</em> The herald casts 5th-level @Compendium[sf2e.spells-srd.Divine Wrath]{Divine Wrath} (choosing chaotic) in a 100-foot emanation.</li>\n<li><strong>Lawful Evil</strong>: <strong>Arrive</strong> <em>Aura of Iron</em> While within 100 feet of the herald, you and your allies gain the champion's @Compendium[sf2e.actionssf2e.Iron Command]{Iron Command} reaction; <strong>Depart</strong> <em>Unholy Blight</em> The herald casts 5th-level @Compendium[sf2e.spells-srd.Divine Wrath]{Divine Wrath} (choosing evil) in a 100‑foot emanation.</li>\n<li><strong>Neutral Evil</strong>: <strong>Arrive</strong> <em>Aura of Selfishness</em> While within 100 feet of the herald, you and your allies gain the champion's @Compendium[sf2e.actionssf2e.Selfish Shield]{Selfish Shield} reaction; <strong>Depart</strong> <em>Infinite Despair</em> The herald casts 5th-level @Compendium[sf2e.spells-srd.Crushing Despair]{Crushing Despair} in a 100-foot cone.</li>\n<li><strong>Chaotic Evil</strong>: <strong>Arrive</strong> <em>Aura of Vengeance</em> While within 100 feet of the herald, you and your allies gain the champion's @Compendium[sf2e.actionssf2e.Destructive Vengeance]{Destructive Vengeance} reaction; <strong>Depart</strong> <em>Weapon Hurricane</em> The herald casts 5th-level @Compendium[sf2e.spells-srd.Weapon Storm]{Weapon Storm} in a 100-foot cone, using d12 for the die size.</li>\n</ul>"
        },
        "duration": {
            "value": "until the end of your next turn"
        },
        "hasCounteractCheck": {
            "value": false
        },
        "level": {
            "value": 8
        },
        "location": {
            "value": ""
        },
        "materials": {
            "value": "You have a deity."
        },
        "range": {
            "value": "100 feet"
        },
        "rules": [],
        "save": {
            "basic": "",
            "value": ""
        },
        "school": {
            "value": "conjuration"
        },
        "source": {
            "value": "Pathfinder Secrets of Magic"
        },
        "spellType": {
            "value": "utility"
        },
        "sustained": {
            "value": false
        },
        "target": {
            "value": ""
        },
        "time": {
            "value": "3"
        },
        "traditions": {
            "custom": "",
            "value": [
                "divine"
            ]
        },
        "traits": {
            "custom": "",
            "rarity": {
                "value": "common"
            },
            "value": [
                "incarnate"
            ]
        }
    },
    "effects": [],
    "flags": {},
    "img": "systems/sf2e/icons/spells/summon-deific-herald.webp",
    "name": "Summon Deific Herald",
    "type": "spell"
}
