{
    "_id": "ZqmP9gijBmK7y8Xy",
    "data": {
        "ability": {
            "value": ""
        },
        "area": {
            "areaType": "",
            "value": null
        },
        "areasize": {
            "value": ""
        },
        "category": {
            "value": "spell"
        },
        "components": {
            "material": false,
            "somatic": true,
            "verbal": true
        },
        "cost": {
            "value": ""
        },
        "damage": {
            "value": {
                "0": {
                    "applyMod": true,
                    "type": {
                        "categories": [],
                        "value": "force"
                    },
                    "value": "3d10"
                }
            }
        },
        "description": {
            "value": "<p>An immense weapon of force appears, hovering in the air above the target. The weapon has the ghostly visual appearance of your deity's favored weapon. Name war or peace when you cast this spell.</p>\n<p>If you name \"war,\" mentally choose one creature. This must be a creature both you and the target can see. The target instinctively knows which creature this is. At the end of each of the target's turns, if the target did not use a hostile action against the creature you chose during that turn, the weapon Strikes the target.</p>\n<p>If you name \"peace,\" mentally choose up to five allies. The target instinctively knows who those allies are. The weapon Strikes the target each time the target uses a hostile action against you or one of your allies. The weapon Strikes only once per action, even if the action targets multiple allies (such as for a @Compendium[sf2e.spells-srd.Fireball]{Fireball} or a Whirlwind Strike).</p>\n<p>Strikes with the weapon are melee weapon attacks, but they use your spell attack modifier. Regardless of its appearance, the weapon deals force damage equal to 3d10 plus your spellcasting ability modifier. The weapon takes a multiple attack penalty, which increases throughout the target's turn, but its penalty is separate from yours.</p>\n<p>When the weapon Strikes, you can deal damage of the normal damage type of the weapon instead of force damage (or any of the available damage types, for a versatile weapon). No other statistics or attributes of the weapon apply, and even a ranged weapon attacks adjacent creatures only. A weapon of judgment is a weapon for the purposes of triggers, resistances, and so forth.</p>\n<p>The weapon doesn't take up space, grant flanking, or have any other attributes a creature would. The weapon can't make any attack other than its Strike, and feats or spells that affect weapons do not apply to this weapon.</p>\n<hr />\n<p><strong>Heightened (10th)</strong> The force damage increases by 1d10.</p>"
        },
        "duration": {
            "value": "1 minute"
        },
        "hasCounteractCheck": {
            "value": false
        },
        "level": {
            "value": 9
        },
        "location": {
            "value": ""
        },
        "materials": {
            "value": "You have a deity."
        },
        "prepared": {
            "value": ""
        },
        "primarycheck": {
            "value": ""
        },
        "range": {
            "value": "100 feet"
        },
        "rules": [],
        "save": {
            "basic": "",
            "value": ""
        },
        "scaling": {
            "damage": {
                "0": "1d10"
            },
            "interval": 1
        },
        "school": {
            "value": "evocation"
        },
        "secondarycasters": {
            "value": ""
        },
        "secondarycheck": {
            "value": ""
        },
        "source": {
            "value": "Pathfinder Core Rulebook"
        },
        "spellType": {
            "value": "attack"
        },
        "sustained": {
            "value": false
        },
        "target": {
            "value": "1 creature"
        },
        "time": {
            "value": "2"
        },
        "traditions": {
            "value": [
                "divine"
            ]
        },
        "traits": {
            "custom": "",
            "rarity": {
                "value": "common"
            },
            "value": [
                "force"
            ]
        }
    },
    "effects": [],
    "flags": {},
    "img": "systems/sf2e/icons/spells/weapon-of-judgement.webp",
    "name": "Weapon of Judgement",
    "type": "spell"
}
