{
    "_id": "g4FRxyuHndZu4KTo",
    "data": {
        "actionCategory": {
            "value": ""
        },
        "actionType": {
            "value": "passive"
        },
        "actions": {
            "value": null
        },
        "description": {
            "value": "<p>Your lineage has been exposed to curse after curse, and now, they slide off your feathers like rain. If you succeed at a saving throw against a curse or misfortune effect, you get a critical success instead.</p>\n<p>When you would gain the @Compendium[sf2e.conditionitems.Doomed]{Doomed} condition, attempt a <a class=\"inline-roll roll\" title=\"DC 17 flat check\" data-mode=\"roll\" data-flavor=\"DC 17 flat check\" data-formula=\"1d20\"> 1d20</a> DC 17 flat check. On a success, reduce the value of the doomed condition you would gain by 1.</p>"
        },
        "featType": {
            "value": "heritage"
        },
        "level": {
            "value": 1
        },
        "location": "",
        "prerequisites": {
            "value": []
        },
        "rules": [],
        "source": {
            "value": ""
        },
        "traits": {
            "custom": "",
            "rarity": {
                "value": "common"
            },
            "value": [
                "tengu"
            ]
        }
    },
    "effects": [],
    "flags": {},
    "img": "systems/sf2e/icons/features/ancestry/jinxed-tengu.webp",
    "name": "Jinxed Tengu",
    "type": "feat"
}
