{
    "_id": "JQUoBlZKT5N5zO5k",
    "data": {
        "description": {
            "value": "<p><strong>Frequency</strong> once per day</p>\n<p><strong>Access</strong> mountain dwarf ethnicity</p>\n<p><strong>Trigger</strong> An ally within 30 feet gains the @Compendium[sf2e.conditionitems.Dying]{Dying} condition.</p>\n<hr />\n<p>You honor your ally's life, gaining temporary Hit Points equal to your level for 1 minute. As long as you have these temporary Hit Points, you gain a +1 circumstance bonus to attack and damage rolls.</p>\n<p>Implemented Effects:</p>\n<ul>\n<li>Temporary hitpoints based on level</li>\n<li>Sets a circumstance bonus of +1 to attack and damage rolls</li>\n</ul>"
        },
        "duration": {
            "expiry": "turn-start",
            "sustained": false,
            "unit": "minutes",
            "value": 1
        },
        "level": {
            "value": 1
        },
        "rules": [
            {
                "key": "TempHP",
                "value": "@details.level.value"
            },
            {
                "key": "FlatModifier",
                "label": "Avenge in Glory",
                "selector": "attack",
                "type": "circumstance",
                "value": 1
            },
            {
                "key": "FlatModifier",
                "label": "Avenge in Glory",
                "selector": "damage",
                "type": "circumstance",
                "value": 1
            }
        ],
        "source": {
            "value": ""
        },
        "start": {
            "initiative": null,
            "value": 0
        },
        "target": null,
        "tokenIcon": {
            "show": true
        },
        "traits": {
            "custom": "",
            "rarity": {
                "value": "common"
            },
            "value": []
        }
    },
    "effects": [],
    "flags": {},
    "img": "systems/sf2e/icons/default-icons/feats.webp",
    "name": "Effect: Avenge in Glory",
    "type": "effect"
}
