{
    "_id": "qIOEe4kUN7FOBifb",
    "data": {
        "description": {
            "value": "<p>In hybrid shape, you appear as a mix between your ancestry and your inherent animal. While in hybrid shape, you gain a jaws unarmed Strike resembling the features of your inherent animal (fangs for bats, beaks for eagles, mandibles for wasps, and so on). Your jaws deal 1d4 piercing damage, have the agile, finesse, and unarmed traits, and are in the brawling weapon group.</p>"
        },
        "duration": {
            "expiry": "turn-start",
            "sustained": false,
            "unit": "unlimited",
            "value": -1
        },
        "level": {
            "value": 1
        },
        "rules": [
            {
                "category": "unarmed",
                "damage": {
                    "base": {
                        "damageType": "piercing",
                        "dice": 1,
                        "die": "d4"
                    }
                },
                "group": "brawling",
                "key": "Strike",
                "label": "Jaws",
                "range": "melee",
                "traits": [
                    "agile",
                    "finesse",
                    "unarmed"
                ]
            }
        ],
        "source": {
            "value": "Pathfinder Lost Omens: Ancestry Guide"
        },
        "start": {
            "initiative": null,
            "value": 0
        },
        "target": null,
        "tokenIcon": {
            "show": true
        },
        "traits": {
            "custom": "",
            "rarity": {
                "value": "common"
            },
            "value": []
        }
    },
    "effects": [],
    "flags": {},
    "img": "systems/sf2e/icons/spells/beastmaster-trance.webp",
    "name": "Effect: Hybrid Form",
    "type": "effect"
}
