{
    "_id": "ZnKnOPPq3cG54PlG",
    "data": {
        "description": {
            "value": "<p>Granted by @Compendium[sf2e.feats-srd.Shining Oath (Liberator)]{Shining Oath (Liberator)}</p>\n<p>If you use Liberating Step triggered by a undead, your ally gains a +4 circumstance bonus to checks granted by your Liberating Step, and the ally can Step twice afterward.</p>"
        },
        "duration": {
            "expiry": "turn-start",
            "sustained": false,
            "unit": "unlimited",
            "value": -1
        },
        "level": {
            "value": 2
        },
        "rules": [
            {
                "key": "FlatModifier",
                "label": "Liberating Step (vs. undead)",
                "predicate": {
                    "all": [
                        "action:escape"
                    ]
                },
                "selector": "athletics",
                "type": "circumstance",
                "value": 4
            },
            {
                "key": "FlatModifier",
                "label": "Liberating Step (vs. undead)",
                "predicate": {
                    "all": [
                        "action:escape"
                    ]
                },
                "selector": "acrobatics",
                "type": "circumstance",
                "value": 4
            },
            {
                "key": "FlatModifier",
                "label": "Liberating Step (vs. undead)",
                "predicate": {
                    "all": [
                        "action:escape",
                        "unarmed"
                    ]
                },
                "selector": "attack",
                "type": "circumstance",
                "value": 4
            },
            {
                "key": "FlatModifier",
                "label": "Liberating Step (vs. undead)",
                "predicate": {
                    "all": [
                        "action:escape"
                    ]
                },
                "selector": "saving-throw",
                "type": "circumstance",
                "value": 4
            }
        ],
        "source": {
            "value": ""
        },
        "start": {
            "initiative": null,
            "value": 0
        },
        "target": null,
        "tokenIcon": {
            "show": true
        },
        "traits": {
            "custom": "",
            "rarity": {
                "value": "common"
            },
            "value": []
        }
    },
    "effects": [],
    "flags": {},
    "img": "systems/sf2e/icons/spells/disrupt-undead.webp",
    "name": "Effect: Liberating Step (vs. Undead)",
    "type": "effect"
}
