{
    "_id": "U4yBzKmwPgz3lCEq",
    "data": {
        "description": {
            "value": "<p>The marilith makes two Strikes, each with a different weapon, and they use the remaining weapons for protection. The demon gains a circumstance bonus to AC for 1 round equal to the number of weapons not used for attacks.</p>\n<p>If the marilith later uses any of those weapons to attack (including for an Attack of Opportunity), the bonus to AC decreases by 1 for each weapon used.</p>"
        },
        "duration": {
            "expiry": "turn-start",
            "sustained": false,
            "unit": "rounds",
            "value": 1
        },
        "level": {
            "value": 1
        },
        "rules": [
            {
                "key": "FlatModifier",
                "rollOptions": [
                    "ac",
                    "all"
                ],
                "selector": "ac",
                "type": "circumstance",
                "value": 4
            }
        ],
        "source": {
            "value": ""
        },
        "start": {
            "initiative": null,
            "value": 0
        },
        "target": null,
        "tokenIcon": {
            "show": true
        },
        "traits": {
            "custom": "",
            "rarity": {
                "value": "common"
            },
            "value": []
        }
    },
    "effects": [],
    "flags": {},
    "img": "systems/sf2e/icons/features/classes/master-strike.webp",
    "name": "Effect: Defensive Assault (4 Weapons)",
    "type": "effect"
}
